<?xml version="1.0" encoding="utf-8" standalone="no"?>
<!DOCTYPE svg PUBLIC "-//W3C//DTD SVG 1.1//EN"
  "http://www.w3.org/Graphics/SVG/1.1/DTD/svg11.dtd">
<!-- Created with matplotlib (http://matplotlib.org/) -->
<svg height="282pt" version="1.1" viewBox="0 0 460 282" width="460pt" xmlns="http://www.w3.org/2000/svg" xmlns:xlink="http://www.w3.org/1999/xlink">
 <defs>
  <style type="text/css">
*{stroke-linecap:butt;stroke-linejoin:round;}
  </style>
 </defs>
 <g id="figure_1">
  <g id="patch_1">
   <path d="M 0 282.24 
L 460.8 282.24 
L 460.8 0 
L 0 0 
z
" style="fill:#ffffff;"/>
  </g>
  <g id="axes_1">
   <g id="patch_2">
    <path d="M 57.6 235.872 
L 455.314286 235.872 
L 455.314286 1.344 
L 57.6 1.344 
z
" style="fill:#ffffff;"/>
   </g>
   <g id="matplotlib.axis_1">
    <g id="xtick_1">
     <g id="line2d_1">
      <path clip-path="url(#p5a63a1a5e3)" d="M 75.677922 235.872 
L 75.677922 1.344 
" style="fill:none;stroke:#666666;stroke-linecap:square;stroke-width:0.8;"/>
     </g>
     <g id="line2d_2">
      <defs>
       <path d="M 0 0 
L 0 3.5 
" id="m7c584e8abf" style="stroke:#000000;stroke-width:0.8;"/>
      </defs>
      <g>
       <use style="stroke:#000000;stroke-width:0.8;" x="75.677922" xlink:href="#m7c584e8abf" y="235.872"/>
      </g>
     </g>
     <g id="text_1">
      <!-- 16 -->
      <defs>
       <path d="M 12.40625 8.296875 
L 28.515625 8.296875 
L 28.515625 63.921875 
L 10.984375 60.40625 
L 10.984375 69.390625 
L 28.421875 72.90625 
L 38.28125 72.90625 
L 38.28125 8.296875 
L 54.390625 8.296875 
L 54.390625 0 
L 12.40625 0 
z
" id="DejaVuSans-31"/>
       <path d="M 33.015625 40.375 
Q 26.375 40.375 22.484375 35.828125 
Q 18.609375 31.296875 18.609375 23.390625 
Q 18.609375 15.53125 22.484375 10.953125 
Q 26.375 6.390625 33.015625 6.390625 
Q 39.65625 6.390625 43.53125 10.953125 
Q 47.40625 15.53125 47.40625 23.390625 
Q 47.40625 31.296875 43.53125 35.828125 
Q 39.65625 40.375 33.015625 40.375 
z
M 52.59375 71.296875 
L 52.59375 62.3125 
Q 48.875 64.0625 45.09375 64.984375 
Q 41.3125 65.921875 37.59375 65.921875 
Q 27.828125 65.921875 22.671875 59.328125 
Q 17.53125 52.734375 16.796875 39.40625 
Q 19.671875 43.65625 24.015625 45.921875 
Q 28.375 48.1875 33.59375 48.1875 
Q 44.578125 48.1875 50.953125 41.515625 
Q 57.328125 34.859375 57.328125 23.390625 
Q 57.328125 12.15625 50.6875 5.359375 
Q 44.046875 -1.421875 33.015625 -1.421875 
Q 20.359375 -1.421875 13.671875 8.265625 
Q 6.984375 17.96875 6.984375 36.375 
Q 6.984375 53.65625 15.1875 63.9375 
Q 23.390625 74.21875 37.203125 74.21875 
Q 40.921875 74.21875 44.703125 73.484375 
Q 48.484375 72.75 52.59375 71.296875 
z
" id="DejaVuSans-36"/>
      </defs>
      <g transform="translate(69.315422 250.470438)scale(0.1 -0.1)">
       <use xlink:href="#DejaVuSans-31"/>
       <use x="63.623047" xlink:href="#DejaVuSans-36"/>
      </g>
     </g>
    </g>
    <g id="xtick_2">
     <g id="line2d_3">
      <path clip-path="url(#p5a63a1a5e3)" d="M 135.937662 235.872 
L 135.937662 1.344 
" style="fill:none;stroke:#666666;stroke-linecap:square;stroke-width:0.8;"/>
     </g>
     <g id="line2d_4">
      <g>
       <use style="stroke:#000000;stroke-width:0.8;" x="135.937662" xlink:href="#m7c584e8abf" y="235.872"/>
      </g>
     </g>
     <g id="text_2">
      <!-- 32 -->
      <defs>
       <path d="M 40.578125 39.3125 
Q 47.65625 37.796875 51.625 33 
Q 55.609375 28.21875 55.609375 21.1875 
Q 55.609375 10.40625 48.1875 4.484375 
Q 40.765625 -1.421875 27.09375 -1.421875 
Q 22.515625 -1.421875 17.65625 -0.515625 
Q 12.796875 0.390625 7.625 2.203125 
L 7.625 11.71875 
Q 11.71875 9.328125 16.59375 8.109375 
Q 21.484375 6.890625 26.8125 6.890625 
Q 36.078125 6.890625 40.9375 10.546875 
Q 45.796875 14.203125 45.796875 21.1875 
Q 45.796875 27.640625 41.28125 31.265625 
Q 36.765625 34.90625 28.71875 34.90625 
L 20.21875 34.90625 
L 20.21875 43.015625 
L 29.109375 43.015625 
Q 36.375 43.015625 40.234375 45.921875 
Q 44.09375 48.828125 44.09375 54.296875 
Q 44.09375 59.90625 40.109375 62.90625 
Q 36.140625 65.921875 28.71875 65.921875 
Q 24.65625 65.921875 20.015625 65.03125 
Q 15.375 64.15625 9.8125 62.3125 
L 9.8125 71.09375 
Q 15.4375 72.65625 20.34375 73.4375 
Q 25.25 74.21875 29.59375 74.21875 
Q 40.828125 74.21875 47.359375 69.109375 
Q 53.90625 64.015625 53.90625 55.328125 
Q 53.90625 49.265625 50.4375 45.09375 
Q 46.96875 40.921875 40.578125 39.3125 
z
" id="DejaVuSans-33"/>
       <path d="M 19.1875 8.296875 
L 53.609375 8.296875 
L 53.609375 0 
L 7.328125 0 
L 7.328125 8.296875 
Q 12.9375 14.109375 22.625 23.890625 
Q 32.328125 33.6875 34.8125 36.53125 
Q 39.546875 41.84375 41.421875 45.53125 
Q 43.3125 49.21875 43.3125 52.78125 
Q 43.3125 58.59375 39.234375 62.25 
Q 35.15625 65.921875 28.609375 65.921875 
Q 23.96875 65.921875 18.8125 64.3125 
Q 13.671875 62.703125 7.8125 59.421875 
L 7.8125 69.390625 
Q 13.765625 71.78125 18.9375 73 
Q 24.125 74.21875 28.421875 74.21875 
Q 39.75 74.21875 46.484375 68.546875 
Q 53.21875 62.890625 53.21875 53.421875 
Q 53.21875 48.921875 51.53125 44.890625 
Q 49.859375 40.875 45.40625 35.40625 
Q 44.1875 33.984375 37.640625 27.21875 
Q 31.109375 20.453125 19.1875 8.296875 
z
" id="DejaVuSans-32"/>
      </defs>
      <g transform="translate(129.575162 250.470438)scale(0.1 -0.1)">
       <use xlink:href="#DejaVuSans-33"/>
       <use x="63.623047" xlink:href="#DejaVuSans-32"/>
      </g>
     </g>
    </g>
    <g id="xtick_3">
     <g id="line2d_5">
      <path clip-path="url(#p5a63a1a5e3)" d="M 196.197403 235.872 
L 196.197403 1.344 
" style="fill:none;stroke:#666666;stroke-linecap:square;stroke-width:0.8;"/>
     </g>
     <g id="line2d_6">
      <g>
       <use style="stroke:#000000;stroke-width:0.8;" x="196.197403" xlink:href="#m7c584e8abf" y="235.872"/>
      </g>
     </g>
     <g id="text_3">
      <!-- 64 -->
      <defs>
       <path d="M 37.796875 64.3125 
L 12.890625 25.390625 
L 37.796875 25.390625 
z
M 35.203125 72.90625 
L 47.609375 72.90625 
L 47.609375 25.390625 
L 58.015625 25.390625 
L 58.015625 17.1875 
L 47.609375 17.1875 
L 47.609375 0 
L 37.796875 0 
L 37.796875 17.1875 
L 4.890625 17.1875 
L 4.890625 26.703125 
z
" id="DejaVuSans-34"/>
      </defs>
      <g transform="translate(189.834903 250.470438)scale(0.1 -0.1)">
       <use xlink:href="#DejaVuSans-36"/>
       <use x="63.623047" xlink:href="#DejaVuSans-34"/>
      </g>
     </g>
    </g>
    <g id="xtick_4">
     <g id="line2d_7">
      <path clip-path="url(#p5a63a1a5e3)" d="M 256.457143 235.872 
L 256.457143 1.344 
" style="fill:none;stroke:#666666;stroke-linecap:square;stroke-width:0.8;"/>
     </g>
     <g id="line2d_8">
      <g>
       <use style="stroke:#000000;stroke-width:0.8;" x="256.457143" xlink:href="#m7c584e8abf" y="235.872"/>
      </g>
     </g>
     <g id="text_4">
      <!-- 128 -->
      <defs>
       <path d="M 31.78125 34.625 
Q 24.75 34.625 20.71875 30.859375 
Q 16.703125 27.09375 16.703125 20.515625 
Q 16.703125 13.921875 20.71875 10.15625 
Q 24.75 6.390625 31.78125 6.390625 
Q 38.8125 6.390625 42.859375 10.171875 
Q 46.921875 13.96875 46.921875 20.515625 
Q 46.921875 27.09375 42.890625 30.859375 
Q 38.875 34.625 31.78125 34.625 
z
M 21.921875 38.8125 
Q 15.578125 40.375 12.03125 44.71875 
Q 8.5 49.078125 8.5 55.328125 
Q 8.5 64.0625 14.71875 69.140625 
Q 20.953125 74.21875 31.78125 74.21875 
Q 42.671875 74.21875 48.875 69.140625 
Q 55.078125 64.0625 55.078125 55.328125 
Q 55.078125 49.078125 51.53125 44.71875 
Q 48 40.375 41.703125 38.8125 
Q 48.828125 37.15625 52.796875 32.3125 
Q 56.78125 27.484375 56.78125 20.515625 
Q 56.78125 9.90625 50.3125 4.234375 
Q 43.84375 -1.421875 31.78125 -1.421875 
Q 19.734375 -1.421875 13.25 4.234375 
Q 6.78125 9.90625 6.78125 20.515625 
Q 6.78125 27.484375 10.78125 32.3125 
Q 14.796875 37.15625 21.921875 38.8125 
z
M 18.3125 54.390625 
Q 18.3125 48.734375 21.84375 45.5625 
Q 25.390625 42.390625 31.78125 42.390625 
Q 38.140625 42.390625 41.71875 45.5625 
Q 45.3125 48.734375 45.3125 54.390625 
Q 45.3125 60.0625 41.71875 63.234375 
Q 38.140625 66.40625 31.78125 66.40625 
Q 25.390625 66.40625 21.84375 63.234375 
Q 18.3125 60.0625 18.3125 54.390625 
z
" id="DejaVuSans-38"/>
      </defs>
      <g transform="translate(246.913393 250.470438)scale(0.1 -0.1)">
       <use xlink:href="#DejaVuSans-31"/>
       <use x="63.623047" xlink:href="#DejaVuSans-32"/>
       <use x="127.246094" xlink:href="#DejaVuSans-38"/>
      </g>
     </g>
    </g>
    <g id="xtick_5">
     <g id="line2d_9">
      <path clip-path="url(#p5a63a1a5e3)" d="M 316.716883 235.872 
L 316.716883 1.344 
" style="fill:none;stroke:#666666;stroke-linecap:square;stroke-width:0.8;"/>
     </g>
     <g id="line2d_10">
      <g>
       <use style="stroke:#000000;stroke-width:0.8;" x="316.716883" xlink:href="#m7c584e8abf" y="235.872"/>
      </g>
     </g>
     <g id="text_5">
      <!-- 256 -->
      <defs>
       <path d="M 10.796875 72.90625 
L 49.515625 72.90625 
L 49.515625 64.59375 
L 19.828125 64.59375 
L 19.828125 46.734375 
Q 21.96875 47.46875 24.109375 47.828125 
Q 26.265625 48.1875 28.421875 48.1875 
Q 40.625 48.1875 47.75 41.5 
Q 54.890625 34.8125 54.890625 23.390625 
Q 54.890625 11.625 47.5625 5.09375 
Q 40.234375 -1.421875 26.90625 -1.421875 
Q 22.3125 -1.421875 17.546875 -0.640625 
Q 12.796875 0.140625 7.71875 1.703125 
L 7.71875 11.625 
Q 12.109375 9.234375 16.796875 8.0625 
Q 21.484375 6.890625 26.703125 6.890625 
Q 35.15625 6.890625 40.078125 11.328125 
Q 45.015625 15.765625 45.015625 23.390625 
Q 45.015625 31 40.078125 35.4375 
Q 35.15625 39.890625 26.703125 39.890625 
Q 22.75 39.890625 18.8125 39.015625 
Q 14.890625 38.140625 10.796875 36.28125 
z
" id="DejaVuSans-35"/>
      </defs>
      <g transform="translate(307.173133 250.470438)scale(0.1 -0.1)">
       <use xlink:href="#DejaVuSans-32"/>
       <use x="63.623047" xlink:href="#DejaVuSans-35"/>
       <use x="127.246094" xlink:href="#DejaVuSans-36"/>
      </g>
     </g>
    </g>
    <g id="xtick_6">
     <g id="line2d_11">
      <path clip-path="url(#p5a63a1a5e3)" d="M 376.976623 235.872 
L 376.976623 1.344 
" style="fill:none;stroke:#666666;stroke-linecap:square;stroke-width:0.8;"/>
     </g>
     <g id="line2d_12">
      <g>
       <use style="stroke:#000000;stroke-width:0.8;" x="376.976623" xlink:href="#m7c584e8abf" y="235.872"/>
      </g>
     </g>
     <g id="text_6">
      <!-- 512 -->
      <g transform="translate(367.432873 250.470438)scale(0.1 -0.1)">
       <use xlink:href="#DejaVuSans-35"/>
       <use x="63.623047" xlink:href="#DejaVuSans-31"/>
       <use x="127.246094" xlink:href="#DejaVuSans-32"/>
      </g>
     </g>
    </g>
    <g id="xtick_7">
     <g id="line2d_13">
      <path clip-path="url(#p5a63a1a5e3)" d="M 437.236364 235.872 
L 437.236364 1.344 
" style="fill:none;stroke:#666666;stroke-linecap:square;stroke-width:0.8;"/>
     </g>
     <g id="line2d_14">
      <g>
       <use style="stroke:#000000;stroke-width:0.8;" x="437.236364" xlink:href="#m7c584e8abf" y="235.872"/>
      </g>
     </g>
     <g id="text_7">
      <!-- 1024 -->
      <defs>
       <path d="M 31.78125 66.40625 
Q 24.171875 66.40625 20.328125 58.90625 
Q 16.5 51.421875 16.5 36.375 
Q 16.5 21.390625 20.328125 13.890625 
Q 24.171875 6.390625 31.78125 6.390625 
Q 39.453125 6.390625 43.28125 13.890625 
Q 47.125 21.390625 47.125 36.375 
Q 47.125 51.421875 43.28125 58.90625 
Q 39.453125 66.40625 31.78125 66.40625 
z
M 31.78125 74.21875 
Q 44.046875 74.21875 50.515625 64.515625 
Q 56.984375 54.828125 56.984375 36.375 
Q 56.984375 17.96875 50.515625 8.265625 
Q 44.046875 -1.421875 31.78125 -1.421875 
Q 19.53125 -1.421875 13.0625 8.265625 
Q 6.59375 17.96875 6.59375 36.375 
Q 6.59375 54.828125 13.0625 64.515625 
Q 19.53125 74.21875 31.78125 74.21875 
z
" id="DejaVuSans-30"/>
      </defs>
      <g transform="translate(424.511364 250.470438)scale(0.1 -0.1)">
       <use xlink:href="#DejaVuSans-31"/>
       <use x="63.623047" xlink:href="#DejaVuSans-30"/>
       <use x="127.246094" xlink:href="#DejaVuSans-32"/>
       <use x="190.869141" xlink:href="#DejaVuSans-34"/>
      </g>
     </g>
    </g>
    <g id="xtick_8">
     <g id="line2d_15">
      <path clip-path="url(#p5a63a1a5e3)" d="M 63.625974 235.872 
L 63.625974 1.344 
" style="fill:none;opacity:0.2;stroke:#999999;stroke-linecap:square;stroke-width:0.8;"/>
     </g>
     <g id="line2d_16">
      <defs>
       <path d="M 0 0 
L 0 2 
" id="m009ad4d0eb" style="stroke:#000000;stroke-width:0.6;"/>
      </defs>
      <g>
       <use style="stroke:#000000;stroke-width:0.6;" x="63.625974" xlink:href="#m009ad4d0eb" y="235.872"/>
      </g>
     </g>
    </g>
    <g id="xtick_9">
     <g id="line2d_17">
      <path clip-path="url(#p5a63a1a5e3)" d="M 87.72987 235.872 
L 87.72987 1.344 
" style="fill:none;opacity:0.2;stroke:#999999;stroke-linecap:square;stroke-width:0.8;"/>
     </g>
     <g id="line2d_18">
      <g>
       <use style="stroke:#000000;stroke-width:0.6;" x="87.72987" xlink:href="#m009ad4d0eb" y="235.872"/>
      </g>
     </g>
    </g>
    <g id="xtick_10">
     <g id="line2d_19">
      <path clip-path="url(#p5a63a1a5e3)" d="M 99.781818 235.872 
L 99.781818 1.344 
" style="fill:none;opacity:0.2;stroke:#999999;stroke-linecap:square;stroke-width:0.8;"/>
     </g>
     <g id="line2d_20">
      <g>
       <use style="stroke:#000000;stroke-width:0.6;" x="99.781818" xlink:href="#m009ad4d0eb" y="235.872"/>
      </g>
     </g>
    </g>
    <g id="xtick_11">
     <g id="line2d_21">
      <path clip-path="url(#p5a63a1a5e3)" d="M 111.833766 235.872 
L 111.833766 1.344 
" style="fill:none;opacity:0.2;stroke:#999999;stroke-linecap:square;stroke-width:0.8;"/>
     </g>
     <g id="line2d_22">
      <g>
       <use style="stroke:#000000;stroke-width:0.6;" x="111.833766" xlink:href="#m009ad4d0eb" y="235.872"/>
      </g>
     </g>
    </g>
    <g id="xtick_12">
     <g id="line2d_23">
      <path clip-path="url(#p5a63a1a5e3)" d="M 123.885714 235.872 
L 123.885714 1.344 
" style="fill:none;opacity:0.2;stroke:#999999;stroke-linecap:square;stroke-width:0.8;"/>
     </g>
     <g id="line2d_24">
      <g>
       <use style="stroke:#000000;stroke-width:0.6;" x="123.885714" xlink:href="#m009ad4d0eb" y="235.872"/>
      </g>
     </g>
    </g>
    <g id="xtick_13">
     <g id="line2d_25">
      <path clip-path="url(#p5a63a1a5e3)" d="M 147.98961 235.872 
L 147.98961 1.344 
" style="fill:none;opacity:0.2;stroke:#999999;stroke-linecap:square;stroke-width:0.8;"/>
     </g>
     <g id="line2d_26">
      <g>
       <use style="stroke:#000000;stroke-width:0.6;" x="147.98961" xlink:href="#m009ad4d0eb" y="235.872"/>
      </g>
     </g>
    </g>
    <g id="xtick_14">
     <g id="line2d_27">
      <path clip-path="url(#p5a63a1a5e3)" d="M 160.041558 235.872 
L 160.041558 1.344 
" style="fill:none;opacity:0.2;stroke:#999999;stroke-linecap:square;stroke-width:0.8;"/>
     </g>
     <g id="line2d_28">
      <g>
       <use style="stroke:#000000;stroke-width:0.6;" x="160.041558" xlink:href="#m009ad4d0eb" y="235.872"/>
      </g>
     </g>
    </g>
    <g id="xtick_15">
     <g id="line2d_29">
      <path clip-path="url(#p5a63a1a5e3)" d="M 172.093506 235.872 
L 172.093506 1.344 
" style="fill:none;opacity:0.2;stroke:#999999;stroke-linecap:square;stroke-width:0.8;"/>
     </g>
     <g id="line2d_30">
      <g>
       <use style="stroke:#000000;stroke-width:0.6;" x="172.093506" xlink:href="#m009ad4d0eb" y="235.872"/>
      </g>
     </g>
    </g>
    <g id="xtick_16">
     <g id="line2d_31">
      <path clip-path="url(#p5a63a1a5e3)" d="M 184.145455 235.872 
L 184.145455 1.344 
" style="fill:none;opacity:0.2;stroke:#999999;stroke-linecap:square;stroke-width:0.8;"/>
     </g>
     <g id="line2d_32">
      <g>
       <use style="stroke:#000000;stroke-width:0.6;" x="184.145455" xlink:href="#m009ad4d0eb" y="235.872"/>
      </g>
     </g>
    </g>
    <g id="xtick_17">
     <g id="line2d_33">
      <path clip-path="url(#p5a63a1a5e3)" d="M 208.249351 235.872 
L 208.249351 1.344 
" style="fill:none;opacity:0.2;stroke:#999999;stroke-linecap:square;stroke-width:0.8;"/>
     </g>
     <g id="line2d_34">
      <g>
       <use style="stroke:#000000;stroke-width:0.6;" x="208.249351" xlink:href="#m009ad4d0eb" y="235.872"/>
      </g>
     </g>
    </g>
    <g id="xtick_18">
     <g id="line2d_35">
      <path clip-path="url(#p5a63a1a5e3)" d="M 220.301299 235.872 
L 220.301299 1.344 
" style="fill:none;opacity:0.2;stroke:#999999;stroke-linecap:square;stroke-width:0.8;"/>
     </g>
     <g id="line2d_36">
      <g>
       <use style="stroke:#000000;stroke-width:0.6;" x="220.301299" xlink:href="#m009ad4d0eb" y="235.872"/>
      </g>
     </g>
    </g>
    <g id="xtick_19">
     <g id="line2d_37">
      <path clip-path="url(#p5a63a1a5e3)" d="M 232.353247 235.872 
L 232.353247 1.344 
" style="fill:none;opacity:0.2;stroke:#999999;stroke-linecap:square;stroke-width:0.8;"/>
     </g>
     <g id="line2d_38">
      <g>
       <use style="stroke:#000000;stroke-width:0.6;" x="232.353247" xlink:href="#m009ad4d0eb" y="235.872"/>
      </g>
     </g>
    </g>
    <g id="xtick_20">
     <g id="line2d_39">
      <path clip-path="url(#p5a63a1a5e3)" d="M 244.405195 235.872 
L 244.405195 1.344 
" style="fill:none;opacity:0.2;stroke:#999999;stroke-linecap:square;stroke-width:0.8;"/>
     </g>
     <g id="line2d_40">
      <g>
       <use style="stroke:#000000;stroke-width:0.6;" x="244.405195" xlink:href="#m009ad4d0eb" y="235.872"/>
      </g>
     </g>
    </g>
    <g id="xtick_21">
     <g id="line2d_41">
      <path clip-path="url(#p5a63a1a5e3)" d="M 268.509091 235.872 
L 268.509091 1.344 
" style="fill:none;opacity:0.2;stroke:#999999;stroke-linecap:square;stroke-width:0.8;"/>
     </g>
     <g id="line2d_42">
      <g>
       <use style="stroke:#000000;stroke-width:0.6;" x="268.509091" xlink:href="#m009ad4d0eb" y="235.872"/>
      </g>
     </g>
    </g>
    <g id="xtick_22">
     <g id="line2d_43">
      <path clip-path="url(#p5a63a1a5e3)" d="M 280.561039 235.872 
L 280.561039 1.344 
" style="fill:none;opacity:0.2;stroke:#999999;stroke-linecap:square;stroke-width:0.8;"/>
     </g>
     <g id="line2d_44">
      <g>
       <use style="stroke:#000000;stroke-width:0.6;" x="280.561039" xlink:href="#m009ad4d0eb" y="235.872"/>
      </g>
     </g>
    </g>
    <g id="xtick_23">
     <g id="line2d_45">
      <path clip-path="url(#p5a63a1a5e3)" d="M 292.612987 235.872 
L 292.612987 1.344 
" style="fill:none;opacity:0.2;stroke:#999999;stroke-linecap:square;stroke-width:0.8;"/>
     </g>
     <g id="line2d_46">
      <g>
       <use style="stroke:#000000;stroke-width:0.6;" x="292.612987" xlink:href="#m009ad4d0eb" y="235.872"/>
      </g>
     </g>
    </g>
    <g id="xtick_24">
     <g id="line2d_47">
      <path clip-path="url(#p5a63a1a5e3)" d="M 304.664935 235.872 
L 304.664935 1.344 
" style="fill:none;opacity:0.2;stroke:#999999;stroke-linecap:square;stroke-width:0.8;"/>
     </g>
     <g id="line2d_48">
      <g>
       <use style="stroke:#000000;stroke-width:0.6;" x="304.664935" xlink:href="#m009ad4d0eb" y="235.872"/>
      </g>
     </g>
    </g>
    <g id="xtick_25">
     <g id="line2d_49">
      <path clip-path="url(#p5a63a1a5e3)" d="M 328.768831 235.872 
L 328.768831 1.344 
" style="fill:none;opacity:0.2;stroke:#999999;stroke-linecap:square;stroke-width:0.8;"/>
     </g>
     <g id="line2d_50">
      <g>
       <use style="stroke:#000000;stroke-width:0.6;" x="328.768831" xlink:href="#m009ad4d0eb" y="235.872"/>
      </g>
     </g>
    </g>
    <g id="xtick_26">
     <g id="line2d_51">
      <path clip-path="url(#p5a63a1a5e3)" d="M 340.820779 235.872 
L 340.820779 1.344 
" style="fill:none;opacity:0.2;stroke:#999999;stroke-linecap:square;stroke-width:0.8;"/>
     </g>
     <g id="line2d_52">
      <g>
       <use style="stroke:#000000;stroke-width:0.6;" x="340.820779" xlink:href="#m009ad4d0eb" y="235.872"/>
      </g>
     </g>
    </g>
    <g id="xtick_27">
     <g id="line2d_53">
      <path clip-path="url(#p5a63a1a5e3)" d="M 352.872727 235.872 
L 352.872727 1.344 
" style="fill:none;opacity:0.2;stroke:#999999;stroke-linecap:square;stroke-width:0.8;"/>
     </g>
     <g id="line2d_54">
      <g>
       <use style="stroke:#000000;stroke-width:0.6;" x="352.872727" xlink:href="#m009ad4d0eb" y="235.872"/>
      </g>
     </g>
    </g>
    <g id="xtick_28">
     <g id="line2d_55">
      <path clip-path="url(#p5a63a1a5e3)" d="M 364.924675 235.872 
L 364.924675 1.344 
" style="fill:none;opacity:0.2;stroke:#999999;stroke-linecap:square;stroke-width:0.8;"/>
     </g>
     <g id="line2d_56">
      <g>
       <use style="stroke:#000000;stroke-width:0.6;" x="364.924675" xlink:href="#m009ad4d0eb" y="235.872"/>
      </g>
     </g>
    </g>
    <g id="xtick_29">
     <g id="line2d_57">
      <path clip-path="url(#p5a63a1a5e3)" d="M 389.028571 235.872 
L 389.028571 1.344 
" style="fill:none;opacity:0.2;stroke:#999999;stroke-linecap:square;stroke-width:0.8;"/>
     </g>
     <g id="line2d_58">
      <g>
       <use style="stroke:#000000;stroke-width:0.6;" x="389.028571" xlink:href="#m009ad4d0eb" y="235.872"/>
      </g>
     </g>
    </g>
    <g id="xtick_30">
     <g id="line2d_59">
      <path clip-path="url(#p5a63a1a5e3)" d="M 401.080519 235.872 
L 401.080519 1.344 
" style="fill:none;opacity:0.2;stroke:#999999;stroke-linecap:square;stroke-width:0.8;"/>
     </g>
     <g id="line2d_60">
      <g>
       <use style="stroke:#000000;stroke-width:0.6;" x="401.080519" xlink:href="#m009ad4d0eb" y="235.872"/>
      </g>
     </g>
    </g>
    <g id="xtick_31">
     <g id="line2d_61">
      <path clip-path="url(#p5a63a1a5e3)" d="M 413.132468 235.872 
L 413.132468 1.344 
" style="fill:none;opacity:0.2;stroke:#999999;stroke-linecap:square;stroke-width:0.8;"/>
     </g>
     <g id="line2d_62">
      <g>
       <use style="stroke:#000000;stroke-width:0.6;" x="413.132468" xlink:href="#m009ad4d0eb" y="235.872"/>
      </g>
     </g>
    </g>
    <g id="xtick_32">
     <g id="line2d_63">
      <path clip-path="url(#p5a63a1a5e3)" d="M 425.184416 235.872 
L 425.184416 1.344 
" style="fill:none;opacity:0.2;stroke:#999999;stroke-linecap:square;stroke-width:0.8;"/>
     </g>
     <g id="line2d_64">
      <g>
       <use style="stroke:#000000;stroke-width:0.6;" x="425.184416" xlink:href="#m009ad4d0eb" y="235.872"/>
      </g>
     </g>
    </g>
    <g id="xtick_33">
     <g id="line2d_65">
      <path clip-path="url(#p5a63a1a5e3)" d="M 449.288312 235.872 
L 449.288312 1.344 
" style="fill:none;opacity:0.2;stroke:#999999;stroke-linecap:square;stroke-width:0.8;"/>
     </g>
     <g id="line2d_66">
      <g>
       <use style="stroke:#000000;stroke-width:0.6;" x="449.288312" xlink:href="#m009ad4d0eb" y="235.872"/>
      </g>
     </g>
    </g>
    <g id="text_8">
     <!-- Number of Source Packets -->
     <defs>
      <path d="M 9.8125 72.90625 
L 23.09375 72.90625 
L 55.421875 11.921875 
L 55.421875 72.90625 
L 64.984375 72.90625 
L 64.984375 0 
L 51.703125 0 
L 19.390625 60.984375 
L 19.390625 0 
L 9.8125 0 
z
" id="DejaVuSans-4e"/>
      <path d="M 8.5 21.578125 
L 8.5 54.6875 
L 17.484375 54.6875 
L 17.484375 21.921875 
Q 17.484375 14.15625 20.5 10.265625 
Q 23.53125 6.390625 29.59375 6.390625 
Q 36.859375 6.390625 41.078125 11.03125 
Q 45.3125 15.671875 45.3125 23.6875 
L 45.3125 54.6875 
L 54.296875 54.6875 
L 54.296875 0 
L 45.3125 0 
L 45.3125 8.40625 
Q 42.046875 3.421875 37.71875 1 
Q 33.40625 -1.421875 27.6875 -1.421875 
Q 18.265625 -1.421875 13.375 4.4375 
Q 8.5 10.296875 8.5 21.578125 
z
M 31.109375 56 
z
" id="DejaVuSans-75"/>
      <path d="M 52 44.1875 
Q 55.375 50.25 60.0625 53.125 
Q 64.75 56 71.09375 56 
Q 79.640625 56 84.28125 50.015625 
Q 88.921875 44.046875 88.921875 33.015625 
L 88.921875 0 
L 79.890625 0 
L 79.890625 32.71875 
Q 79.890625 40.578125 77.09375 44.375 
Q 74.3125 48.1875 68.609375 48.1875 
Q 61.625 48.1875 57.5625 43.546875 
Q 53.515625 38.921875 53.515625 30.90625 
L 53.515625 0 
L 44.484375 0 
L 44.484375 32.71875 
Q 44.484375 40.625 41.703125 44.40625 
Q 38.921875 48.1875 33.109375 48.1875 
Q 26.21875 48.1875 22.15625 43.53125 
Q 18.109375 38.875 18.109375 30.90625 
L 18.109375 0 
L 9.078125 0 
L 9.078125 54.6875 
L 18.109375 54.6875 
L 18.109375 46.1875 
Q 21.1875 51.21875 25.484375 53.609375 
Q 29.78125 56 35.6875 56 
Q 41.65625 56 45.828125 52.96875 
Q 50 49.953125 52 44.1875 
z
" id="DejaVuSans-6d"/>
      <path d="M 48.6875 27.296875 
Q 48.6875 37.203125 44.609375 42.84375 
Q 40.53125 48.484375 33.40625 48.484375 
Q 26.265625 48.484375 22.1875 42.84375 
Q 18.109375 37.203125 18.109375 27.296875 
Q 18.109375 17.390625 22.1875 11.75 
Q 26.265625 6.109375 33.40625 6.109375 
Q 40.53125 6.109375 44.609375 11.75 
Q 48.6875 17.390625 48.6875 27.296875 
z
M 18.109375 46.390625 
Q 20.953125 51.265625 25.265625 53.625 
Q 29.59375 56 35.59375 56 
Q 45.5625 56 51.78125 48.09375 
Q 58.015625 40.1875 58.015625 27.296875 
Q 58.015625 14.40625 51.78125 6.484375 
Q 45.5625 -1.421875 35.59375 -1.421875 
Q 29.59375 -1.421875 25.265625 0.953125 
Q 20.953125 3.328125 18.109375 8.203125 
L 18.109375 0 
L 9.078125 0 
L 9.078125 75.984375 
L 18.109375 75.984375 
z
" id="DejaVuSans-62"/>
      <path d="M 56.203125 29.59375 
L 56.203125 25.203125 
L 14.890625 25.203125 
Q 15.484375 15.921875 20.484375 11.0625 
Q 25.484375 6.203125 34.421875 6.203125 
Q 39.59375 6.203125 44.453125 7.46875 
Q 49.3125 8.734375 54.109375 11.28125 
L 54.109375 2.78125 
Q 49.265625 0.734375 44.1875 -0.34375 
Q 39.109375 -1.421875 33.890625 -1.421875 
Q 20.796875 -1.421875 13.15625 6.1875 
Q 5.515625 13.8125 5.515625 26.8125 
Q 5.515625 40.234375 12.765625 48.109375 
Q 20.015625 56 32.328125 56 
Q 43.359375 56 49.78125 48.890625 
Q 56.203125 41.796875 56.203125 29.59375 
z
M 47.21875 32.234375 
Q 47.125 39.59375 43.09375 43.984375 
Q 39.0625 48.390625 32.421875 48.390625 
Q 24.90625 48.390625 20.390625 44.140625 
Q 15.875 39.890625 15.1875 32.171875 
z
" id="DejaVuSans-65"/>
      <path d="M 41.109375 46.296875 
Q 39.59375 47.171875 37.8125 47.578125 
Q 36.03125 48 33.890625 48 
Q 26.265625 48 22.1875 43.046875 
Q 18.109375 38.09375 18.109375 28.8125 
L 18.109375 0 
L 9.078125 0 
L 9.078125 54.6875 
L 18.109375 54.6875 
L 18.109375 46.1875 
Q 20.953125 51.171875 25.484375 53.578125 
Q 30.03125 56 36.53125 56 
Q 37.453125 56 38.578125 55.875 
Q 39.703125 55.765625 41.0625 55.515625 
z
" id="DejaVuSans-72"/>
      <path id="DejaVuSans-20"/>
      <path d="M 30.609375 48.390625 
Q 23.390625 48.390625 19.1875 42.75 
Q 14.984375 37.109375 14.984375 27.296875 
Q 14.984375 17.484375 19.15625 11.84375 
Q 23.34375 6.203125 30.609375 6.203125 
Q 37.796875 6.203125 41.984375 11.859375 
Q 46.1875 17.53125 46.1875 27.296875 
Q 46.1875 37.015625 41.984375 42.703125 
Q 37.796875 48.390625 30.609375 48.390625 
z
M 30.609375 56 
Q 42.328125 56 49.015625 48.375 
Q 55.71875 40.765625 55.71875 27.296875 
Q 55.71875 13.875 49.015625 6.21875 
Q 42.328125 -1.421875 30.609375 -1.421875 
Q 18.84375 -1.421875 12.171875 6.21875 
Q 5.515625 13.875 5.515625 27.296875 
Q 5.515625 40.765625 12.171875 48.375 
Q 18.84375 56 30.609375 56 
z
" id="DejaVuSans-6f"/>
      <path d="M 37.109375 75.984375 
L 37.109375 68.5 
L 28.515625 68.5 
Q 23.6875 68.5 21.796875 66.546875 
Q 19.921875 64.59375 19.921875 59.515625 
L 19.921875 54.6875 
L 34.71875 54.6875 
L 34.71875 47.703125 
L 19.921875 47.703125 
L 19.921875 0 
L 10.890625 0 
L 10.890625 47.703125 
L 2.296875 47.703125 
L 2.296875 54.6875 
L 10.890625 54.6875 
L 10.890625 58.5 
Q 10.890625 67.625 15.140625 71.796875 
Q 19.390625 75.984375 28.609375 75.984375 
z
" id="DejaVuSans-66"/>
      <path d="M 53.515625 70.515625 
L 53.515625 60.890625 
Q 47.90625 63.578125 42.921875 64.890625 
Q 37.9375 66.21875 33.296875 66.21875 
Q 25.25 66.21875 20.875 63.09375 
Q 16.5 59.96875 16.5 54.203125 
Q 16.5 49.359375 19.40625 46.890625 
Q 22.3125 44.4375 30.421875 42.921875 
L 36.375 41.703125 
Q 47.40625 39.59375 52.65625 34.296875 
Q 57.90625 29 57.90625 20.125 
Q 57.90625 9.515625 50.796875 4.046875 
Q 43.703125 -1.421875 29.984375 -1.421875 
Q 24.8125 -1.421875 18.96875 -0.25 
Q 13.140625 0.921875 6.890625 3.21875 
L 6.890625 13.375 
Q 12.890625 10.015625 18.65625 8.296875 
Q 24.421875 6.59375 29.984375 6.59375 
Q 38.421875 6.59375 43.015625 9.90625 
Q 47.609375 13.234375 47.609375 19.390625 
Q 47.609375 24.75 44.3125 27.78125 
Q 41.015625 30.8125 33.5 32.328125 
L 27.484375 33.5 
Q 16.453125 35.6875 11.515625 40.375 
Q 6.59375 45.0625 6.59375 53.421875 
Q 6.59375 63.09375 13.40625 68.65625 
Q 20.21875 74.21875 32.171875 74.21875 
Q 37.3125 74.21875 42.625 73.28125 
Q 47.953125 72.359375 53.515625 70.515625 
z
" id="DejaVuSans-53"/>
      <path d="M 48.78125 52.59375 
L 48.78125 44.1875 
Q 44.96875 46.296875 41.140625 47.34375 
Q 37.3125 48.390625 33.40625 48.390625 
Q 24.65625 48.390625 19.8125 42.84375 
Q 14.984375 37.3125 14.984375 27.296875 
Q 14.984375 17.28125 19.8125 11.734375 
Q 24.65625 6.203125 33.40625 6.203125 
Q 37.3125 6.203125 41.140625 7.25 
Q 44.96875 8.296875 48.78125 10.40625 
L 48.78125 2.09375 
Q 45.015625 0.34375 40.984375 -0.53125 
Q 36.96875 -1.421875 32.421875 -1.421875 
Q 20.0625 -1.421875 12.78125 6.34375 
Q 5.515625 14.109375 5.515625 27.296875 
Q 5.515625 40.671875 12.859375 48.328125 
Q 20.21875 56 33.015625 56 
Q 37.15625 56 41.109375 55.140625 
Q 45.0625 54.296875 48.78125 52.59375 
z
" id="DejaVuSans-63"/>
      <path d="M 19.671875 64.796875 
L 19.671875 37.40625 
L 32.078125 37.40625 
Q 38.96875 37.40625 42.71875 40.96875 
Q 46.484375 44.53125 46.484375 51.125 
Q 46.484375 57.671875 42.71875 61.234375 
Q 38.96875 64.796875 32.078125 64.796875 
z
M 9.8125 72.90625 
L 32.078125 72.90625 
Q 44.34375 72.90625 50.609375 67.359375 
Q 56.890625 61.8125 56.890625 51.125 
Q 56.890625 40.328125 50.609375 34.8125 
Q 44.34375 29.296875 32.078125 29.296875 
L 19.671875 29.296875 
L 19.671875 0 
L 9.8125 0 
z
" id="DejaVuSans-50"/>
      <path d="M 34.28125 27.484375 
Q 23.390625 27.484375 19.1875 25 
Q 14.984375 22.515625 14.984375 16.5 
Q 14.984375 11.71875 18.140625 8.90625 
Q 21.296875 6.109375 26.703125 6.109375 
Q 34.1875 6.109375 38.703125 11.40625 
Q 43.21875 16.703125 43.21875 25.484375 
L 43.21875 27.484375 
z
M 52.203125 31.203125 
L 52.203125 0 
L 43.21875 0 
L 43.21875 8.296875 
Q 40.140625 3.328125 35.546875 0.953125 
Q 30.953125 -1.421875 24.3125 -1.421875 
Q 15.921875 -1.421875 10.953125 3.296875 
Q 6 8.015625 6 15.921875 
Q 6 25.140625 12.171875 29.828125 
Q 18.359375 34.515625 30.609375 34.515625 
L 43.21875 34.515625 
L 43.21875 35.40625 
Q 43.21875 41.609375 39.140625 45 
Q 35.0625 48.390625 27.6875 48.390625 
Q 23 48.390625 18.546875 47.265625 
Q 14.109375 46.140625 10.015625 43.890625 
L 10.015625 52.203125 
Q 14.9375 54.109375 19.578125 55.046875 
Q 24.21875 56 28.609375 56 
Q 40.484375 56 46.34375 49.84375 
Q 52.203125 43.703125 52.203125 31.203125 
z
" id="DejaVuSans-61"/>
      <path d="M 9.078125 75.984375 
L 18.109375 75.984375 
L 18.109375 31.109375 
L 44.921875 54.6875 
L 56.390625 54.6875 
L 27.390625 29.109375 
L 57.625 0 
L 45.90625 0 
L 18.109375 26.703125 
L 18.109375 0 
L 9.078125 0 
z
" id="DejaVuSans-6b"/>
      <path d="M 18.3125 70.21875 
L 18.3125 54.6875 
L 36.8125 54.6875 
L 36.8125 47.703125 
L 18.3125 47.703125 
L 18.3125 18.015625 
Q 18.3125 11.328125 20.140625 9.421875 
Q 21.96875 7.515625 27.59375 7.515625 
L 36.8125 7.515625 
L 36.8125 0 
L 27.59375 0 
Q 17.1875 0 13.234375 3.875 
Q 9.28125 7.765625 9.28125 18.015625 
L 9.28125 47.703125 
L 2.6875 47.703125 
L 2.6875 54.6875 
L 9.28125 54.6875 
L 9.28125 70.21875 
z
" id="DejaVuSans-74"/>
      <path d="M 44.28125 53.078125 
L 44.28125 44.578125 
Q 40.484375 46.53125 36.375 47.5 
Q 32.28125 48.484375 27.875 48.484375 
Q 21.1875 48.484375 17.84375 46.4375 
Q 14.5 44.390625 14.5 40.28125 
Q 14.5 37.15625 16.890625 35.375 
Q 19.28125 33.59375 26.515625 31.984375 
L 29.59375 31.296875 
Q 39.15625 29.25 43.1875 25.515625 
Q 47.21875 21.78125 47.21875 15.09375 
Q 47.21875 7.46875 41.1875 3.015625 
Q 35.15625 -1.421875 24.609375 -1.421875 
Q 20.21875 -1.421875 15.453125 -0.5625 
Q 10.6875 0.296875 5.421875 2 
L 5.421875 11.28125 
Q 10.40625 8.6875 15.234375 7.390625 
Q 20.0625 6.109375 24.8125 6.109375 
Q 31.15625 6.109375 34.5625 8.28125 
Q 37.984375 10.453125 37.984375 14.40625 
Q 37.984375 18.0625 35.515625 20.015625 
Q 33.0625 21.96875 24.703125 23.78125 
L 21.578125 24.515625 
Q 13.234375 26.265625 9.515625 29.90625 
Q 5.8125 33.546875 5.8125 39.890625 
Q 5.8125 47.609375 11.28125 51.796875 
Q 16.75 56 26.8125 56 
Q 31.78125 56 36.171875 55.265625 
Q 40.578125 54.546875 44.28125 53.078125 
z
" id="DejaVuSans-73"/>
     </defs>
     <g transform="translate(176.880268 265.66825)scale(0.12 -0.12)">
      <use xlink:href="#DejaVuSans-4e"/>
      <use x="74.804688" xlink:href="#DejaVuSans-75"/>
      <use x="138.183594" xlink:href="#DejaVuSans-6d"/>
      <use x="235.595703" xlink:href="#DejaVuSans-62"/>
      <use x="299.072266" xlink:href="#DejaVuSans-65"/>
      <use x="360.595703" xlink:href="#DejaVuSans-72"/>
      <use x="401.708984" xlink:href="#DejaVuSans-20"/>
      <use x="433.496094" xlink:href="#DejaVuSans-6f"/>
      <use x="494.677734" xlink:href="#DejaVuSans-66"/>
      <use x="529.882812" xlink:href="#DejaVuSans-20"/>
      <use x="561.669922" xlink:href="#DejaVuSans-53"/>
      <use x="625.146484" xlink:href="#DejaVuSans-6f"/>
      <use x="686.328125" xlink:href="#DejaVuSans-75"/>
      <use x="749.707031" xlink:href="#DejaVuSans-72"/>
      <use x="790.789062" xlink:href="#DejaVuSans-63"/>
      <use x="845.769531" xlink:href="#DejaVuSans-65"/>
      <use x="907.292969" xlink:href="#DejaVuSans-20"/>
      <use x="939.080078" xlink:href="#DejaVuSans-50"/>
      <use x="999.320312" xlink:href="#DejaVuSans-61"/>
      <use x="1060.599609" xlink:href="#DejaVuSans-63"/>
      <use x="1115.580078" xlink:href="#DejaVuSans-6b"/>
      <use x="1173.443359" xlink:href="#DejaVuSans-65"/>
      <use x="1234.966797" xlink:href="#DejaVuSans-74"/>
      <use x="1274.175781" xlink:href="#DejaVuSans-73"/>
     </g>
    </g>
   </g>
   <g id="matplotlib.axis_2">
    <g id="ytick_1">
     <g id="line2d_67">
      <path clip-path="url(#p5a63a1a5e3)" d="M 57.6 157.504148 
L 455.314286 157.504148 
" style="fill:none;stroke:#666666;stroke-linecap:square;stroke-width:0.8;"/>
     </g>
     <g id="line2d_68">
      <defs>
       <path d="M 0 0 
L -3.5 0 
" id="m26c7252f7c" style="stroke:#000000;stroke-width:0.8;"/>
      </defs>
      <g>
       <use style="stroke:#000000;stroke-width:0.8;" x="57.6" xlink:href="#m26c7252f7c" y="157.504148"/>
      </g>
     </g>
     <g id="text_9">
      <!-- $\mathdefault{10^{2}}$ -->
      <g transform="translate(33 161.303367)scale(0.1 -0.1)">
       <use transform="translate(0 0.765625)" xlink:href="#DejaVuSans-31"/>
       <use transform="translate(63.623047 0.765625)" xlink:href="#DejaVuSans-30"/>
       <use transform="translate(128.203125 39.046875)scale(0.7)" xlink:href="#DejaVuSans-32"/>
      </g>
     </g>
    </g>
    <g id="ytick_2">
     <g id="line2d_69">
      <path clip-path="url(#p5a63a1a5e3)" d="M 57.6 33.37182 
L 455.314286 33.37182 
" style="fill:none;stroke:#666666;stroke-linecap:square;stroke-width:0.8;"/>
     </g>
     <g id="line2d_70">
      <g>
       <use style="stroke:#000000;stroke-width:0.8;" x="57.6" xlink:href="#m26c7252f7c" y="33.37182"/>
      </g>
     </g>
     <g id="text_10">
      <!-- $\mathdefault{10^{3}}$ -->
      <g transform="translate(33 37.171039)scale(0.1 -0.1)">
       <use transform="translate(0 0.765625)" xlink:href="#DejaVuSans-31"/>
       <use transform="translate(63.623047 0.765625)" xlink:href="#DejaVuSans-30"/>
       <use transform="translate(128.203125 39.046875)scale(0.7)" xlink:href="#DejaVuSans-33"/>
      </g>
     </g>
    </g>
    <g id="ytick_3">
     <g id="line2d_71">
      <path clip-path="url(#p5a63a1a5e3)" d="M 57.6 222.410304 
L 455.314286 222.410304 
" style="fill:none;opacity:0.2;stroke:#999999;stroke-linecap:square;stroke-width:0.8;"/>
     </g>
     <g id="line2d_72">
      <defs>
       <path d="M 0 0 
L -2 0 
" id="mc2f3f25245" style="stroke:#000000;stroke-width:0.6;"/>
      </defs>
      <g>
       <use style="stroke:#000000;stroke-width:0.6;" x="57.6" xlink:href="#mc2f3f25245" y="222.410304"/>
      </g>
     </g>
    </g>
    <g id="ytick_4">
     <g id="line2d_73">
      <path clip-path="url(#p5a63a1a5e3)" d="M 57.6 206.901367 
L 455.314286 206.901367 
" style="fill:none;opacity:0.2;stroke:#999999;stroke-linecap:square;stroke-width:0.8;"/>
     </g>
     <g id="line2d_74">
      <g>
       <use style="stroke:#000000;stroke-width:0.6;" x="57.6" xlink:href="#mc2f3f25245" y="206.901367"/>
      </g>
     </g>
    </g>
    <g id="ytick_5">
     <g id="line2d_75">
      <path clip-path="url(#p5a63a1a5e3)" d="M 57.6 194.871702 
L 455.314286 194.871702 
" style="fill:none;opacity:0.2;stroke:#999999;stroke-linecap:square;stroke-width:0.8;"/>
     </g>
     <g id="line2d_76">
      <g>
       <use style="stroke:#000000;stroke-width:0.6;" x="57.6" xlink:href="#mc2f3f25245" y="194.871702"/>
      </g>
     </g>
    </g>
    <g id="ytick_6">
     <g id="line2d_77">
      <path clip-path="url(#p5a63a1a5e3)" d="M 57.6 185.042749 
L 455.314286 185.042749 
" style="fill:none;opacity:0.2;stroke:#999999;stroke-linecap:square;stroke-width:0.8;"/>
     </g>
     <g id="line2d_78">
      <g>
       <use style="stroke:#000000;stroke-width:0.6;" x="57.6" xlink:href="#mc2f3f25245" y="185.042749"/>
      </g>
     </g>
    </g>
    <g id="ytick_7">
     <g id="line2d_79">
      <path clip-path="url(#p5a63a1a5e3)" d="M 57.6 176.732489 
L 455.314286 176.732489 
" style="fill:none;opacity:0.2;stroke:#999999;stroke-linecap:square;stroke-width:0.8;"/>
     </g>
     <g id="line2d_80">
      <g>
       <use style="stroke:#000000;stroke-width:0.6;" x="57.6" xlink:href="#mc2f3f25245" y="176.732489"/>
      </g>
     </g>
    </g>
    <g id="ytick_8">
     <g id="line2d_81">
      <path clip-path="url(#p5a63a1a5e3)" d="M 57.6 169.533813 
L 455.314286 169.533813 
" style="fill:none;opacity:0.2;stroke:#999999;stroke-linecap:square;stroke-width:0.8;"/>
     </g>
     <g id="line2d_82">
      <g>
       <use style="stroke:#000000;stroke-width:0.6;" x="57.6" xlink:href="#mc2f3f25245" y="169.533813"/>
      </g>
     </g>
    </g>
    <g id="ytick_9">
     <g id="line2d_83">
      <path clip-path="url(#p5a63a1a5e3)" d="M 57.6 163.184132 
L 455.314286 163.184132 
" style="fill:none;opacity:0.2;stroke:#999999;stroke-linecap:square;stroke-width:0.8;"/>
     </g>
     <g id="line2d_84">
      <g>
       <use style="stroke:#000000;stroke-width:0.6;" x="57.6" xlink:href="#mc2f3f25245" y="163.184132"/>
      </g>
     </g>
    </g>
    <g id="ytick_10">
     <g id="line2d_85">
      <path clip-path="url(#p5a63a1a5e3)" d="M 57.6 120.136594 
L 455.314286 120.136594 
" style="fill:none;opacity:0.2;stroke:#999999;stroke-linecap:square;stroke-width:0.8;"/>
     </g>
     <g id="line2d_86">
      <g>
       <use style="stroke:#000000;stroke-width:0.6;" x="57.6" xlink:href="#mc2f3f25245" y="120.136594"/>
      </g>
     </g>
    </g>
    <g id="ytick_11">
     <g id="line2d_87">
      <path clip-path="url(#p5a63a1a5e3)" d="M 57.6 98.277976 
L 455.314286 98.277976 
" style="fill:none;opacity:0.2;stroke:#999999;stroke-linecap:square;stroke-width:0.8;"/>
     </g>
     <g id="line2d_88">
      <g>
       <use style="stroke:#000000;stroke-width:0.6;" x="57.6" xlink:href="#mc2f3f25245" y="98.277976"/>
      </g>
     </g>
    </g>
    <g id="ytick_12">
     <g id="line2d_89">
      <path clip-path="url(#p5a63a1a5e3)" d="M 57.6 82.76904 
L 455.314286 82.76904 
" style="fill:none;opacity:0.2;stroke:#999999;stroke-linecap:square;stroke-width:0.8;"/>
     </g>
     <g id="line2d_90">
      <g>
       <use style="stroke:#000000;stroke-width:0.6;" x="57.6" xlink:href="#mc2f3f25245" y="82.76904"/>
      </g>
     </g>
    </g>
    <g id="ytick_13">
     <g id="line2d_91">
      <path clip-path="url(#p5a63a1a5e3)" d="M 57.6 70.739374 
L 455.314286 70.739374 
" style="fill:none;opacity:0.2;stroke:#999999;stroke-linecap:square;stroke-width:0.8;"/>
     </g>
     <g id="line2d_92">
      <g>
       <use style="stroke:#000000;stroke-width:0.6;" x="57.6" xlink:href="#mc2f3f25245" y="70.739374"/>
      </g>
     </g>
    </g>
    <g id="ytick_14">
     <g id="line2d_93">
      <path clip-path="url(#p5a63a1a5e3)" d="M 57.6 60.910422 
L 455.314286 60.910422 
" style="fill:none;opacity:0.2;stroke:#999999;stroke-linecap:square;stroke-width:0.8;"/>
     </g>
     <g id="line2d_94">
      <g>
       <use style="stroke:#000000;stroke-width:0.6;" x="57.6" xlink:href="#mc2f3f25245" y="60.910422"/>
      </g>
     </g>
    </g>
    <g id="ytick_15">
     <g id="line2d_95">
      <path clip-path="url(#p5a63a1a5e3)" d="M 57.6 52.600161 
L 455.314286 52.600161 
" style="fill:none;opacity:0.2;stroke:#999999;stroke-linecap:square;stroke-width:0.8;"/>
     </g>
     <g id="line2d_96">
      <g>
       <use style="stroke:#000000;stroke-width:0.6;" x="57.6" xlink:href="#mc2f3f25245" y="52.600161"/>
      </g>
     </g>
    </g>
    <g id="ytick_16">
     <g id="line2d_97">
      <path clip-path="url(#p5a63a1a5e3)" d="M 57.6 45.401486 
L 455.314286 45.401486 
" style="fill:none;opacity:0.2;stroke:#999999;stroke-linecap:square;stroke-width:0.8;"/>
     </g>
     <g id="line2d_98">
      <g>
       <use style="stroke:#000000;stroke-width:0.6;" x="57.6" xlink:href="#mc2f3f25245" y="45.401486"/>
      </g>
     </g>
    </g>
    <g id="ytick_17">
     <g id="line2d_99">
      <path clip-path="url(#p5a63a1a5e3)" d="M 57.6 39.051804 
L 455.314286 39.051804 
" style="fill:none;opacity:0.2;stroke:#999999;stroke-linecap:square;stroke-width:0.8;"/>
     </g>
     <g id="line2d_100">
      <g>
       <use style="stroke:#000000;stroke-width:0.6;" x="57.6" xlink:href="#mc2f3f25245" y="39.051804"/>
      </g>
     </g>
    </g>
    <g id="text_11">
     <!-- Encoding Throughput [MB/s] -->
     <defs>
      <path d="M 9.8125 72.90625 
L 55.90625 72.90625 
L 55.90625 64.59375 
L 19.671875 64.59375 
L 19.671875 43.015625 
L 54.390625 43.015625 
L 54.390625 34.71875 
L 19.671875 34.71875 
L 19.671875 8.296875 
L 56.78125 8.296875 
L 56.78125 0 
L 9.8125 0 
z
" id="DejaVuSans-45"/>
      <path d="M 54.890625 33.015625 
L 54.890625 0 
L 45.90625 0 
L 45.90625 32.71875 
Q 45.90625 40.484375 42.875 44.328125 
Q 39.84375 48.1875 33.796875 48.1875 
Q 26.515625 48.1875 22.3125 43.546875 
Q 18.109375 38.921875 18.109375 30.90625 
L 18.109375 0 
L 9.078125 0 
L 9.078125 54.6875 
L 18.109375 54.6875 
L 18.109375 46.1875 
Q 21.34375 51.125 25.703125 53.5625 
Q 30.078125 56 35.796875 56 
Q 45.21875 56 50.046875 50.171875 
Q 54.890625 44.34375 54.890625 33.015625 
z
" id="DejaVuSans-6e"/>
      <path d="M 45.40625 46.390625 
L 45.40625 75.984375 
L 54.390625 75.984375 
L 54.390625 0 
L 45.40625 0 
L 45.40625 8.203125 
Q 42.578125 3.328125 38.25 0.953125 
Q 33.9375 -1.421875 27.875 -1.421875 
Q 17.96875 -1.421875 11.734375 6.484375 
Q 5.515625 14.40625 5.515625 27.296875 
Q 5.515625 40.1875 11.734375 48.09375 
Q 17.96875 56 27.875 56 
Q 33.9375 56 38.25 53.625 
Q 42.578125 51.265625 45.40625 46.390625 
z
M 14.796875 27.296875 
Q 14.796875 17.390625 18.875 11.75 
Q 22.953125 6.109375 30.078125 6.109375 
Q 37.203125 6.109375 41.296875 11.75 
Q 45.40625 17.390625 45.40625 27.296875 
Q 45.40625 37.203125 41.296875 42.84375 
Q 37.203125 48.484375 30.078125 48.484375 
Q 22.953125 48.484375 18.875 42.84375 
Q 14.796875 37.203125 14.796875 27.296875 
z
" id="DejaVuSans-64"/>
      <path d="M 9.421875 54.6875 
L 18.40625 54.6875 
L 18.40625 0 
L 9.421875 0 
z
M 9.421875 75.984375 
L 18.40625 75.984375 
L 18.40625 64.59375 
L 9.421875 64.59375 
z
" id="DejaVuSans-69"/>
      <path d="M 45.40625 27.984375 
Q 45.40625 37.75 41.375 43.109375 
Q 37.359375 48.484375 30.078125 48.484375 
Q 22.859375 48.484375 18.828125 43.109375 
Q 14.796875 37.75 14.796875 27.984375 
Q 14.796875 18.265625 18.828125 12.890625 
Q 22.859375 7.515625 30.078125 7.515625 
Q 37.359375 7.515625 41.375 12.890625 
Q 45.40625 18.265625 45.40625 27.984375 
z
M 54.390625 6.78125 
Q 54.390625 -7.171875 48.1875 -13.984375 
Q 42 -20.796875 29.203125 -20.796875 
Q 24.46875 -20.796875 20.265625 -20.09375 
Q 16.0625 -19.390625 12.109375 -17.921875 
L 12.109375 -9.1875 
Q 16.0625 -11.328125 19.921875 -12.34375 
Q 23.78125 -13.375 27.78125 -13.375 
Q 36.625 -13.375 41.015625 -8.765625 
Q 45.40625 -4.15625 45.40625 5.171875 
L 45.40625 9.625 
Q 42.625 4.78125 38.28125 2.390625 
Q 33.9375 0 27.875 0 
Q 17.828125 0 11.671875 7.65625 
Q 5.515625 15.328125 5.515625 27.984375 
Q 5.515625 40.671875 11.671875 48.328125 
Q 17.828125 56 27.875 56 
Q 33.9375 56 38.28125 53.609375 
Q 42.625 51.21875 45.40625 46.390625 
L 45.40625 54.6875 
L 54.390625 54.6875 
z
" id="DejaVuSans-67"/>
      <path d="M -0.296875 72.90625 
L 61.375 72.90625 
L 61.375 64.59375 
L 35.5 64.59375 
L 35.5 0 
L 25.59375 0 
L 25.59375 64.59375 
L -0.296875 64.59375 
z
" id="DejaVuSans-54"/>
      <path d="M 54.890625 33.015625 
L 54.890625 0 
L 45.90625 0 
L 45.90625 32.71875 
Q 45.90625 40.484375 42.875 44.328125 
Q 39.84375 48.1875 33.796875 48.1875 
Q 26.515625 48.1875 22.3125 43.546875 
Q 18.109375 38.921875 18.109375 30.90625 
L 18.109375 0 
L 9.078125 0 
L 9.078125 75.984375 
L 18.109375 75.984375 
L 18.109375 46.1875 
Q 21.34375 51.125 25.703125 53.5625 
Q 30.078125 56 35.796875 56 
Q 45.21875 56 50.046875 50.171875 
Q 54.890625 44.34375 54.890625 33.015625 
z
" id="DejaVuSans-68"/>
      <path d="M 18.109375 8.203125 
L 18.109375 -20.796875 
L 9.078125 -20.796875 
L 9.078125 54.6875 
L 18.109375 54.6875 
L 18.109375 46.390625 
Q 20.953125 51.265625 25.265625 53.625 
Q 29.59375 56 35.59375 56 
Q 45.5625 56 51.78125 48.09375 
Q 58.015625 40.1875 58.015625 27.296875 
Q 58.015625 14.40625 51.78125 6.484375 
Q 45.5625 -1.421875 35.59375 -1.421875 
Q 29.59375 -1.421875 25.265625 0.953125 
Q 20.953125 3.328125 18.109375 8.203125 
z
M 48.6875 27.296875 
Q 48.6875 37.203125 44.609375 42.84375 
Q 40.53125 48.484375 33.40625 48.484375 
Q 26.265625 48.484375 22.1875 42.84375 
Q 18.109375 37.203125 18.109375 27.296875 
Q 18.109375 17.390625 22.1875 11.75 
Q 26.265625 6.109375 33.40625 6.109375 
Q 40.53125 6.109375 44.609375 11.75 
Q 48.6875 17.390625 48.6875 27.296875 
z
" id="DejaVuSans-70"/>
      <path d="M 8.59375 75.984375 
L 29.296875 75.984375 
L 29.296875 69 
L 17.578125 69 
L 17.578125 -6.203125 
L 29.296875 -6.203125 
L 29.296875 -13.1875 
L 8.59375 -13.1875 
z
" id="DejaVuSans-5b"/>
      <path d="M 9.8125 72.90625 
L 24.515625 72.90625 
L 43.109375 23.296875 
L 61.8125 72.90625 
L 76.515625 72.90625 
L 76.515625 0 
L 66.890625 0 
L 66.890625 64.015625 
L 48.09375 14.015625 
L 38.1875 14.015625 
L 19.390625 64.015625 
L 19.390625 0 
L 9.8125 0 
z
" id="DejaVuSans-4d"/>
      <path d="M 19.671875 34.8125 
L 19.671875 8.109375 
L 35.5 8.109375 
Q 43.453125 8.109375 47.28125 11.40625 
Q 51.125 14.703125 51.125 21.484375 
Q 51.125 28.328125 47.28125 31.5625 
Q 43.453125 34.8125 35.5 34.8125 
z
M 19.671875 64.796875 
L 19.671875 42.828125 
L 34.28125 42.828125 
Q 41.5 42.828125 45.03125 45.53125 
Q 48.578125 48.25 48.578125 53.8125 
Q 48.578125 59.328125 45.03125 62.0625 
Q 41.5 64.796875 34.28125 64.796875 
z
M 9.8125 72.90625 
L 35.015625 72.90625 
Q 46.296875 72.90625 52.390625 68.21875 
Q 58.5 63.53125 58.5 54.890625 
Q 58.5 48.1875 55.375 44.234375 
Q 52.25 40.28125 46.1875 39.3125 
Q 53.46875 37.75 57.5 32.78125 
Q 61.53125 27.828125 61.53125 20.40625 
Q 61.53125 10.640625 54.890625 5.3125 
Q 48.25 0 35.984375 0 
L 9.8125 0 
z
" id="DejaVuSans-42"/>
      <path d="M 25.390625 72.90625 
L 33.6875 72.90625 
L 8.296875 -9.28125 
L 0 -9.28125 
z
" id="DejaVuSans-2f"/>
      <path d="M 30.421875 75.984375 
L 30.421875 -13.1875 
L 9.71875 -13.1875 
L 9.71875 -6.203125 
L 21.390625 -6.203125 
L 21.390625 69 
L 9.71875 69 
L 9.71875 75.984375 
z
" id="DejaVuSans-5d"/>
     </defs>
     <g transform="translate(26.504375 204.176437)rotate(-90)scale(0.12 -0.12)">
      <use xlink:href="#DejaVuSans-45"/>
      <use x="63.183594" xlink:href="#DejaVuSans-6e"/>
      <use x="126.5625" xlink:href="#DejaVuSans-63"/>
      <use x="181.542969" xlink:href="#DejaVuSans-6f"/>
      <use x="242.724609" xlink:href="#DejaVuSans-64"/>
      <use x="306.201172" xlink:href="#DejaVuSans-69"/>
      <use x="333.984375" xlink:href="#DejaVuSans-6e"/>
      <use x="397.363281" xlink:href="#DejaVuSans-67"/>
      <use x="460.839844" xlink:href="#DejaVuSans-20"/>
      <use x="492.626953" xlink:href="#DejaVuSans-54"/>
      <use x="553.710938" xlink:href="#DejaVuSans-68"/>
      <use x="617.089844" xlink:href="#DejaVuSans-72"/>
      <use x="658.171875" xlink:href="#DejaVuSans-6f"/>
      <use x="719.353516" xlink:href="#DejaVuSans-75"/>
      <use x="782.732422" xlink:href="#DejaVuSans-67"/>
      <use x="846.208984" xlink:href="#DejaVuSans-68"/>
      <use x="909.587891" xlink:href="#DejaVuSans-70"/>
      <use x="973.064453" xlink:href="#DejaVuSans-75"/>
      <use x="1036.443359" xlink:href="#DejaVuSans-74"/>
      <use x="1075.652344" xlink:href="#DejaVuSans-20"/>
      <use x="1107.439453" xlink:href="#DejaVuSans-5b"/>
      <use x="1146.453125" xlink:href="#DejaVuSans-4d"/>
      <use x="1232.732422" xlink:href="#DejaVuSans-42"/>
      <use x="1301.335938" xlink:href="#DejaVuSans-2f"/>
      <use x="1335.027344" xlink:href="#DejaVuSans-73"/>
      <use x="1387.126953" xlink:href="#DejaVuSans-5d"/>
     </g>
    </g>
   </g>
   <g id="line2d_101">
    <path clip-path="url(#p5a63a1a5e3)" d="M 75.677922 12.004364 
L 135.937662 44.982853 
L 196.197403 79.764798 
L 256.457143 113.064696 
L 316.716883 148.660287 
L 376.976623 184.72509 
L 437.236364 224.642102 
" style="fill:none;stroke:#0000ff;stroke-linecap:square;stroke-width:1.5;"/>
    <defs>
     <path d="M 0 3 
C 0.795609 3 1.55874 2.683901 2.12132 2.12132 
C 2.683901 1.55874 3 0.795609 3 0 
C 3 -0.795609 2.683901 -1.55874 2.12132 -2.12132 
C 1.55874 -2.683901 0.795609 -3 0 -3 
C -0.795609 -3 -1.55874 -2.683901 -2.12132 -2.12132 
C -2.683901 -1.55874 -3 -0.795609 -3 0 
C -3 0.795609 -2.683901 1.55874 -2.12132 2.12132 
C -1.55874 2.683901 -0.795609 3 0 3 
z
" id="mace7ca25a1" style="stroke:#0000ff;"/>
    </defs>
    <g clip-path="url(#p5a63a1a5e3)">
     <use style="fill:#0000ff;stroke:#0000ff;" x="75.677922" xlink:href="#mace7ca25a1" y="12.004364"/>
     <use style="fill:#0000ff;stroke:#0000ff;" x="135.937662" xlink:href="#mace7ca25a1" y="44.982853"/>
     <use style="fill:#0000ff;stroke:#0000ff;" x="196.197403" xlink:href="#mace7ca25a1" y="79.764798"/>
     <use style="fill:#0000ff;stroke:#0000ff;" x="256.457143" xlink:href="#mace7ca25a1" y="113.064696"/>
     <use style="fill:#0000ff;stroke:#0000ff;" x="316.716883" xlink:href="#mace7ca25a1" y="148.660287"/>
     <use style="fill:#0000ff;stroke:#0000ff;" x="376.976623" xlink:href="#mace7ca25a1" y="184.72509"/>
     <use style="fill:#0000ff;stroke:#0000ff;" x="437.236364" xlink:href="#mace7ca25a1" y="224.642102"/>
    </g>
   </g>
   <g id="line2d_102">
    <path clip-path="url(#p5a63a1a5e3)" d="M 75.677922 17.643477 
L 135.937662 47.058171 
L 196.197403 80.024696 
L 256.457143 113.980206 
L 316.716883 148.995575 
L 376.976623 185.239236 
L 437.236364 225.165415 
" style="fill:none;stroke:#008000;stroke-linecap:square;stroke-width:1.5;"/>
    <defs>
     <path d="M -3 3 
L 3 -3 
M -3 -3 
L 3 3 
" id="me8823b80d0" style="stroke:#008000;"/>
    </defs>
    <g clip-path="url(#p5a63a1a5e3)">
     <use style="fill:#008000;stroke:#008000;" x="75.677922" xlink:href="#me8823b80d0" y="17.643477"/>
     <use style="fill:#008000;stroke:#008000;" x="135.937662" xlink:href="#me8823b80d0" y="47.058171"/>
     <use style="fill:#008000;stroke:#008000;" x="196.197403" xlink:href="#me8823b80d0" y="80.024696"/>
     <use style="fill:#008000;stroke:#008000;" x="256.457143" xlink:href="#me8823b80d0" y="113.980206"/>
     <use style="fill:#008000;stroke:#008000;" x="316.716883" xlink:href="#me8823b80d0" y="148.995575"/>
     <use style="fill:#008000;stroke:#008000;" x="376.976623" xlink:href="#me8823b80d0" y="185.239236"/>
     <use style="fill:#008000;stroke:#008000;" x="437.236364" xlink:href="#me8823b80d0" y="225.165415"/>
    </g>
   </g>
   <g id="line2d_103">
    <path clip-path="url(#p5a63a1a5e3)" d="M 75.677922 12.004364 
L 135.937662 44.982853 
L 196.197403 79.764798 
L 256.457143 113.064696 
L 316.716883 148.660287 
L 376.976623 184.72509 
L 437.236364 224.642102 
" style="fill:none;stroke:#ff0000;stroke-linecap:square;stroke-width:1.5;"/>
    <defs>
     <path d="M 0 -3 
L -3 3 
L 3 3 
z
" id="m0d2a89b3da" style="stroke:#ff0000;stroke-linejoin:miter;"/>
    </defs>
    <g clip-path="url(#p5a63a1a5e3)">
     <use style="fill:#ff0000;stroke:#ff0000;stroke-linejoin:miter;" x="75.677922" xlink:href="#m0d2a89b3da" y="12.004364"/>
     <use style="fill:#ff0000;stroke:#ff0000;stroke-linejoin:miter;" x="135.937662" xlink:href="#m0d2a89b3da" y="44.982853"/>
     <use style="fill:#ff0000;stroke:#ff0000;stroke-linejoin:miter;" x="196.197403" xlink:href="#m0d2a89b3da" y="79.764798"/>
     <use style="fill:#ff0000;stroke:#ff0000;stroke-linejoin:miter;" x="256.457143" xlink:href="#m0d2a89b3da" y="113.064696"/>
     <use style="fill:#ff0000;stroke:#ff0000;stroke-linejoin:miter;" x="316.716883" xlink:href="#m0d2a89b3da" y="148.660287"/>
     <use style="fill:#ff0000;stroke:#ff0000;stroke-linejoin:miter;" x="376.976623" xlink:href="#m0d2a89b3da" y="184.72509"/>
     <use style="fill:#ff0000;stroke:#ff0000;stroke-linejoin:miter;" x="437.236364" xlink:href="#m0d2a89b3da" y="224.642102"/>
    </g>
   </g>
   <g id="line2d_104">
    <path clip-path="url(#p5a63a1a5e3)" d="M 75.677922 17.643477 
L 135.937662 47.058171 
L 196.197403 80.024696 
L 256.457143 113.980206 
L 316.716883 148.995575 
L 376.976623 185.239236 
L 437.236364 225.165415 
" style="fill:none;stroke:#00bfbf;stroke-linecap:square;stroke-width:1.5;"/>
    <defs>
     <path d="M 0 -3 
L -0.673542 -0.927051 
L -2.85317 -0.927051 
L -1.089814 0.354102 
L -1.763356 2.427051 
L -0 1.145898 
L 1.763356 2.427051 
L 1.089814 0.354102 
L 2.85317 -0.927051 
L 0.673542 -0.927051 
z
" id="mb621ec3bb4" style="stroke:#00bfbf;stroke-linejoin:bevel;"/>
    </defs>
    <g clip-path="url(#p5a63a1a5e3)">
     <use style="fill:#00bfbf;stroke:#00bfbf;stroke-linejoin:bevel;" x="75.677922" xlink:href="#mb621ec3bb4" y="17.643477"/>
     <use style="fill:#00bfbf;stroke:#00bfbf;stroke-linejoin:bevel;" x="135.937662" xlink:href="#mb621ec3bb4" y="47.058171"/>
     <use style="fill:#00bfbf;stroke:#00bfbf;stroke-linejoin:bevel;" x="196.197403" xlink:href="#mb621ec3bb4" y="80.024696"/>
     <use style="fill:#00bfbf;stroke:#00bfbf;stroke-linejoin:bevel;" x="256.457143" xlink:href="#mb621ec3bb4" y="113.980206"/>
     <use style="fill:#00bfbf;stroke:#00bfbf;stroke-linejoin:bevel;" x="316.716883" xlink:href="#mb621ec3bb4" y="148.995575"/>
     <use style="fill:#00bfbf;stroke:#00bfbf;stroke-linejoin:bevel;" x="376.976623" xlink:href="#mb621ec3bb4" y="185.239236"/>
     <use style="fill:#00bfbf;stroke:#00bfbf;stroke-linejoin:bevel;" x="437.236364" xlink:href="#mb621ec3bb4" y="225.165415"/>
    </g>
   </g>
   <g id="line2d_105">
    <path clip-path="url(#p5a63a1a5e3)" d="M 75.677922 12.048272 
L 135.937662 45.022622 
L 196.197403 79.768277 
L 256.457143 113.064801 
L 316.716883 148.666406 
L 376.976623 184.74878 
L 437.236364 224.671889 
" style="fill:none;stroke:#bf00bf;stroke-linecap:square;stroke-width:1.5;"/>
    <defs>
     <path d="M 3 0 
L -3 -3 
L -3 3 
z
" id="ma6d1686800" style="stroke:#bf00bf;stroke-linejoin:miter;"/>
    </defs>
    <g clip-path="url(#p5a63a1a5e3)">
     <use style="fill:#bf00bf;stroke:#bf00bf;stroke-linejoin:miter;" x="75.677922" xlink:href="#ma6d1686800" y="12.048272"/>
     <use style="fill:#bf00bf;stroke:#bf00bf;stroke-linejoin:miter;" x="135.937662" xlink:href="#ma6d1686800" y="45.022622"/>
     <use style="fill:#bf00bf;stroke:#bf00bf;stroke-linejoin:miter;" x="196.197403" xlink:href="#ma6d1686800" y="79.768277"/>
     <use style="fill:#bf00bf;stroke:#bf00bf;stroke-linejoin:miter;" x="256.457143" xlink:href="#ma6d1686800" y="113.064801"/>
     <use style="fill:#bf00bf;stroke:#bf00bf;stroke-linejoin:miter;" x="316.716883" xlink:href="#ma6d1686800" y="148.666406"/>
     <use style="fill:#bf00bf;stroke:#bf00bf;stroke-linejoin:miter;" x="376.976623" xlink:href="#ma6d1686800" y="184.74878"/>
     <use style="fill:#bf00bf;stroke:#bf00bf;stroke-linejoin:miter;" x="437.236364" xlink:href="#ma6d1686800" y="224.671889"/>
    </g>
   </g>
   <g id="line2d_106">
    <path clip-path="url(#p5a63a1a5e3)" d="M 75.677922 17.700145 
L 135.937662 47.054787 
L 196.197403 79.999554 
L 256.457143 113.963956 
L 316.716883 148.999997 
L 376.976623 185.275003 
L 437.236364 225.211636 
" style="fill:none;stroke:#bfbf00;stroke-linecap:square;stroke-width:1.5;"/>
    <defs>
     <path d="M -3 0 
L 3 0 
M 0 3 
L 0 -3 
" id="mde8cf83ee6" style="stroke:#bfbf00;"/>
    </defs>
    <g clip-path="url(#p5a63a1a5e3)">
     <use style="fill:#bfbf00;stroke:#bfbf00;" x="75.677922" xlink:href="#mde8cf83ee6" y="17.700145"/>
     <use style="fill:#bfbf00;stroke:#bfbf00;" x="135.937662" xlink:href="#mde8cf83ee6" y="47.054787"/>
     <use style="fill:#bfbf00;stroke:#bfbf00;" x="196.197403" xlink:href="#mde8cf83ee6" y="79.999554"/>
     <use style="fill:#bfbf00;stroke:#bfbf00;" x="256.457143" xlink:href="#mde8cf83ee6" y="113.963956"/>
     <use style="fill:#bfbf00;stroke:#bfbf00;" x="316.716883" xlink:href="#mde8cf83ee6" y="148.999997"/>
     <use style="fill:#bfbf00;stroke:#bfbf00;" x="376.976623" xlink:href="#mde8cf83ee6" y="185.275003"/>
     <use style="fill:#bfbf00;stroke:#bfbf00;" x="437.236364" xlink:href="#mde8cf83ee6" y="225.211636"/>
    </g>
   </g>
   <g id="patch_3">
    <path d="M 57.6 235.872 
L 57.6 1.344 
" style="fill:none;stroke:#000000;stroke-linecap:square;stroke-linejoin:miter;stroke-width:0.8;"/>
   </g>
   <g id="patch_4">
    <path d="M 455.314286 235.872 
L 455.314286 1.344 
" style="fill:none;stroke:#000000;stroke-linecap:square;stroke-linejoin:miter;stroke-width:0.8;"/>
   </g>
   <g id="patch_5">
    <path d="M 57.6 235.872 
L 455.314286 235.872 
" style="fill:none;stroke:#000000;stroke-linecap:square;stroke-linejoin:miter;stroke-width:0.8;"/>
   </g>
   <g id="patch_6">
    <path d="M 57.6 1.344 
L 455.314286 1.344 
" style="fill:none;stroke:#000000;stroke-linecap:square;stroke-linejoin:miter;stroke-width:0.8;"/>
   </g>
   <g id="legend_1">
    <g id="patch_7">
     <path d="M 272.801786 97.41275 
L 448.314286 97.41275 
Q 450.314286 97.41275 450.314286 95.41275 
L 450.314286 8.344 
Q 450.314286 6.344 448.314286 6.344 
L 272.801786 6.344 
Q 270.801786 6.344 270.801786 8.344 
L 270.801786 95.41275 
Q 270.801786 97.41275 272.801786 97.41275 
z
" style="fill:#ffffff;opacity:0.8;stroke:#cccccc;stroke-linejoin:miter;"/>
    </g>
    <g id="line2d_107">
     <path d="M 274.801786 14.442437 
L 294.801786 14.442437 
" style="fill:none;stroke:#0000ff;stroke-linecap:square;stroke-width:1.5;"/>
    </g>
    <g id="line2d_108">
     <g>
      <use style="fill:#0000ff;stroke:#0000ff;" x="284.801786" xlink:href="#mace7ca25a1" y="14.442437"/>
     </g>
    </g>
    <g id="text_12">
     <!-- Fulcrum Outer(r=1,binary8) -->
     <defs>
      <path d="M 9.8125 72.90625 
L 51.703125 72.90625 
L 51.703125 64.59375 
L 19.671875 64.59375 
L 19.671875 43.109375 
L 48.578125 43.109375 
L 48.578125 34.8125 
L 19.671875 34.8125 
L 19.671875 0 
L 9.8125 0 
z
" id="DejaVuSans-46"/>
      <path d="M 9.421875 75.984375 
L 18.40625 75.984375 
L 18.40625 0 
L 9.421875 0 
z
" id="DejaVuSans-6c"/>
      <path d="M 39.40625 66.21875 
Q 28.65625 66.21875 22.328125 58.203125 
Q 16.015625 50.203125 16.015625 36.375 
Q 16.015625 22.609375 22.328125 14.59375 
Q 28.65625 6.59375 39.40625 6.59375 
Q 50.140625 6.59375 56.421875 14.59375 
Q 62.703125 22.609375 62.703125 36.375 
Q 62.703125 50.203125 56.421875 58.203125 
Q 50.140625 66.21875 39.40625 66.21875 
z
M 39.40625 74.21875 
Q 54.734375 74.21875 63.90625 63.9375 
Q 73.09375 53.65625 73.09375 36.375 
Q 73.09375 19.140625 63.90625 8.859375 
Q 54.734375 -1.421875 39.40625 -1.421875 
Q 24.03125 -1.421875 14.8125 8.828125 
Q 5.609375 19.09375 5.609375 36.375 
Q 5.609375 53.65625 14.8125 63.9375 
Q 24.03125 74.21875 39.40625 74.21875 
z
" id="DejaVuSans-4f"/>
      <path d="M 31 75.875 
Q 24.46875 64.65625 21.28125 53.65625 
Q 18.109375 42.671875 18.109375 31.390625 
Q 18.109375 20.125 21.3125 9.0625 
Q 24.515625 -2 31 -13.1875 
L 23.1875 -13.1875 
Q 15.875 -1.703125 12.234375 9.375 
Q 8.59375 20.453125 8.59375 31.390625 
Q 8.59375 42.28125 12.203125 53.3125 
Q 15.828125 64.359375 23.1875 75.875 
z
" id="DejaVuSans-28"/>
      <path d="M 10.59375 45.40625 
L 73.1875 45.40625 
L 73.1875 37.203125 
L 10.59375 37.203125 
z
M 10.59375 25.484375 
L 73.1875 25.484375 
L 73.1875 17.1875 
L 10.59375 17.1875 
z
" id="DejaVuSans-3d"/>
      <path d="M 11.71875 12.40625 
L 22.015625 12.40625 
L 22.015625 4 
L 14.015625 -11.625 
L 7.71875 -11.625 
L 11.71875 4 
z
" id="DejaVuSans-2c"/>
      <path d="M 32.171875 -5.078125 
Q 28.375 -14.84375 24.75 -17.8125 
Q 21.140625 -20.796875 15.09375 -20.796875 
L 7.90625 -20.796875 
L 7.90625 -13.28125 
L 13.1875 -13.28125 
Q 16.890625 -13.28125 18.9375 -11.515625 
Q 21 -9.765625 23.484375 -3.21875 
L 25.09375 0.875 
L 2.984375 54.6875 
L 12.5 54.6875 
L 29.59375 11.921875 
L 46.6875 54.6875 
L 56.203125 54.6875 
z
" id="DejaVuSans-79"/>
      <path d="M 8.015625 75.875 
L 15.828125 75.875 
Q 23.140625 64.359375 26.78125 53.3125 
Q 30.421875 42.28125 30.421875 31.390625 
Q 30.421875 20.453125 26.78125 9.375 
Q 23.140625 -1.703125 15.828125 -13.1875 
L 8.015625 -13.1875 
Q 14.5 -2 17.703125 9.0625 
Q 20.90625 20.125 20.90625 31.390625 
Q 20.90625 42.671875 17.703125 53.65625 
Q 14.5 64.65625 8.015625 75.875 
z
" id="DejaVuSans-29"/>
     </defs>
     <g transform="translate(302.801786 17.942437)scale(0.1 -0.1)">
      <use xlink:href="#DejaVuSans-46"/>
      <use x="57.441406" xlink:href="#DejaVuSans-75"/>
      <use x="120.820312" xlink:href="#DejaVuSans-6c"/>
      <use x="148.603516" xlink:href="#DejaVuSans-63"/>
      <use x="203.583984" xlink:href="#DejaVuSans-72"/>
      <use x="244.697266" xlink:href="#DejaVuSans-75"/>
      <use x="308.076172" xlink:href="#DejaVuSans-6d"/>
      <use x="405.488281" xlink:href="#DejaVuSans-20"/>
      <use x="437.275391" xlink:href="#DejaVuSans-4f"/>
      <use x="515.986328" xlink:href="#DejaVuSans-75"/>
      <use x="579.365234" xlink:href="#DejaVuSans-74"/>
      <use x="618.574219" xlink:href="#DejaVuSans-65"/>
      <use x="680.097656" xlink:href="#DejaVuSans-72"/>
      <use x="721.210938" xlink:href="#DejaVuSans-28"/>
      <use x="760.224609" xlink:href="#DejaVuSans-72"/>
      <use x="801.337891" xlink:href="#DejaVuSans-3d"/>
      <use x="885.126953" xlink:href="#DejaVuSans-31"/>
      <use x="948.75" xlink:href="#DejaVuSans-2c"/>
      <use x="980.537109" xlink:href="#DejaVuSans-62"/>
      <use x="1044.013672" xlink:href="#DejaVuSans-69"/>
      <use x="1071.796875" xlink:href="#DejaVuSans-6e"/>
      <use x="1135.175781" xlink:href="#DejaVuSans-61"/>
      <use x="1196.455078" xlink:href="#DejaVuSans-72"/>
      <use x="1237.568359" xlink:href="#DejaVuSans-79"/>
      <use x="1296.748047" xlink:href="#DejaVuSans-38"/>
      <use x="1360.371094" xlink:href="#DejaVuSans-29"/>
     </g>
    </g>
    <g id="line2d_109">
     <path d="M 274.801786 29.120562 
L 294.801786 29.120562 
" style="fill:none;stroke:#008000;stroke-linecap:square;stroke-width:1.5;"/>
    </g>
    <g id="line2d_110">
     <g>
      <use style="fill:#008000;stroke:#008000;" x="284.801786" xlink:href="#me8823b80d0" y="29.120562"/>
     </g>
    </g>
    <g id="text_13">
     <!-- Fulcrum Outer(r=4,binary8) -->
     <g transform="translate(302.801786 32.620562)scale(0.1 -0.1)">
      <use xlink:href="#DejaVuSans-46"/>
      <use x="57.441406" xlink:href="#DejaVuSans-75"/>
      <use x="120.820312" xlink:href="#DejaVuSans-6c"/>
      <use x="148.603516" xlink:href="#DejaVuSans-63"/>
      <use x="203.583984" xlink:href="#DejaVuSans-72"/>
      <use x="244.697266" xlink:href="#DejaVuSans-75"/>
      <use x="308.076172" xlink:href="#DejaVuSans-6d"/>
      <use x="405.488281" xlink:href="#DejaVuSans-20"/>
      <use x="437.275391" xlink:href="#DejaVuSans-4f"/>
      <use x="515.986328" xlink:href="#DejaVuSans-75"/>
      <use x="579.365234" xlink:href="#DejaVuSans-74"/>
      <use x="618.574219" xlink:href="#DejaVuSans-65"/>
      <use x="680.097656" xlink:href="#DejaVuSans-72"/>
      <use x="721.210938" xlink:href="#DejaVuSans-28"/>
      <use x="760.224609" xlink:href="#DejaVuSans-72"/>
      <use x="801.337891" xlink:href="#DejaVuSans-3d"/>
      <use x="885.126953" xlink:href="#DejaVuSans-34"/>
      <use x="948.75" xlink:href="#DejaVuSans-2c"/>
      <use x="980.537109" xlink:href="#DejaVuSans-62"/>
      <use x="1044.013672" xlink:href="#DejaVuSans-69"/>
      <use x="1071.796875" xlink:href="#DejaVuSans-6e"/>
      <use x="1135.175781" xlink:href="#DejaVuSans-61"/>
      <use x="1196.455078" xlink:href="#DejaVuSans-72"/>
      <use x="1237.568359" xlink:href="#DejaVuSans-79"/>
      <use x="1296.748047" xlink:href="#DejaVuSans-38"/>
      <use x="1360.371094" xlink:href="#DejaVuSans-29"/>
     </g>
    </g>
    <g id="line2d_111">
     <path d="M 274.801786 43.798687 
L 294.801786 43.798687 
" style="fill:none;stroke:#ff0000;stroke-linecap:square;stroke-width:1.5;"/>
    </g>
    <g id="line2d_112">
     <g>
      <use style="fill:#ff0000;stroke:#ff0000;stroke-linejoin:miter;" x="284.801786" xlink:href="#m0d2a89b3da" y="43.798687"/>
     </g>
    </g>
    <g id="text_14">
     <!-- Fulcrum Combi(r=1,binary8) -->
     <defs>
      <path d="M 64.40625 67.28125 
L 64.40625 56.890625 
Q 59.421875 61.53125 53.78125 63.8125 
Q 48.140625 66.109375 41.796875 66.109375 
Q 29.296875 66.109375 22.65625 58.46875 
Q 16.015625 50.828125 16.015625 36.375 
Q 16.015625 21.96875 22.65625 14.328125 
Q 29.296875 6.6875 41.796875 6.6875 
Q 48.140625 6.6875 53.78125 8.984375 
Q 59.421875 11.28125 64.40625 15.921875 
L 64.40625 5.609375 
Q 59.234375 2.09375 53.4375 0.328125 
Q 47.65625 -1.421875 41.21875 -1.421875 
Q 24.65625 -1.421875 15.125 8.703125 
Q 5.609375 18.84375 5.609375 36.375 
Q 5.609375 53.953125 15.125 64.078125 
Q 24.65625 74.21875 41.21875 74.21875 
Q 47.75 74.21875 53.53125 72.484375 
Q 59.328125 70.75 64.40625 67.28125 
z
" id="DejaVuSans-43"/>
     </defs>
     <g transform="translate(302.801786 47.298687)scale(0.1 -0.1)">
      <use xlink:href="#DejaVuSans-46"/>
      <use x="57.441406" xlink:href="#DejaVuSans-75"/>
      <use x="120.820312" xlink:href="#DejaVuSans-6c"/>
      <use x="148.603516" xlink:href="#DejaVuSans-63"/>
      <use x="203.583984" xlink:href="#DejaVuSans-72"/>
      <use x="244.697266" xlink:href="#DejaVuSans-75"/>
      <use x="308.076172" xlink:href="#DejaVuSans-6d"/>
      <use x="405.488281" xlink:href="#DejaVuSans-20"/>
      <use x="437.275391" xlink:href="#DejaVuSans-43"/>
      <use x="507.099609" xlink:href="#DejaVuSans-6f"/>
      <use x="568.28125" xlink:href="#DejaVuSans-6d"/>
      <use x="665.693359" xlink:href="#DejaVuSans-62"/>
      <use x="729.169922" xlink:href="#DejaVuSans-69"/>
      <use x="756.953125" xlink:href="#DejaVuSans-28"/>
      <use x="795.966797" xlink:href="#DejaVuSans-72"/>
      <use x="837.080078" xlink:href="#DejaVuSans-3d"/>
      <use x="920.869141" xlink:href="#DejaVuSans-31"/>
      <use x="984.492188" xlink:href="#DejaVuSans-2c"/>
      <use x="1016.279297" xlink:href="#DejaVuSans-62"/>
      <use x="1079.755859" xlink:href="#DejaVuSans-69"/>
      <use x="1107.539062" xlink:href="#DejaVuSans-6e"/>
      <use x="1170.917969" xlink:href="#DejaVuSans-61"/>
      <use x="1232.197266" xlink:href="#DejaVuSans-72"/>
      <use x="1273.310547" xlink:href="#DejaVuSans-79"/>
      <use x="1332.490234" xlink:href="#DejaVuSans-38"/>
      <use x="1396.113281" xlink:href="#DejaVuSans-29"/>
     </g>
    </g>
    <g id="line2d_113">
     <path d="M 274.801786 58.476812 
L 294.801786 58.476812 
" style="fill:none;stroke:#00bfbf;stroke-linecap:square;stroke-width:1.5;"/>
    </g>
    <g id="line2d_114">
     <g>
      <use style="fill:#00bfbf;stroke:#00bfbf;stroke-linejoin:bevel;" x="284.801786" xlink:href="#mb621ec3bb4" y="58.476812"/>
     </g>
    </g>
    <g id="text_15">
     <!-- Fulcrum Combi(r=4,binary8) -->
     <g transform="translate(302.801786 61.976812)scale(0.1 -0.1)">
      <use xlink:href="#DejaVuSans-46"/>
      <use x="57.441406" xlink:href="#DejaVuSans-75"/>
      <use x="120.820312" xlink:href="#DejaVuSans-6c"/>
      <use x="148.603516" xlink:href="#DejaVuSans-63"/>
      <use x="203.583984" xlink:href="#DejaVuSans-72"/>
      <use x="244.697266" xlink:href="#DejaVuSans-75"/>
      <use x="308.076172" xlink:href="#DejaVuSans-6d"/>
      <use x="405.488281" xlink:href="#DejaVuSans-20"/>
      <use x="437.275391" xlink:href="#DejaVuSans-43"/>
      <use x="507.099609" xlink:href="#DejaVuSans-6f"/>
      <use x="568.28125" xlink:href="#DejaVuSans-6d"/>
      <use x="665.693359" xlink:href="#DejaVuSans-62"/>
      <use x="729.169922" xlink:href="#DejaVuSans-69"/>
      <use x="756.953125" xlink:href="#DejaVuSans-28"/>
      <use x="795.966797" xlink:href="#DejaVuSans-72"/>
      <use x="837.080078" xlink:href="#DejaVuSans-3d"/>
      <use x="920.869141" xlink:href="#DejaVuSans-34"/>
      <use x="984.492188" xlink:href="#DejaVuSans-2c"/>
      <use x="1016.279297" xlink:href="#DejaVuSans-62"/>
      <use x="1079.755859" xlink:href="#DejaVuSans-69"/>
      <use x="1107.539062" xlink:href="#DejaVuSans-6e"/>
      <use x="1170.917969" xlink:href="#DejaVuSans-61"/>
      <use x="1232.197266" xlink:href="#DejaVuSans-72"/>
      <use x="1273.310547" xlink:href="#DejaVuSans-79"/>
      <use x="1332.490234" xlink:href="#DejaVuSans-38"/>
      <use x="1396.113281" xlink:href="#DejaVuSans-29"/>
     </g>
    </g>
    <g id="line2d_115">
     <path d="M 274.801786 73.154937 
L 294.801786 73.154937 
" style="fill:none;stroke:#bf00bf;stroke-linecap:square;stroke-width:1.5;"/>
    </g>
    <g id="line2d_116">
     <g>
      <use style="fill:#bf00bf;stroke:#bf00bf;stroke-linejoin:miter;" x="284.801786" xlink:href="#ma6d1686800" y="73.154937"/>
     </g>
    </g>
    <g id="text_16">
     <!-- Fulcrum Inner(r=1,binary) -->
     <defs>
      <path d="M 9.8125 72.90625 
L 19.671875 72.90625 
L 19.671875 0 
L 9.8125 0 
z
" id="DejaVuSans-49"/>
     </defs>
     <g transform="translate(302.801786 76.654937)scale(0.1 -0.1)">
      <use xlink:href="#DejaVuSans-46"/>
      <use x="57.441406" xlink:href="#DejaVuSans-75"/>
      <use x="120.820312" xlink:href="#DejaVuSans-6c"/>
      <use x="148.603516" xlink:href="#DejaVuSans-63"/>
      <use x="203.583984" xlink:href="#DejaVuSans-72"/>
      <use x="244.697266" xlink:href="#DejaVuSans-75"/>
      <use x="308.076172" xlink:href="#DejaVuSans-6d"/>
      <use x="405.488281" xlink:href="#DejaVuSans-20"/>
      <use x="437.275391" xlink:href="#DejaVuSans-49"/>
      <use x="466.767578" xlink:href="#DejaVuSans-6e"/>
      <use x="530.146484" xlink:href="#DejaVuSans-6e"/>
      <use x="593.525391" xlink:href="#DejaVuSans-65"/>
      <use x="655.048828" xlink:href="#DejaVuSans-72"/>
      <use x="696.162109" xlink:href="#DejaVuSans-28"/>
      <use x="735.175781" xlink:href="#DejaVuSans-72"/>
      <use x="776.289062" xlink:href="#DejaVuSans-3d"/>
      <use x="860.078125" xlink:href="#DejaVuSans-31"/>
      <use x="923.701172" xlink:href="#DejaVuSans-2c"/>
      <use x="955.488281" xlink:href="#DejaVuSans-62"/>
      <use x="1018.964844" xlink:href="#DejaVuSans-69"/>
      <use x="1046.748047" xlink:href="#DejaVuSans-6e"/>
      <use x="1110.126953" xlink:href="#DejaVuSans-61"/>
      <use x="1171.40625" xlink:href="#DejaVuSans-72"/>
      <use x="1212.519531" xlink:href="#DejaVuSans-79"/>
      <use x="1271.699219" xlink:href="#DejaVuSans-29"/>
     </g>
    </g>
    <g id="line2d_117">
     <path d="M 274.801786 87.833062 
L 294.801786 87.833062 
" style="fill:none;stroke:#bfbf00;stroke-linecap:square;stroke-width:1.5;"/>
    </g>
    <g id="line2d_118">
     <g>
      <use style="fill:#bfbf00;stroke:#bfbf00;" x="284.801786" xlink:href="#mde8cf83ee6" y="87.833062"/>
     </g>
    </g>
    <g id="text_17">
     <!-- Fulcrum Inner(r=4,binary) -->
     <g transform="translate(302.801786 91.333062)scale(0.1 -0.1)">
      <use xlink:href="#DejaVuSans-46"/>
      <use x="57.441406" xlink:href="#DejaVuSans-75"/>
      <use x="120.820312" xlink:href="#DejaVuSans-6c"/>
      <use x="148.603516" xlink:href="#DejaVuSans-63"/>
      <use x="203.583984" xlink:href="#DejaVuSans-72"/>
      <use x="244.697266" xlink:href="#DejaVuSans-75"/>
      <use x="308.076172" xlink:href="#DejaVuSans-6d"/>
      <use x="405.488281" xlink:href="#DejaVuSans-20"/>
      <use x="437.275391" xlink:href="#DejaVuSans-49"/>
      <use x="466.767578" xlink:href="#DejaVuSans-6e"/>
      <use x="530.146484" xlink:href="#DejaVuSans-6e"/>
      <use x="593.525391" xlink:href="#DejaVuSans-65"/>
      <use x="655.048828" xlink:href="#DejaVuSans-72"/>
      <use x="696.162109" xlink:href="#DejaVuSans-28"/>
      <use x="735.175781" xlink:href="#DejaVuSans-72"/>
      <use x="776.289062" xlink:href="#DejaVuSans-3d"/>
      <use x="860.078125" xlink:href="#DejaVuSans-34"/>
      <use x="923.701172" xlink:href="#DejaVuSans-2c"/>
      <use x="955.488281" xlink:href="#DejaVuSans-62"/>
      <use x="1018.964844" xlink:href="#DejaVuSans-69"/>
      <use x="1046.748047" xlink:href="#DejaVuSans-6e"/>
      <use x="1110.126953" xlink:href="#DejaVuSans-61"/>
      <use x="1171.40625" xlink:href="#DejaVuSans-72"/>
      <use x="1212.519531" xlink:href="#DejaVuSans-79"/>
      <use x="1271.699219" xlink:href="#DejaVuSans-29"/>
     </g>
    </g>
   </g>
  </g>
 </g>
 <defs>
  <clipPath id="p5a63a1a5e3">
   <rect height="234.528" width="397.714286" x="57.6" y="1.344"/>
  </clipPath>
 </defs>
</svg>
