<?xml version="1.0" encoding="utf-8" standalone="no"?>
<!DOCTYPE svg PUBLIC "-//W3C//DTD SVG 1.1//EN"
  "http://www.w3.org/Graphics/SVG/1.1/DTD/svg11.dtd">
<!-- Created with matplotlib (http://matplotlib.org/) -->
<svg height="366pt" version="1.1" viewBox="0 0 581 366" width="581pt" xmlns="http://www.w3.org/2000/svg" xmlns:xlink="http://www.w3.org/1999/xlink">
 <defs>
  <style type="text/css">
*{stroke-linecap:butt;stroke-linejoin:round;}
  </style>
 </defs>
 <g id="figure_1">
  <g id="patch_1">
   <path d="M 0 366.48 
L 581.04 366.48 
L 581.04 0 
L 0 0 
z
" style="fill:#ffffff;"/>
  </g>
  <g id="axes_1">
   <g id="patch_2">
    <path d="M 72.63 328.959429 
L 576.889714 328.959429 
L 576.889714 5.235429 
L 72.63 5.235429 
z
" style="fill:#ffffff;"/>
   </g>
   <g id="matplotlib.axis_1">
    <g id="xtick_1">
     <g id="line2d_1">
      <path clip-path="url(#pca0ef1faa2)" d="M 95.550896 328.959429 
L 95.550896 5.235429 
" style="fill:none;stroke:#666666;stroke-linecap:square;stroke-width:0.8;"/>
     </g>
     <g id="line2d_2">
      <defs>
       <path d="M 0 0 
L 0 3.5 
" id="mffef6debbe" style="stroke:#000000;stroke-width:0.8;"/>
      </defs>
      <g>
       <use style="stroke:#000000;stroke-width:0.8;" x="95.550896" xlink:href="#mffef6debbe" y="328.959429"/>
      </g>
     </g>
     <g id="text_1">
      <!-- 16 -->
      <defs>
       <path d="M 12.40625 8.296875 
L 28.515625 8.296875 
L 28.515625 63.921875 
L 10.984375 60.40625 
L 10.984375 69.390625 
L 28.421875 72.90625 
L 38.28125 72.90625 
L 38.28125 8.296875 
L 54.390625 8.296875 
L 54.390625 0 
L 12.40625 0 
z
" id="DejaVuSans-31"/>
       <path d="M 33.015625 40.375 
Q 26.375 40.375 22.484375 35.828125 
Q 18.609375 31.296875 18.609375 23.390625 
Q 18.609375 15.53125 22.484375 10.953125 
Q 26.375 6.390625 33.015625 6.390625 
Q 39.65625 6.390625 43.53125 10.953125 
Q 47.40625 15.53125 47.40625 23.390625 
Q 47.40625 31.296875 43.53125 35.828125 
Q 39.65625 40.375 33.015625 40.375 
z
M 52.59375 71.296875 
L 52.59375 62.3125 
Q 48.875 64.0625 45.09375 64.984375 
Q 41.3125 65.921875 37.59375 65.921875 
Q 27.828125 65.921875 22.671875 59.328125 
Q 17.53125 52.734375 16.796875 39.40625 
Q 19.671875 43.65625 24.015625 45.921875 
Q 28.375 48.1875 33.59375 48.1875 
Q 44.578125 48.1875 50.953125 41.515625 
Q 57.328125 34.859375 57.328125 23.390625 
Q 57.328125 12.15625 50.6875 5.359375 
Q 44.046875 -1.421875 33.015625 -1.421875 
Q 20.359375 -1.421875 13.671875 8.265625 
Q 6.984375 17.96875 6.984375 36.375 
Q 6.984375 53.65625 15.1875 63.9375 
Q 23.390625 74.21875 37.203125 74.21875 
Q 40.921875 74.21875 44.703125 73.484375 
Q 48.484375 72.75 52.59375 71.296875 
z
" id="DejaVuSans-36"/>
      </defs>
      <g transform="translate(89.188396 343.557866)scale(0.1 -0.1)">
       <use xlink:href="#DejaVuSans-31"/>
       <use x="63.623047" xlink:href="#DejaVuSans-36"/>
      </g>
     </g>
    </g>
    <g id="xtick_2">
     <g id="line2d_3">
      <path clip-path="url(#pca0ef1faa2)" d="M 171.953883 328.959429 
L 171.953883 5.235429 
" style="fill:none;stroke:#666666;stroke-linecap:square;stroke-width:0.8;"/>
     </g>
     <g id="line2d_4">
      <g>
       <use style="stroke:#000000;stroke-width:0.8;" x="171.953883" xlink:href="#mffef6debbe" y="328.959429"/>
      </g>
     </g>
     <g id="text_2">
      <!-- 32 -->
      <defs>
       <path d="M 40.578125 39.3125 
Q 47.65625 37.796875 51.625 33 
Q 55.609375 28.21875 55.609375 21.1875 
Q 55.609375 10.40625 48.1875 4.484375 
Q 40.765625 -1.421875 27.09375 -1.421875 
Q 22.515625 -1.421875 17.65625 -0.515625 
Q 12.796875 0.390625 7.625 2.203125 
L 7.625 11.71875 
Q 11.71875 9.328125 16.59375 8.109375 
Q 21.484375 6.890625 26.8125 6.890625 
Q 36.078125 6.890625 40.9375 10.546875 
Q 45.796875 14.203125 45.796875 21.1875 
Q 45.796875 27.640625 41.28125 31.265625 
Q 36.765625 34.90625 28.71875 34.90625 
L 20.21875 34.90625 
L 20.21875 43.015625 
L 29.109375 43.015625 
Q 36.375 43.015625 40.234375 45.921875 
Q 44.09375 48.828125 44.09375 54.296875 
Q 44.09375 59.90625 40.109375 62.90625 
Q 36.140625 65.921875 28.71875 65.921875 
Q 24.65625 65.921875 20.015625 65.03125 
Q 15.375 64.15625 9.8125 62.3125 
L 9.8125 71.09375 
Q 15.4375 72.65625 20.34375 73.4375 
Q 25.25 74.21875 29.59375 74.21875 
Q 40.828125 74.21875 47.359375 69.109375 
Q 53.90625 64.015625 53.90625 55.328125 
Q 53.90625 49.265625 50.4375 45.09375 
Q 46.96875 40.921875 40.578125 39.3125 
z
" id="DejaVuSans-33"/>
       <path d="M 19.1875 8.296875 
L 53.609375 8.296875 
L 53.609375 0 
L 7.328125 0 
L 7.328125 8.296875 
Q 12.9375 14.109375 22.625 23.890625 
Q 32.328125 33.6875 34.8125 36.53125 
Q 39.546875 41.84375 41.421875 45.53125 
Q 43.3125 49.21875 43.3125 52.78125 
Q 43.3125 58.59375 39.234375 62.25 
Q 35.15625 65.921875 28.609375 65.921875 
Q 23.96875 65.921875 18.8125 64.3125 
Q 13.671875 62.703125 7.8125 59.421875 
L 7.8125 69.390625 
Q 13.765625 71.78125 18.9375 73 
Q 24.125 74.21875 28.421875 74.21875 
Q 39.75 74.21875 46.484375 68.546875 
Q 53.21875 62.890625 53.21875 53.421875 
Q 53.21875 48.921875 51.53125 44.890625 
Q 49.859375 40.875 45.40625 35.40625 
Q 44.1875 33.984375 37.640625 27.21875 
Q 31.109375 20.453125 19.1875 8.296875 
z
" id="DejaVuSans-32"/>
      </defs>
      <g transform="translate(165.591383 343.557866)scale(0.1 -0.1)">
       <use xlink:href="#DejaVuSans-33"/>
       <use x="63.623047" xlink:href="#DejaVuSans-32"/>
      </g>
     </g>
    </g>
    <g id="xtick_3">
     <g id="line2d_5">
      <path clip-path="url(#pca0ef1faa2)" d="M 248.35687 328.959429 
L 248.35687 5.235429 
" style="fill:none;stroke:#666666;stroke-linecap:square;stroke-width:0.8;"/>
     </g>
     <g id="line2d_6">
      <g>
       <use style="stroke:#000000;stroke-width:0.8;" x="248.35687" xlink:href="#mffef6debbe" y="328.959429"/>
      </g>
     </g>
     <g id="text_3">
      <!-- 64 -->
      <defs>
       <path d="M 37.796875 64.3125 
L 12.890625 25.390625 
L 37.796875 25.390625 
z
M 35.203125 72.90625 
L 47.609375 72.90625 
L 47.609375 25.390625 
L 58.015625 25.390625 
L 58.015625 17.1875 
L 47.609375 17.1875 
L 47.609375 0 
L 37.796875 0 
L 37.796875 17.1875 
L 4.890625 17.1875 
L 4.890625 26.703125 
z
" id="DejaVuSans-34"/>
      </defs>
      <g transform="translate(241.99437 343.557866)scale(0.1 -0.1)">
       <use xlink:href="#DejaVuSans-36"/>
       <use x="63.623047" xlink:href="#DejaVuSans-34"/>
      </g>
     </g>
    </g>
    <g id="xtick_4">
     <g id="line2d_7">
      <path clip-path="url(#pca0ef1faa2)" d="M 324.759857 328.959429 
L 324.759857 5.235429 
" style="fill:none;stroke:#666666;stroke-linecap:square;stroke-width:0.8;"/>
     </g>
     <g id="line2d_8">
      <g>
       <use style="stroke:#000000;stroke-width:0.8;" x="324.759857" xlink:href="#mffef6debbe" y="328.959429"/>
      </g>
     </g>
     <g id="text_4">
      <!-- 128 -->
      <defs>
       <path d="M 31.78125 34.625 
Q 24.75 34.625 20.71875 30.859375 
Q 16.703125 27.09375 16.703125 20.515625 
Q 16.703125 13.921875 20.71875 10.15625 
Q 24.75 6.390625 31.78125 6.390625 
Q 38.8125 6.390625 42.859375 10.171875 
Q 46.921875 13.96875 46.921875 20.515625 
Q 46.921875 27.09375 42.890625 30.859375 
Q 38.875 34.625 31.78125 34.625 
z
M 21.921875 38.8125 
Q 15.578125 40.375 12.03125 44.71875 
Q 8.5 49.078125 8.5 55.328125 
Q 8.5 64.0625 14.71875 69.140625 
Q 20.953125 74.21875 31.78125 74.21875 
Q 42.671875 74.21875 48.875 69.140625 
Q 55.078125 64.0625 55.078125 55.328125 
Q 55.078125 49.078125 51.53125 44.71875 
Q 48 40.375 41.703125 38.8125 
Q 48.828125 37.15625 52.796875 32.3125 
Q 56.78125 27.484375 56.78125 20.515625 
Q 56.78125 9.90625 50.3125 4.234375 
Q 43.84375 -1.421875 31.78125 -1.421875 
Q 19.734375 -1.421875 13.25 4.234375 
Q 6.78125 9.90625 6.78125 20.515625 
Q 6.78125 27.484375 10.78125 32.3125 
Q 14.796875 37.15625 21.921875 38.8125 
z
M 18.3125 54.390625 
Q 18.3125 48.734375 21.84375 45.5625 
Q 25.390625 42.390625 31.78125 42.390625 
Q 38.140625 42.390625 41.71875 45.5625 
Q 45.3125 48.734375 45.3125 54.390625 
Q 45.3125 60.0625 41.71875 63.234375 
Q 38.140625 66.40625 31.78125 66.40625 
Q 25.390625 66.40625 21.84375 63.234375 
Q 18.3125 60.0625 18.3125 54.390625 
z
" id="DejaVuSans-38"/>
      </defs>
      <g transform="translate(315.216107 343.557866)scale(0.1 -0.1)">
       <use xlink:href="#DejaVuSans-31"/>
       <use x="63.623047" xlink:href="#DejaVuSans-32"/>
       <use x="127.246094" xlink:href="#DejaVuSans-38"/>
      </g>
     </g>
    </g>
    <g id="xtick_5">
     <g id="line2d_9">
      <path clip-path="url(#pca0ef1faa2)" d="M 401.162844 328.959429 
L 401.162844 5.235429 
" style="fill:none;stroke:#666666;stroke-linecap:square;stroke-width:0.8;"/>
     </g>
     <g id="line2d_10">
      <g>
       <use style="stroke:#000000;stroke-width:0.8;" x="401.162844" xlink:href="#mffef6debbe" y="328.959429"/>
      </g>
     </g>
     <g id="text_5">
      <!-- 256 -->
      <defs>
       <path d="M 10.796875 72.90625 
L 49.515625 72.90625 
L 49.515625 64.59375 
L 19.828125 64.59375 
L 19.828125 46.734375 
Q 21.96875 47.46875 24.109375 47.828125 
Q 26.265625 48.1875 28.421875 48.1875 
Q 40.625 48.1875 47.75 41.5 
Q 54.890625 34.8125 54.890625 23.390625 
Q 54.890625 11.625 47.5625 5.09375 
Q 40.234375 -1.421875 26.90625 -1.421875 
Q 22.3125 -1.421875 17.546875 -0.640625 
Q 12.796875 0.140625 7.71875 1.703125 
L 7.71875 11.625 
Q 12.109375 9.234375 16.796875 8.0625 
Q 21.484375 6.890625 26.703125 6.890625 
Q 35.15625 6.890625 40.078125 11.328125 
Q 45.015625 15.765625 45.015625 23.390625 
Q 45.015625 31 40.078125 35.4375 
Q 35.15625 39.890625 26.703125 39.890625 
Q 22.75 39.890625 18.8125 39.015625 
Q 14.890625 38.140625 10.796875 36.28125 
z
" id="DejaVuSans-35"/>
      </defs>
      <g transform="translate(391.619094 343.557866)scale(0.1 -0.1)">
       <use xlink:href="#DejaVuSans-32"/>
       <use x="63.623047" xlink:href="#DejaVuSans-35"/>
       <use x="127.246094" xlink:href="#DejaVuSans-36"/>
      </g>
     </g>
    </g>
    <g id="xtick_6">
     <g id="line2d_11">
      <path clip-path="url(#pca0ef1faa2)" d="M 477.565831 328.959429 
L 477.565831 5.235429 
" style="fill:none;stroke:#666666;stroke-linecap:square;stroke-width:0.8;"/>
     </g>
     <g id="line2d_12">
      <g>
       <use style="stroke:#000000;stroke-width:0.8;" x="477.565831" xlink:href="#mffef6debbe" y="328.959429"/>
      </g>
     </g>
     <g id="text_6">
      <!-- 512 -->
      <g transform="translate(468.022081 343.557866)scale(0.1 -0.1)">
       <use xlink:href="#DejaVuSans-35"/>
       <use x="63.623047" xlink:href="#DejaVuSans-31"/>
       <use x="127.246094" xlink:href="#DejaVuSans-32"/>
      </g>
     </g>
    </g>
    <g id="xtick_7">
     <g id="line2d_13">
      <path clip-path="url(#pca0ef1faa2)" d="M 553.968818 328.959429 
L 553.968818 5.235429 
" style="fill:none;stroke:#666666;stroke-linecap:square;stroke-width:0.8;"/>
     </g>
     <g id="line2d_14">
      <g>
       <use style="stroke:#000000;stroke-width:0.8;" x="553.968818" xlink:href="#mffef6debbe" y="328.959429"/>
      </g>
     </g>
     <g id="text_7">
      <!-- 1024 -->
      <defs>
       <path d="M 31.78125 66.40625 
Q 24.171875 66.40625 20.328125 58.90625 
Q 16.5 51.421875 16.5 36.375 
Q 16.5 21.390625 20.328125 13.890625 
Q 24.171875 6.390625 31.78125 6.390625 
Q 39.453125 6.390625 43.28125 13.890625 
Q 47.125 21.390625 47.125 36.375 
Q 47.125 51.421875 43.28125 58.90625 
Q 39.453125 66.40625 31.78125 66.40625 
z
M 31.78125 74.21875 
Q 44.046875 74.21875 50.515625 64.515625 
Q 56.984375 54.828125 56.984375 36.375 
Q 56.984375 17.96875 50.515625 8.265625 
Q 44.046875 -1.421875 31.78125 -1.421875 
Q 19.53125 -1.421875 13.0625 8.265625 
Q 6.59375 17.96875 6.59375 36.375 
Q 6.59375 54.828125 13.0625 64.515625 
Q 19.53125 74.21875 31.78125 74.21875 
z
" id="DejaVuSans-30"/>
      </defs>
      <g transform="translate(541.243818 343.557866)scale(0.1 -0.1)">
       <use xlink:href="#DejaVuSans-31"/>
       <use x="63.623047" xlink:href="#DejaVuSans-30"/>
       <use x="127.246094" xlink:href="#DejaVuSans-32"/>
       <use x="190.869141" xlink:href="#DejaVuSans-34"/>
      </g>
     </g>
    </g>
    <g id="xtick_8">
     <g id="line2d_15">
      <path clip-path="url(#pca0ef1faa2)" d="M 80.270299 328.959429 
L 80.270299 5.235429 
" style="fill:none;opacity:0.2;stroke:#999999;stroke-linecap:square;stroke-width:0.8;"/>
     </g>
     <g id="line2d_16">
      <defs>
       <path d="M 0 0 
L 0 2 
" id="mb5aa82b1d3" style="stroke:#000000;stroke-width:0.6;"/>
      </defs>
      <g>
       <use style="stroke:#000000;stroke-width:0.6;" x="80.270299" xlink:href="#mb5aa82b1d3" y="328.959429"/>
      </g>
     </g>
    </g>
    <g id="xtick_9">
     <g id="line2d_17">
      <path clip-path="url(#pca0ef1faa2)" d="M 110.831494 328.959429 
L 110.831494 5.235429 
" style="fill:none;opacity:0.2;stroke:#999999;stroke-linecap:square;stroke-width:0.8;"/>
     </g>
     <g id="line2d_18">
      <g>
       <use style="stroke:#000000;stroke-width:0.6;" x="110.831494" xlink:href="#mb5aa82b1d3" y="328.959429"/>
      </g>
     </g>
    </g>
    <g id="xtick_10">
     <g id="line2d_19">
      <path clip-path="url(#pca0ef1faa2)" d="M 126.112091 328.959429 
L 126.112091 5.235429 
" style="fill:none;opacity:0.2;stroke:#999999;stroke-linecap:square;stroke-width:0.8;"/>
     </g>
     <g id="line2d_20">
      <g>
       <use style="stroke:#000000;stroke-width:0.6;" x="126.112091" xlink:href="#mb5aa82b1d3" y="328.959429"/>
      </g>
     </g>
    </g>
    <g id="xtick_11">
     <g id="line2d_21">
      <path clip-path="url(#pca0ef1faa2)" d="M 141.392688 328.959429 
L 141.392688 5.235429 
" style="fill:none;opacity:0.2;stroke:#999999;stroke-linecap:square;stroke-width:0.8;"/>
     </g>
     <g id="line2d_22">
      <g>
       <use style="stroke:#000000;stroke-width:0.6;" x="141.392688" xlink:href="#mb5aa82b1d3" y="328.959429"/>
      </g>
     </g>
    </g>
    <g id="xtick_12">
     <g id="line2d_23">
      <path clip-path="url(#pca0ef1faa2)" d="M 156.673286 328.959429 
L 156.673286 5.235429 
" style="fill:none;opacity:0.2;stroke:#999999;stroke-linecap:square;stroke-width:0.8;"/>
     </g>
     <g id="line2d_24">
      <g>
       <use style="stroke:#000000;stroke-width:0.6;" x="156.673286" xlink:href="#mb5aa82b1d3" y="328.959429"/>
      </g>
     </g>
    </g>
    <g id="xtick_13">
     <g id="line2d_25">
      <path clip-path="url(#pca0ef1faa2)" d="M 187.234481 328.959429 
L 187.234481 5.235429 
" style="fill:none;opacity:0.2;stroke:#999999;stroke-linecap:square;stroke-width:0.8;"/>
     </g>
     <g id="line2d_26">
      <g>
       <use style="stroke:#000000;stroke-width:0.6;" x="187.234481" xlink:href="#mb5aa82b1d3" y="328.959429"/>
      </g>
     </g>
    </g>
    <g id="xtick_14">
     <g id="line2d_27">
      <path clip-path="url(#pca0ef1faa2)" d="M 202.515078 328.959429 
L 202.515078 5.235429 
" style="fill:none;opacity:0.2;stroke:#999999;stroke-linecap:square;stroke-width:0.8;"/>
     </g>
     <g id="line2d_28">
      <g>
       <use style="stroke:#000000;stroke-width:0.6;" x="202.515078" xlink:href="#mb5aa82b1d3" y="328.959429"/>
      </g>
     </g>
    </g>
    <g id="xtick_15">
     <g id="line2d_29">
      <path clip-path="url(#pca0ef1faa2)" d="M 217.795675 328.959429 
L 217.795675 5.235429 
" style="fill:none;opacity:0.2;stroke:#999999;stroke-linecap:square;stroke-width:0.8;"/>
     </g>
     <g id="line2d_30">
      <g>
       <use style="stroke:#000000;stroke-width:0.6;" x="217.795675" xlink:href="#mb5aa82b1d3" y="328.959429"/>
      </g>
     </g>
    </g>
    <g id="xtick_16">
     <g id="line2d_31">
      <path clip-path="url(#pca0ef1faa2)" d="M 233.076273 328.959429 
L 233.076273 5.235429 
" style="fill:none;opacity:0.2;stroke:#999999;stroke-linecap:square;stroke-width:0.8;"/>
     </g>
     <g id="line2d_32">
      <g>
       <use style="stroke:#000000;stroke-width:0.6;" x="233.076273" xlink:href="#mb5aa82b1d3" y="328.959429"/>
      </g>
     </g>
    </g>
    <g id="xtick_17">
     <g id="line2d_33">
      <path clip-path="url(#pca0ef1faa2)" d="M 263.637468 328.959429 
L 263.637468 5.235429 
" style="fill:none;opacity:0.2;stroke:#999999;stroke-linecap:square;stroke-width:0.8;"/>
     </g>
     <g id="line2d_34">
      <g>
       <use style="stroke:#000000;stroke-width:0.6;" x="263.637468" xlink:href="#mb5aa82b1d3" y="328.959429"/>
      </g>
     </g>
    </g>
    <g id="xtick_18">
     <g id="line2d_35">
      <path clip-path="url(#pca0ef1faa2)" d="M 278.918065 328.959429 
L 278.918065 5.235429 
" style="fill:none;opacity:0.2;stroke:#999999;stroke-linecap:square;stroke-width:0.8;"/>
     </g>
     <g id="line2d_36">
      <g>
       <use style="stroke:#000000;stroke-width:0.6;" x="278.918065" xlink:href="#mb5aa82b1d3" y="328.959429"/>
      </g>
     </g>
    </g>
    <g id="xtick_19">
     <g id="line2d_37">
      <path clip-path="url(#pca0ef1faa2)" d="M 294.198662 328.959429 
L 294.198662 5.235429 
" style="fill:none;opacity:0.2;stroke:#999999;stroke-linecap:square;stroke-width:0.8;"/>
     </g>
     <g id="line2d_38">
      <g>
       <use style="stroke:#000000;stroke-width:0.6;" x="294.198662" xlink:href="#mb5aa82b1d3" y="328.959429"/>
      </g>
     </g>
    </g>
    <g id="xtick_20">
     <g id="line2d_39">
      <path clip-path="url(#pca0ef1faa2)" d="M 309.47926 328.959429 
L 309.47926 5.235429 
" style="fill:none;opacity:0.2;stroke:#999999;stroke-linecap:square;stroke-width:0.8;"/>
     </g>
     <g id="line2d_40">
      <g>
       <use style="stroke:#000000;stroke-width:0.6;" x="309.47926" xlink:href="#mb5aa82b1d3" y="328.959429"/>
      </g>
     </g>
    </g>
    <g id="xtick_21">
     <g id="line2d_41">
      <path clip-path="url(#pca0ef1faa2)" d="M 340.040455 328.959429 
L 340.040455 5.235429 
" style="fill:none;opacity:0.2;stroke:#999999;stroke-linecap:square;stroke-width:0.8;"/>
     </g>
     <g id="line2d_42">
      <g>
       <use style="stroke:#000000;stroke-width:0.6;" x="340.040455" xlink:href="#mb5aa82b1d3" y="328.959429"/>
      </g>
     </g>
    </g>
    <g id="xtick_22">
     <g id="line2d_43">
      <path clip-path="url(#pca0ef1faa2)" d="M 355.321052 328.959429 
L 355.321052 5.235429 
" style="fill:none;opacity:0.2;stroke:#999999;stroke-linecap:square;stroke-width:0.8;"/>
     </g>
     <g id="line2d_44">
      <g>
       <use style="stroke:#000000;stroke-width:0.6;" x="355.321052" xlink:href="#mb5aa82b1d3" y="328.959429"/>
      </g>
     </g>
    </g>
    <g id="xtick_23">
     <g id="line2d_45">
      <path clip-path="url(#pca0ef1faa2)" d="M 370.601649 328.959429 
L 370.601649 5.235429 
" style="fill:none;opacity:0.2;stroke:#999999;stroke-linecap:square;stroke-width:0.8;"/>
     </g>
     <g id="line2d_46">
      <g>
       <use style="stroke:#000000;stroke-width:0.6;" x="370.601649" xlink:href="#mb5aa82b1d3" y="328.959429"/>
      </g>
     </g>
    </g>
    <g id="xtick_24">
     <g id="line2d_47">
      <path clip-path="url(#pca0ef1faa2)" d="M 385.882247 328.959429 
L 385.882247 5.235429 
" style="fill:none;opacity:0.2;stroke:#999999;stroke-linecap:square;stroke-width:0.8;"/>
     </g>
     <g id="line2d_48">
      <g>
       <use style="stroke:#000000;stroke-width:0.6;" x="385.882247" xlink:href="#mb5aa82b1d3" y="328.959429"/>
      </g>
     </g>
    </g>
    <g id="xtick_25">
     <g id="line2d_49">
      <path clip-path="url(#pca0ef1faa2)" d="M 416.443442 328.959429 
L 416.443442 5.235429 
" style="fill:none;opacity:0.2;stroke:#999999;stroke-linecap:square;stroke-width:0.8;"/>
     </g>
     <g id="line2d_50">
      <g>
       <use style="stroke:#000000;stroke-width:0.6;" x="416.443442" xlink:href="#mb5aa82b1d3" y="328.959429"/>
      </g>
     </g>
    </g>
    <g id="xtick_26">
     <g id="line2d_51">
      <path clip-path="url(#pca0ef1faa2)" d="M 431.724039 328.959429 
L 431.724039 5.235429 
" style="fill:none;opacity:0.2;stroke:#999999;stroke-linecap:square;stroke-width:0.8;"/>
     </g>
     <g id="line2d_52">
      <g>
       <use style="stroke:#000000;stroke-width:0.6;" x="431.724039" xlink:href="#mb5aa82b1d3" y="328.959429"/>
      </g>
     </g>
    </g>
    <g id="xtick_27">
     <g id="line2d_53">
      <path clip-path="url(#pca0ef1faa2)" d="M 447.004636 328.959429 
L 447.004636 5.235429 
" style="fill:none;opacity:0.2;stroke:#999999;stroke-linecap:square;stroke-width:0.8;"/>
     </g>
     <g id="line2d_54">
      <g>
       <use style="stroke:#000000;stroke-width:0.6;" x="447.004636" xlink:href="#mb5aa82b1d3" y="328.959429"/>
      </g>
     </g>
    </g>
    <g id="xtick_28">
     <g id="line2d_55">
      <path clip-path="url(#pca0ef1faa2)" d="M 462.285234 328.959429 
L 462.285234 5.235429 
" style="fill:none;opacity:0.2;stroke:#999999;stroke-linecap:square;stroke-width:0.8;"/>
     </g>
     <g id="line2d_56">
      <g>
       <use style="stroke:#000000;stroke-width:0.6;" x="462.285234" xlink:href="#mb5aa82b1d3" y="328.959429"/>
      </g>
     </g>
    </g>
    <g id="xtick_29">
     <g id="line2d_57">
      <path clip-path="url(#pca0ef1faa2)" d="M 492.846429 328.959429 
L 492.846429 5.235429 
" style="fill:none;opacity:0.2;stroke:#999999;stroke-linecap:square;stroke-width:0.8;"/>
     </g>
     <g id="line2d_58">
      <g>
       <use style="stroke:#000000;stroke-width:0.6;" x="492.846429" xlink:href="#mb5aa82b1d3" y="328.959429"/>
      </g>
     </g>
    </g>
    <g id="xtick_30">
     <g id="line2d_59">
      <path clip-path="url(#pca0ef1faa2)" d="M 508.127026 328.959429 
L 508.127026 5.235429 
" style="fill:none;opacity:0.2;stroke:#999999;stroke-linecap:square;stroke-width:0.8;"/>
     </g>
     <g id="line2d_60">
      <g>
       <use style="stroke:#000000;stroke-width:0.6;" x="508.127026" xlink:href="#mb5aa82b1d3" y="328.959429"/>
      </g>
     </g>
    </g>
    <g id="xtick_31">
     <g id="line2d_61">
      <path clip-path="url(#pca0ef1faa2)" d="M 523.407623 328.959429 
L 523.407623 5.235429 
" style="fill:none;opacity:0.2;stroke:#999999;stroke-linecap:square;stroke-width:0.8;"/>
     </g>
     <g id="line2d_62">
      <g>
       <use style="stroke:#000000;stroke-width:0.6;" x="523.407623" xlink:href="#mb5aa82b1d3" y="328.959429"/>
      </g>
     </g>
    </g>
    <g id="xtick_32">
     <g id="line2d_63">
      <path clip-path="url(#pca0ef1faa2)" d="M 538.688221 328.959429 
L 538.688221 5.235429 
" style="fill:none;opacity:0.2;stroke:#999999;stroke-linecap:square;stroke-width:0.8;"/>
     </g>
     <g id="line2d_64">
      <g>
       <use style="stroke:#000000;stroke-width:0.6;" x="538.688221" xlink:href="#mb5aa82b1d3" y="328.959429"/>
      </g>
     </g>
    </g>
    <g id="xtick_33">
     <g id="line2d_65">
      <path clip-path="url(#pca0ef1faa2)" d="M 569.249416 328.959429 
L 569.249416 5.235429 
" style="fill:none;opacity:0.2;stroke:#999999;stroke-linecap:square;stroke-width:0.8;"/>
     </g>
     <g id="line2d_66">
      <g>
       <use style="stroke:#000000;stroke-width:0.6;" x="569.249416" xlink:href="#mb5aa82b1d3" y="328.959429"/>
      </g>
     </g>
    </g>
    <g id="text_8">
     <!-- Number of Source Packets -->
     <defs>
      <path d="M 9.8125 72.90625 
L 23.09375 72.90625 
L 55.421875 11.921875 
L 55.421875 72.90625 
L 64.984375 72.90625 
L 64.984375 0 
L 51.703125 0 
L 19.390625 60.984375 
L 19.390625 0 
L 9.8125 0 
z
" id="DejaVuSans-4e"/>
      <path d="M 8.5 21.578125 
L 8.5 54.6875 
L 17.484375 54.6875 
L 17.484375 21.921875 
Q 17.484375 14.15625 20.5 10.265625 
Q 23.53125 6.390625 29.59375 6.390625 
Q 36.859375 6.390625 41.078125 11.03125 
Q 45.3125 15.671875 45.3125 23.6875 
L 45.3125 54.6875 
L 54.296875 54.6875 
L 54.296875 0 
L 45.3125 0 
L 45.3125 8.40625 
Q 42.046875 3.421875 37.71875 1 
Q 33.40625 -1.421875 27.6875 -1.421875 
Q 18.265625 -1.421875 13.375 4.4375 
Q 8.5 10.296875 8.5 21.578125 
z
M 31.109375 56 
z
" id="DejaVuSans-75"/>
      <path d="M 52 44.1875 
Q 55.375 50.25 60.0625 53.125 
Q 64.75 56 71.09375 56 
Q 79.640625 56 84.28125 50.015625 
Q 88.921875 44.046875 88.921875 33.015625 
L 88.921875 0 
L 79.890625 0 
L 79.890625 32.71875 
Q 79.890625 40.578125 77.09375 44.375 
Q 74.3125 48.1875 68.609375 48.1875 
Q 61.625 48.1875 57.5625 43.546875 
Q 53.515625 38.921875 53.515625 30.90625 
L 53.515625 0 
L 44.484375 0 
L 44.484375 32.71875 
Q 44.484375 40.625 41.703125 44.40625 
Q 38.921875 48.1875 33.109375 48.1875 
Q 26.21875 48.1875 22.15625 43.53125 
Q 18.109375 38.875 18.109375 30.90625 
L 18.109375 0 
L 9.078125 0 
L 9.078125 54.6875 
L 18.109375 54.6875 
L 18.109375 46.1875 
Q 21.1875 51.21875 25.484375 53.609375 
Q 29.78125 56 35.6875 56 
Q 41.65625 56 45.828125 52.96875 
Q 50 49.953125 52 44.1875 
z
" id="DejaVuSans-6d"/>
      <path d="M 48.6875 27.296875 
Q 48.6875 37.203125 44.609375 42.84375 
Q 40.53125 48.484375 33.40625 48.484375 
Q 26.265625 48.484375 22.1875 42.84375 
Q 18.109375 37.203125 18.109375 27.296875 
Q 18.109375 17.390625 22.1875 11.75 
Q 26.265625 6.109375 33.40625 6.109375 
Q 40.53125 6.109375 44.609375 11.75 
Q 48.6875 17.390625 48.6875 27.296875 
z
M 18.109375 46.390625 
Q 20.953125 51.265625 25.265625 53.625 
Q 29.59375 56 35.59375 56 
Q 45.5625 56 51.78125 48.09375 
Q 58.015625 40.1875 58.015625 27.296875 
Q 58.015625 14.40625 51.78125 6.484375 
Q 45.5625 -1.421875 35.59375 -1.421875 
Q 29.59375 -1.421875 25.265625 0.953125 
Q 20.953125 3.328125 18.109375 8.203125 
L 18.109375 0 
L 9.078125 0 
L 9.078125 75.984375 
L 18.109375 75.984375 
z
" id="DejaVuSans-62"/>
      <path d="M 56.203125 29.59375 
L 56.203125 25.203125 
L 14.890625 25.203125 
Q 15.484375 15.921875 20.484375 11.0625 
Q 25.484375 6.203125 34.421875 6.203125 
Q 39.59375 6.203125 44.453125 7.46875 
Q 49.3125 8.734375 54.109375 11.28125 
L 54.109375 2.78125 
Q 49.265625 0.734375 44.1875 -0.34375 
Q 39.109375 -1.421875 33.890625 -1.421875 
Q 20.796875 -1.421875 13.15625 6.1875 
Q 5.515625 13.8125 5.515625 26.8125 
Q 5.515625 40.234375 12.765625 48.109375 
Q 20.015625 56 32.328125 56 
Q 43.359375 56 49.78125 48.890625 
Q 56.203125 41.796875 56.203125 29.59375 
z
M 47.21875 32.234375 
Q 47.125 39.59375 43.09375 43.984375 
Q 39.0625 48.390625 32.421875 48.390625 
Q 24.90625 48.390625 20.390625 44.140625 
Q 15.875 39.890625 15.1875 32.171875 
z
" id="DejaVuSans-65"/>
      <path d="M 41.109375 46.296875 
Q 39.59375 47.171875 37.8125 47.578125 
Q 36.03125 48 33.890625 48 
Q 26.265625 48 22.1875 43.046875 
Q 18.109375 38.09375 18.109375 28.8125 
L 18.109375 0 
L 9.078125 0 
L 9.078125 54.6875 
L 18.109375 54.6875 
L 18.109375 46.1875 
Q 20.953125 51.171875 25.484375 53.578125 
Q 30.03125 56 36.53125 56 
Q 37.453125 56 38.578125 55.875 
Q 39.703125 55.765625 41.0625 55.515625 
z
" id="DejaVuSans-72"/>
      <path id="DejaVuSans-20"/>
      <path d="M 30.609375 48.390625 
Q 23.390625 48.390625 19.1875 42.75 
Q 14.984375 37.109375 14.984375 27.296875 
Q 14.984375 17.484375 19.15625 11.84375 
Q 23.34375 6.203125 30.609375 6.203125 
Q 37.796875 6.203125 41.984375 11.859375 
Q 46.1875 17.53125 46.1875 27.296875 
Q 46.1875 37.015625 41.984375 42.703125 
Q 37.796875 48.390625 30.609375 48.390625 
z
M 30.609375 56 
Q 42.328125 56 49.015625 48.375 
Q 55.71875 40.765625 55.71875 27.296875 
Q 55.71875 13.875 49.015625 6.21875 
Q 42.328125 -1.421875 30.609375 -1.421875 
Q 18.84375 -1.421875 12.171875 6.21875 
Q 5.515625 13.875 5.515625 27.296875 
Q 5.515625 40.765625 12.171875 48.375 
Q 18.84375 56 30.609375 56 
z
" id="DejaVuSans-6f"/>
      <path d="M 37.109375 75.984375 
L 37.109375 68.5 
L 28.515625 68.5 
Q 23.6875 68.5 21.796875 66.546875 
Q 19.921875 64.59375 19.921875 59.515625 
L 19.921875 54.6875 
L 34.71875 54.6875 
L 34.71875 47.703125 
L 19.921875 47.703125 
L 19.921875 0 
L 10.890625 0 
L 10.890625 47.703125 
L 2.296875 47.703125 
L 2.296875 54.6875 
L 10.890625 54.6875 
L 10.890625 58.5 
Q 10.890625 67.625 15.140625 71.796875 
Q 19.390625 75.984375 28.609375 75.984375 
z
" id="DejaVuSans-66"/>
      <path d="M 53.515625 70.515625 
L 53.515625 60.890625 
Q 47.90625 63.578125 42.921875 64.890625 
Q 37.9375 66.21875 33.296875 66.21875 
Q 25.25 66.21875 20.875 63.09375 
Q 16.5 59.96875 16.5 54.203125 
Q 16.5 49.359375 19.40625 46.890625 
Q 22.3125 44.4375 30.421875 42.921875 
L 36.375 41.703125 
Q 47.40625 39.59375 52.65625 34.296875 
Q 57.90625 29 57.90625 20.125 
Q 57.90625 9.515625 50.796875 4.046875 
Q 43.703125 -1.421875 29.984375 -1.421875 
Q 24.8125 -1.421875 18.96875 -0.25 
Q 13.140625 0.921875 6.890625 3.21875 
L 6.890625 13.375 
Q 12.890625 10.015625 18.65625 8.296875 
Q 24.421875 6.59375 29.984375 6.59375 
Q 38.421875 6.59375 43.015625 9.90625 
Q 47.609375 13.234375 47.609375 19.390625 
Q 47.609375 24.75 44.3125 27.78125 
Q 41.015625 30.8125 33.5 32.328125 
L 27.484375 33.5 
Q 16.453125 35.6875 11.515625 40.375 
Q 6.59375 45.0625 6.59375 53.421875 
Q 6.59375 63.09375 13.40625 68.65625 
Q 20.21875 74.21875 32.171875 74.21875 
Q 37.3125 74.21875 42.625 73.28125 
Q 47.953125 72.359375 53.515625 70.515625 
z
" id="DejaVuSans-53"/>
      <path d="M 48.78125 52.59375 
L 48.78125 44.1875 
Q 44.96875 46.296875 41.140625 47.34375 
Q 37.3125 48.390625 33.40625 48.390625 
Q 24.65625 48.390625 19.8125 42.84375 
Q 14.984375 37.3125 14.984375 27.296875 
Q 14.984375 17.28125 19.8125 11.734375 
Q 24.65625 6.203125 33.40625 6.203125 
Q 37.3125 6.203125 41.140625 7.25 
Q 44.96875 8.296875 48.78125 10.40625 
L 48.78125 2.09375 
Q 45.015625 0.34375 40.984375 -0.53125 
Q 36.96875 -1.421875 32.421875 -1.421875 
Q 20.0625 -1.421875 12.78125 6.34375 
Q 5.515625 14.109375 5.515625 27.296875 
Q 5.515625 40.671875 12.859375 48.328125 
Q 20.21875 56 33.015625 56 
Q 37.15625 56 41.109375 55.140625 
Q 45.0625 54.296875 48.78125 52.59375 
z
" id="DejaVuSans-63"/>
      <path d="M 19.671875 64.796875 
L 19.671875 37.40625 
L 32.078125 37.40625 
Q 38.96875 37.40625 42.71875 40.96875 
Q 46.484375 44.53125 46.484375 51.125 
Q 46.484375 57.671875 42.71875 61.234375 
Q 38.96875 64.796875 32.078125 64.796875 
z
M 9.8125 72.90625 
L 32.078125 72.90625 
Q 44.34375 72.90625 50.609375 67.359375 
Q 56.890625 61.8125 56.890625 51.125 
Q 56.890625 40.328125 50.609375 34.8125 
Q 44.34375 29.296875 32.078125 29.296875 
L 19.671875 29.296875 
L 19.671875 0 
L 9.8125 0 
z
" id="DejaVuSans-50"/>
      <path d="M 34.28125 27.484375 
Q 23.390625 27.484375 19.1875 25 
Q 14.984375 22.515625 14.984375 16.5 
Q 14.984375 11.71875 18.140625 8.90625 
Q 21.296875 6.109375 26.703125 6.109375 
Q 34.1875 6.109375 38.703125 11.40625 
Q 43.21875 16.703125 43.21875 25.484375 
L 43.21875 27.484375 
z
M 52.203125 31.203125 
L 52.203125 0 
L 43.21875 0 
L 43.21875 8.296875 
Q 40.140625 3.328125 35.546875 0.953125 
Q 30.953125 -1.421875 24.3125 -1.421875 
Q 15.921875 -1.421875 10.953125 3.296875 
Q 6 8.015625 6 15.921875 
Q 6 25.140625 12.171875 29.828125 
Q 18.359375 34.515625 30.609375 34.515625 
L 43.21875 34.515625 
L 43.21875 35.40625 
Q 43.21875 41.609375 39.140625 45 
Q 35.0625 48.390625 27.6875 48.390625 
Q 23 48.390625 18.546875 47.265625 
Q 14.109375 46.140625 10.015625 43.890625 
L 10.015625 52.203125 
Q 14.9375 54.109375 19.578125 55.046875 
Q 24.21875 56 28.609375 56 
Q 40.484375 56 46.34375 49.84375 
Q 52.203125 43.703125 52.203125 31.203125 
z
" id="DejaVuSans-61"/>
      <path d="M 9.078125 75.984375 
L 18.109375 75.984375 
L 18.109375 31.109375 
L 44.921875 54.6875 
L 56.390625 54.6875 
L 27.390625 29.109375 
L 57.625 0 
L 45.90625 0 
L 18.109375 26.703125 
L 18.109375 0 
L 9.078125 0 
z
" id="DejaVuSans-6b"/>
      <path d="M 18.3125 70.21875 
L 18.3125 54.6875 
L 36.8125 54.6875 
L 36.8125 47.703125 
L 18.3125 47.703125 
L 18.3125 18.015625 
Q 18.3125 11.328125 20.140625 9.421875 
Q 21.96875 7.515625 27.59375 7.515625 
L 36.8125 7.515625 
L 36.8125 0 
L 27.59375 0 
Q 17.1875 0 13.234375 3.875 
Q 9.28125 7.765625 9.28125 18.015625 
L 9.28125 47.703125 
L 2.6875 47.703125 
L 2.6875 54.6875 
L 9.28125 54.6875 
L 9.28125 70.21875 
z
" id="DejaVuSans-74"/>
      <path d="M 44.28125 53.078125 
L 44.28125 44.578125 
Q 40.484375 46.53125 36.375 47.5 
Q 32.28125 48.484375 27.875 48.484375 
Q 21.1875 48.484375 17.84375 46.4375 
Q 14.5 44.390625 14.5 40.28125 
Q 14.5 37.15625 16.890625 35.375 
Q 19.28125 33.59375 26.515625 31.984375 
L 29.59375 31.296875 
Q 39.15625 29.25 43.1875 25.515625 
Q 47.21875 21.78125 47.21875 15.09375 
Q 47.21875 7.46875 41.1875 3.015625 
Q 35.15625 -1.421875 24.609375 -1.421875 
Q 20.21875 -1.421875 15.453125 -0.5625 
Q 10.6875 0.296875 5.421875 2 
L 5.421875 11.28125 
Q 10.40625 8.6875 15.234375 7.390625 
Q 20.0625 6.109375 24.8125 6.109375 
Q 31.15625 6.109375 34.5625 8.28125 
Q 37.984375 10.453125 37.984375 14.40625 
Q 37.984375 18.0625 35.515625 20.015625 
Q 33.0625 21.96875 24.703125 23.78125 
L 21.578125 24.515625 
Q 13.234375 26.265625 9.515625 29.90625 
Q 5.8125 33.546875 5.8125 39.890625 
Q 5.8125 47.609375 11.28125 51.796875 
Q 16.75 56 26.8125 56 
Q 31.78125 56 36.171875 55.265625 
Q 40.578125 54.546875 44.28125 53.078125 
z
" id="DejaVuSans-73"/>
     </defs>
     <g transform="translate(258.445795 357.235991)scale(0.1 -0.1)">
      <use xlink:href="#DejaVuSans-4e"/>
      <use x="74.804688" xlink:href="#DejaVuSans-75"/>
      <use x="138.183594" xlink:href="#DejaVuSans-6d"/>
      <use x="235.595703" xlink:href="#DejaVuSans-62"/>
      <use x="299.072266" xlink:href="#DejaVuSans-65"/>
      <use x="360.595703" xlink:href="#DejaVuSans-72"/>
      <use x="401.708984" xlink:href="#DejaVuSans-20"/>
      <use x="433.496094" xlink:href="#DejaVuSans-6f"/>
      <use x="494.677734" xlink:href="#DejaVuSans-66"/>
      <use x="529.882812" xlink:href="#DejaVuSans-20"/>
      <use x="561.669922" xlink:href="#DejaVuSans-53"/>
      <use x="625.146484" xlink:href="#DejaVuSans-6f"/>
      <use x="686.328125" xlink:href="#DejaVuSans-75"/>
      <use x="749.707031" xlink:href="#DejaVuSans-72"/>
      <use x="790.789062" xlink:href="#DejaVuSans-63"/>
      <use x="845.769531" xlink:href="#DejaVuSans-65"/>
      <use x="907.292969" xlink:href="#DejaVuSans-20"/>
      <use x="939.080078" xlink:href="#DejaVuSans-50"/>
      <use x="999.320312" xlink:href="#DejaVuSans-61"/>
      <use x="1060.599609" xlink:href="#DejaVuSans-63"/>
      <use x="1115.580078" xlink:href="#DejaVuSans-6b"/>
      <use x="1173.443359" xlink:href="#DejaVuSans-65"/>
      <use x="1234.966797" xlink:href="#DejaVuSans-74"/>
      <use x="1274.175781" xlink:href="#DejaVuSans-73"/>
     </g>
    </g>
   </g>
   <g id="matplotlib.axis_2">
    <g id="ytick_1">
     <g id="line2d_67">
      <path clip-path="url(#pca0ef1faa2)" d="M 72.63 226.876662 
L 576.889714 226.876662 
" style="fill:none;stroke:#666666;stroke-linecap:square;stroke-width:0.8;"/>
     </g>
     <g id="line2d_68">
      <defs>
       <path d="M 0 0 
L -3.5 0 
" id="m22166eb0bb" style="stroke:#000000;stroke-width:0.8;"/>
      </defs>
      <g>
       <use style="stroke:#000000;stroke-width:0.8;" x="72.63" xlink:href="#m22166eb0bb" y="226.876662"/>
      </g>
     </g>
     <g id="text_9">
      <!-- $\mathdefault{10^{2}}$ -->
      <g transform="translate(48.03 230.675881)scale(0.1 -0.1)">
       <use transform="translate(0 0.765625)" xlink:href="#DejaVuSans-31"/>
       <use transform="translate(63.623047 0.765625)" xlink:href="#DejaVuSans-30"/>
       <use transform="translate(128.203125 39.046875)scale(0.7)" xlink:href="#DejaVuSans-32"/>
      </g>
     </g>
    </g>
    <g id="ytick_2">
     <g id="line2d_69">
      <path clip-path="url(#pca0ef1faa2)" d="M 72.63 117.098464 
L 576.889714 117.098464 
" style="fill:none;stroke:#666666;stroke-linecap:square;stroke-width:0.8;"/>
     </g>
     <g id="line2d_70">
      <g>
       <use style="stroke:#000000;stroke-width:0.8;" x="72.63" xlink:href="#m22166eb0bb" y="117.098464"/>
      </g>
     </g>
     <g id="text_10">
      <!-- $\mathdefault{10^{3}}$ -->
      <g transform="translate(48.03 120.897683)scale(0.1 -0.1)">
       <use transform="translate(0 0.765625)" xlink:href="#DejaVuSans-31"/>
       <use transform="translate(63.623047 0.765625)" xlink:href="#DejaVuSans-30"/>
       <use transform="translate(128.203125 39.046875)scale(0.7)" xlink:href="#DejaVuSans-33"/>
      </g>
     </g>
    </g>
    <g id="ytick_3">
     <g id="line2d_71">
      <path clip-path="url(#pca0ef1faa2)" d="M 72.63 7.320266 
L 576.889714 7.320266 
" style="fill:none;stroke:#666666;stroke-linecap:square;stroke-width:0.8;"/>
     </g>
     <g id="line2d_72">
      <g>
       <use style="stroke:#000000;stroke-width:0.8;" x="72.63" xlink:href="#m22166eb0bb" y="7.320266"/>
      </g>
     </g>
     <g id="text_11">
      <!-- $\mathdefault{10^{4}}$ -->
      <g transform="translate(48.03 11.119485)scale(0.1 -0.1)">
       <use transform="translate(0 0.684375)" xlink:href="#DejaVuSans-31"/>
       <use transform="translate(63.623047 0.684375)" xlink:href="#DejaVuSans-30"/>
       <use transform="translate(128.203125 38.965625)scale(0.7)" xlink:href="#DejaVuSans-34"/>
      </g>
     </g>
    </g>
    <g id="ytick_4">
     <g id="line2d_73">
      <path clip-path="url(#pca0ef1faa2)" d="M 72.63 303.608329 
L 576.889714 303.608329 
" style="fill:none;opacity:0.2;stroke:#999999;stroke-linecap:square;stroke-width:0.8;"/>
     </g>
     <g id="line2d_74">
      <defs>
       <path d="M 0 0 
L -2 0 
" id="m29911a7bff" style="stroke:#000000;stroke-width:0.6;"/>
      </defs>
      <g>
       <use style="stroke:#000000;stroke-width:0.6;" x="72.63" xlink:href="#m29911a7bff" y="303.608329"/>
      </g>
     </g>
    </g>
    <g id="ytick_5">
     <g id="line2d_75">
      <path clip-path="url(#pca0ef1faa2)" d="M 72.63 284.277348 
L 576.889714 284.277348 
" style="fill:none;opacity:0.2;stroke:#999999;stroke-linecap:square;stroke-width:0.8;"/>
     </g>
     <g id="line2d_76">
      <g>
       <use style="stroke:#000000;stroke-width:0.6;" x="72.63" xlink:href="#m29911a7bff" y="284.277348"/>
      </g>
     </g>
    </g>
    <g id="ytick_6">
     <g id="line2d_77">
      <path clip-path="url(#pca0ef1faa2)" d="M 72.63 270.561799 
L 576.889714 270.561799 
" style="fill:none;opacity:0.2;stroke:#999999;stroke-linecap:square;stroke-width:0.8;"/>
     </g>
     <g id="line2d_78">
      <g>
       <use style="stroke:#000000;stroke-width:0.6;" x="72.63" xlink:href="#m29911a7bff" y="270.561799"/>
      </g>
     </g>
    </g>
    <g id="ytick_7">
     <g id="line2d_79">
      <path clip-path="url(#pca0ef1faa2)" d="M 72.63 259.923192 
L 576.889714 259.923192 
" style="fill:none;opacity:0.2;stroke:#999999;stroke-linecap:square;stroke-width:0.8;"/>
     </g>
     <g id="line2d_80">
      <g>
       <use style="stroke:#000000;stroke-width:0.6;" x="72.63" xlink:href="#m29911a7bff" y="259.923192"/>
      </g>
     </g>
    </g>
    <g id="ytick_8">
     <g id="line2d_81">
      <path clip-path="url(#pca0ef1faa2)" d="M 72.63 251.230818 
L 576.889714 251.230818 
" style="fill:none;opacity:0.2;stroke:#999999;stroke-linecap:square;stroke-width:0.8;"/>
     </g>
     <g id="line2d_82">
      <g>
       <use style="stroke:#000000;stroke-width:0.6;" x="72.63" xlink:href="#m29911a7bff" y="251.230818"/>
      </g>
     </g>
    </g>
    <g id="ytick_9">
     <g id="line2d_83">
      <path clip-path="url(#pca0ef1faa2)" d="M 72.63 243.88152 
L 576.889714 243.88152 
" style="fill:none;opacity:0.2;stroke:#999999;stroke-linecap:square;stroke-width:0.8;"/>
     </g>
     <g id="line2d_84">
      <g>
       <use style="stroke:#000000;stroke-width:0.6;" x="72.63" xlink:href="#m29911a7bff" y="243.88152"/>
      </g>
     </g>
    </g>
    <g id="ytick_10">
     <g id="line2d_85">
      <path clip-path="url(#pca0ef1faa2)" d="M 72.63 237.515269 
L 576.889714 237.515269 
" style="fill:none;opacity:0.2;stroke:#999999;stroke-linecap:square;stroke-width:0.8;"/>
     </g>
     <g id="line2d_86">
      <g>
       <use style="stroke:#000000;stroke-width:0.6;" x="72.63" xlink:href="#m29911a7bff" y="237.515269"/>
      </g>
     </g>
    </g>
    <g id="ytick_11">
     <g id="line2d_87">
      <path clip-path="url(#pca0ef1faa2)" d="M 72.63 231.899837 
L 576.889714 231.899837 
" style="fill:none;opacity:0.2;stroke:#999999;stroke-linecap:square;stroke-width:0.8;"/>
     </g>
     <g id="line2d_88">
      <g>
       <use style="stroke:#000000;stroke-width:0.6;" x="72.63" xlink:href="#m29911a7bff" y="231.899837"/>
      </g>
     </g>
    </g>
    <g id="ytick_12">
     <g id="line2d_89">
      <path clip-path="url(#pca0ef1faa2)" d="M 72.63 193.830131 
L 576.889714 193.830131 
" style="fill:none;opacity:0.2;stroke:#999999;stroke-linecap:square;stroke-width:0.8;"/>
     </g>
     <g id="line2d_90">
      <g>
       <use style="stroke:#000000;stroke-width:0.6;" x="72.63" xlink:href="#m29911a7bff" y="193.830131"/>
      </g>
     </g>
    </g>
    <g id="ytick_13">
     <g id="line2d_91">
      <path clip-path="url(#pca0ef1faa2)" d="M 72.63 174.49915 
L 576.889714 174.49915 
" style="fill:none;opacity:0.2;stroke:#999999;stroke-linecap:square;stroke-width:0.8;"/>
     </g>
     <g id="line2d_92">
      <g>
       <use style="stroke:#000000;stroke-width:0.6;" x="72.63" xlink:href="#m29911a7bff" y="174.49915"/>
      </g>
     </g>
    </g>
    <g id="ytick_14">
     <g id="line2d_93">
      <path clip-path="url(#pca0ef1faa2)" d="M 72.63 160.783601 
L 576.889714 160.783601 
" style="fill:none;opacity:0.2;stroke:#999999;stroke-linecap:square;stroke-width:0.8;"/>
     </g>
     <g id="line2d_94">
      <g>
       <use style="stroke:#000000;stroke-width:0.6;" x="72.63" xlink:href="#m29911a7bff" y="160.783601"/>
      </g>
     </g>
    </g>
    <g id="ytick_15">
     <g id="line2d_95">
      <path clip-path="url(#pca0ef1faa2)" d="M 72.63 150.144994 
L 576.889714 150.144994 
" style="fill:none;opacity:0.2;stroke:#999999;stroke-linecap:square;stroke-width:0.8;"/>
     </g>
     <g id="line2d_96">
      <g>
       <use style="stroke:#000000;stroke-width:0.6;" x="72.63" xlink:href="#m29911a7bff" y="150.144994"/>
      </g>
     </g>
    </g>
    <g id="ytick_16">
     <g id="line2d_97">
      <path clip-path="url(#pca0ef1faa2)" d="M 72.63 141.45262 
L 576.889714 141.45262 
" style="fill:none;opacity:0.2;stroke:#999999;stroke-linecap:square;stroke-width:0.8;"/>
     </g>
     <g id="line2d_98">
      <g>
       <use style="stroke:#000000;stroke-width:0.6;" x="72.63" xlink:href="#m29911a7bff" y="141.45262"/>
      </g>
     </g>
    </g>
    <g id="ytick_17">
     <g id="line2d_99">
      <path clip-path="url(#pca0ef1faa2)" d="M 72.63 134.103322 
L 576.889714 134.103322 
" style="fill:none;opacity:0.2;stroke:#999999;stroke-linecap:square;stroke-width:0.8;"/>
     </g>
     <g id="line2d_100">
      <g>
       <use style="stroke:#000000;stroke-width:0.6;" x="72.63" xlink:href="#m29911a7bff" y="134.103322"/>
      </g>
     </g>
    </g>
    <g id="ytick_18">
     <g id="line2d_101">
      <path clip-path="url(#pca0ef1faa2)" d="M 72.63 127.737071 
L 576.889714 127.737071 
" style="fill:none;opacity:0.2;stroke:#999999;stroke-linecap:square;stroke-width:0.8;"/>
     </g>
     <g id="line2d_102">
      <g>
       <use style="stroke:#000000;stroke-width:0.6;" x="72.63" xlink:href="#m29911a7bff" y="127.737071"/>
      </g>
     </g>
    </g>
    <g id="ytick_19">
     <g id="line2d_103">
      <path clip-path="url(#pca0ef1faa2)" d="M 72.63 122.121639 
L 576.889714 122.121639 
" style="fill:none;opacity:0.2;stroke:#999999;stroke-linecap:square;stroke-width:0.8;"/>
     </g>
     <g id="line2d_104">
      <g>
       <use style="stroke:#000000;stroke-width:0.6;" x="72.63" xlink:href="#m29911a7bff" y="122.121639"/>
      </g>
     </g>
    </g>
    <g id="ytick_20">
     <g id="line2d_105">
      <path clip-path="url(#pca0ef1faa2)" d="M 72.63 84.051933 
L 576.889714 84.051933 
" style="fill:none;opacity:0.2;stroke:#999999;stroke-linecap:square;stroke-width:0.8;"/>
     </g>
     <g id="line2d_106">
      <g>
       <use style="stroke:#000000;stroke-width:0.6;" x="72.63" xlink:href="#m29911a7bff" y="84.051933"/>
      </g>
     </g>
    </g>
    <g id="ytick_21">
     <g id="line2d_107">
      <path clip-path="url(#pca0ef1faa2)" d="M 72.63 64.720952 
L 576.889714 64.720952 
" style="fill:none;opacity:0.2;stroke:#999999;stroke-linecap:square;stroke-width:0.8;"/>
     </g>
     <g id="line2d_108">
      <g>
       <use style="stroke:#000000;stroke-width:0.6;" x="72.63" xlink:href="#m29911a7bff" y="64.720952"/>
      </g>
     </g>
    </g>
    <g id="ytick_22">
     <g id="line2d_109">
      <path clip-path="url(#pca0ef1faa2)" d="M 72.63 51.005403 
L 576.889714 51.005403 
" style="fill:none;opacity:0.2;stroke:#999999;stroke-linecap:square;stroke-width:0.8;"/>
     </g>
     <g id="line2d_110">
      <g>
       <use style="stroke:#000000;stroke-width:0.6;" x="72.63" xlink:href="#m29911a7bff" y="51.005403"/>
      </g>
     </g>
    </g>
    <g id="ytick_23">
     <g id="line2d_111">
      <path clip-path="url(#pca0ef1faa2)" d="M 72.63 40.366796 
L 576.889714 40.366796 
" style="fill:none;opacity:0.2;stroke:#999999;stroke-linecap:square;stroke-width:0.8;"/>
     </g>
     <g id="line2d_112">
      <g>
       <use style="stroke:#000000;stroke-width:0.6;" x="72.63" xlink:href="#m29911a7bff" y="40.366796"/>
      </g>
     </g>
    </g>
    <g id="ytick_24">
     <g id="line2d_113">
      <path clip-path="url(#pca0ef1faa2)" d="M 72.63 31.674422 
L 576.889714 31.674422 
" style="fill:none;opacity:0.2;stroke:#999999;stroke-linecap:square;stroke-width:0.8;"/>
     </g>
     <g id="line2d_114">
      <g>
       <use style="stroke:#000000;stroke-width:0.6;" x="72.63" xlink:href="#m29911a7bff" y="31.674422"/>
      </g>
     </g>
    </g>
    <g id="ytick_25">
     <g id="line2d_115">
      <path clip-path="url(#pca0ef1faa2)" d="M 72.63 24.325124 
L 576.889714 24.325124 
" style="fill:none;opacity:0.2;stroke:#999999;stroke-linecap:square;stroke-width:0.8;"/>
     </g>
     <g id="line2d_116">
      <g>
       <use style="stroke:#000000;stroke-width:0.6;" x="72.63" xlink:href="#m29911a7bff" y="24.325124"/>
      </g>
     </g>
    </g>
    <g id="ytick_26">
     <g id="line2d_117">
      <path clip-path="url(#pca0ef1faa2)" d="M 72.63 17.958872 
L 576.889714 17.958872 
" style="fill:none;opacity:0.2;stroke:#999999;stroke-linecap:square;stroke-width:0.8;"/>
     </g>
     <g id="line2d_118">
      <g>
       <use style="stroke:#000000;stroke-width:0.6;" x="72.63" xlink:href="#m29911a7bff" y="17.958872"/>
      </g>
     </g>
    </g>
    <g id="ytick_27">
     <g id="line2d_119">
      <path clip-path="url(#pca0ef1faa2)" d="M 72.63 12.343441 
L 576.889714 12.343441 
" style="fill:none;opacity:0.2;stroke:#999999;stroke-linecap:square;stroke-width:0.8;"/>
     </g>
     <g id="line2d_120">
      <g>
       <use style="stroke:#000000;stroke-width:0.6;" x="72.63" xlink:href="#m29911a7bff" y="12.343441"/>
      </g>
     </g>
    </g>
    <g id="text_12">
     <!-- Number of Recieved Coded Packets -->
     <defs>
      <path d="M 44.390625 34.1875 
Q 47.5625 33.109375 50.5625 29.59375 
Q 53.5625 26.078125 56.59375 19.921875 
L 66.609375 0 
L 56 0 
L 46.6875 18.703125 
Q 43.0625 26.03125 39.671875 28.421875 
Q 36.28125 30.8125 30.421875 30.8125 
L 19.671875 30.8125 
L 19.671875 0 
L 9.8125 0 
L 9.8125 72.90625 
L 32.078125 72.90625 
Q 44.578125 72.90625 50.734375 67.671875 
Q 56.890625 62.453125 56.890625 51.90625 
Q 56.890625 45.015625 53.6875 40.46875 
Q 50.484375 35.9375 44.390625 34.1875 
z
M 19.671875 64.796875 
L 19.671875 38.921875 
L 32.078125 38.921875 
Q 39.203125 38.921875 42.84375 42.21875 
Q 46.484375 45.515625 46.484375 51.90625 
Q 46.484375 58.296875 42.84375 61.546875 
Q 39.203125 64.796875 32.078125 64.796875 
z
" id="DejaVuSans-52"/>
      <path d="M 9.421875 54.6875 
L 18.40625 54.6875 
L 18.40625 0 
L 9.421875 0 
z
M 9.421875 75.984375 
L 18.40625 75.984375 
L 18.40625 64.59375 
L 9.421875 64.59375 
z
" id="DejaVuSans-69"/>
      <path d="M 2.984375 54.6875 
L 12.5 54.6875 
L 29.59375 8.796875 
L 46.6875 54.6875 
L 56.203125 54.6875 
L 35.6875 0 
L 23.484375 0 
z
" id="DejaVuSans-76"/>
      <path d="M 45.40625 46.390625 
L 45.40625 75.984375 
L 54.390625 75.984375 
L 54.390625 0 
L 45.40625 0 
L 45.40625 8.203125 
Q 42.578125 3.328125 38.25 0.953125 
Q 33.9375 -1.421875 27.875 -1.421875 
Q 17.96875 -1.421875 11.734375 6.484375 
Q 5.515625 14.40625 5.515625 27.296875 
Q 5.515625 40.1875 11.734375 48.09375 
Q 17.96875 56 27.875 56 
Q 33.9375 56 38.25 53.625 
Q 42.578125 51.265625 45.40625 46.390625 
z
M 14.796875 27.296875 
Q 14.796875 17.390625 18.875 11.75 
Q 22.953125 6.109375 30.078125 6.109375 
Q 37.203125 6.109375 41.296875 11.75 
Q 45.40625 17.390625 45.40625 27.296875 
Q 45.40625 37.203125 41.296875 42.84375 
Q 37.203125 48.484375 30.078125 48.484375 
Q 22.953125 48.484375 18.875 42.84375 
Q 14.796875 37.203125 14.796875 27.296875 
z
" id="DejaVuSans-64"/>
      <path d="M 64.40625 67.28125 
L 64.40625 56.890625 
Q 59.421875 61.53125 53.78125 63.8125 
Q 48.140625 66.109375 41.796875 66.109375 
Q 29.296875 66.109375 22.65625 58.46875 
Q 16.015625 50.828125 16.015625 36.375 
Q 16.015625 21.96875 22.65625 14.328125 
Q 29.296875 6.6875 41.796875 6.6875 
Q 48.140625 6.6875 53.78125 8.984375 
Q 59.421875 11.28125 64.40625 15.921875 
L 64.40625 5.609375 
Q 59.234375 2.09375 53.4375 0.328125 
Q 47.65625 -1.421875 41.21875 -1.421875 
Q 24.65625 -1.421875 15.125 8.703125 
Q 5.609375 18.84375 5.609375 36.375 
Q 5.609375 53.953125 15.125 64.078125 
Q 24.65625 74.21875 41.21875 74.21875 
Q 47.75 74.21875 53.53125 72.484375 
Q 59.328125 70.75 64.40625 67.28125 
z
" id="DejaVuSans-43"/>
     </defs>
     <g transform="translate(41.950312 256.66696)rotate(-90)scale(0.1 -0.1)">
      <use xlink:href="#DejaVuSans-4e"/>
      <use x="74.804688" xlink:href="#DejaVuSans-75"/>
      <use x="138.183594" xlink:href="#DejaVuSans-6d"/>
      <use x="235.595703" xlink:href="#DejaVuSans-62"/>
      <use x="299.072266" xlink:href="#DejaVuSans-65"/>
      <use x="360.595703" xlink:href="#DejaVuSans-72"/>
      <use x="401.708984" xlink:href="#DejaVuSans-20"/>
      <use x="433.496094" xlink:href="#DejaVuSans-6f"/>
      <use x="494.677734" xlink:href="#DejaVuSans-66"/>
      <use x="529.882812" xlink:href="#DejaVuSans-20"/>
      <use x="561.669922" xlink:href="#DejaVuSans-52"/>
      <use x="631.089844" xlink:href="#DejaVuSans-65"/>
      <use x="692.613281" xlink:href="#DejaVuSans-63"/>
      <use x="747.59375" xlink:href="#DejaVuSans-69"/>
      <use x="775.376953" xlink:href="#DejaVuSans-65"/>
      <use x="836.900391" xlink:href="#DejaVuSans-76"/>
      <use x="896.080078" xlink:href="#DejaVuSans-65"/>
      <use x="957.603516" xlink:href="#DejaVuSans-64"/>
      <use x="1021.080078" xlink:href="#DejaVuSans-20"/>
      <use x="1052.867188" xlink:href="#DejaVuSans-43"/>
      <use x="1122.691406" xlink:href="#DejaVuSans-6f"/>
      <use x="1183.873047" xlink:href="#DejaVuSans-64"/>
      <use x="1247.349609" xlink:href="#DejaVuSans-65"/>
      <use x="1308.873047" xlink:href="#DejaVuSans-64"/>
      <use x="1372.349609" xlink:href="#DejaVuSans-20"/>
      <use x="1404.136719" xlink:href="#DejaVuSans-50"/>
      <use x="1464.376953" xlink:href="#DejaVuSans-61"/>
      <use x="1525.65625" xlink:href="#DejaVuSans-63"/>
      <use x="1580.636719" xlink:href="#DejaVuSans-6b"/>
      <use x="1638.5" xlink:href="#DejaVuSans-65"/>
      <use x="1700.023438" xlink:href="#DejaVuSans-74"/>
      <use x="1739.232422" xlink:href="#DejaVuSans-73"/>
     </g>
    </g>
   </g>
   <g id="line2d_121">
    <path clip-path="url(#pca0ef1faa2)" d="M 95.550896 312.548547 
L 171.953883 280.292825 
L 248.35687 247.715083 
L 324.759857 214.876786 
L 401.162844 181.943259 
L 477.565831 148.955493 
L 553.968818 115.938582 
" style="fill:none;stroke:#0000ff;stroke-linecap:square;stroke-width:1.5;"/>
    <defs>
     <path d="M 0 3 
C 0.795609 3 1.55874 2.683901 2.12132 2.12132 
C 2.683901 1.55874 3 0.795609 3 0 
C 3 -0.795609 2.683901 -1.55874 2.12132 -2.12132 
C 1.55874 -2.683901 0.795609 -3 0 -3 
C -0.795609 -3 -1.55874 -2.683901 -2.12132 -2.12132 
C -2.683901 -1.55874 -3 -0.795609 -3 0 
C -3 0.795609 -2.683901 1.55874 -2.12132 2.12132 
C -1.55874 2.683901 -0.795609 3 0 3 
z
" id="m993e55ad25" style="stroke:#0000ff;"/>
    </defs>
    <g clip-path="url(#pca0ef1faa2)">
     <use style="fill:#0000ff;stroke:#0000ff;" x="95.550896" xlink:href="#m993e55ad25" y="312.548547"/>
     <use style="fill:#0000ff;stroke:#0000ff;" x="171.953883" xlink:href="#m993e55ad25" y="280.292825"/>
     <use style="fill:#0000ff;stroke:#0000ff;" x="248.35687" xlink:href="#m993e55ad25" y="247.715083"/>
     <use style="fill:#0000ff;stroke:#0000ff;" x="324.759857" xlink:href="#m993e55ad25" y="214.876786"/>
     <use style="fill:#0000ff;stroke:#0000ff;" x="401.162844" xlink:href="#m993e55ad25" y="181.943259"/>
     <use style="fill:#0000ff;stroke:#0000ff;" x="477.565831" xlink:href="#m993e55ad25" y="148.955493"/>
     <use style="fill:#0000ff;stroke:#0000ff;" x="553.968818" xlink:href="#m993e55ad25" y="115.938582"/>
    </g>
   </g>
   <g id="line2d_122">
    <path clip-path="url(#pca0ef1faa2)" d="M 95.550896 314.029909 
L 171.953883 281.093627 
L 248.35687 248.100456 
L 324.759857 215.080255 
L 401.162844 182.047826 
L 477.565831 149.007975 
L 553.968818 115.964808 
" style="fill:none;stroke:#008000;stroke-linecap:square;stroke-width:1.5;"/>
    <defs>
     <path d="M -3 3 
L 3 -3 
M -3 -3 
L 3 3 
" id="mf44324eb61" style="stroke:#008000;"/>
    </defs>
    <g clip-path="url(#pca0ef1faa2)">
     <use style="fill:#008000;stroke:#008000;" x="95.550896" xlink:href="#mf44324eb61" y="314.029909"/>
     <use style="fill:#008000;stroke:#008000;" x="171.953883" xlink:href="#mf44324eb61" y="281.093627"/>
     <use style="fill:#008000;stroke:#008000;" x="248.35687" xlink:href="#mf44324eb61" y="248.100456"/>
     <use style="fill:#008000;stroke:#008000;" x="324.759857" xlink:href="#mf44324eb61" y="215.080255"/>
     <use style="fill:#008000;stroke:#008000;" x="401.162844" xlink:href="#mf44324eb61" y="182.047826"/>
     <use style="fill:#008000;stroke:#008000;" x="477.565831" xlink:href="#mf44324eb61" y="149.007975"/>
     <use style="fill:#008000;stroke:#008000;" x="553.968818" xlink:href="#mf44324eb61" y="115.964808"/>
    </g>
   </g>
   <g id="line2d_123">
    <path clip-path="url(#pca0ef1faa2)" d="M 95.550896 265.020588 
L 171.953883 200.524431 
L 248.35687 178.62944 
L 324.759857 152.198768 
L 401.162844 91.026355 
L 477.565831 60.28303 
L 553.968818 19.950156 
" style="fill:none;stroke:#ff0000;stroke-linecap:square;stroke-width:1.5;"/>
    <defs>
     <path d="M 3 0 
L -3 -3 
L -3 3 
z
" id="m2f83846e0f" style="stroke:#ff0000;stroke-linejoin:miter;"/>
    </defs>
    <g clip-path="url(#pca0ef1faa2)">
     <use style="fill:#ff0000;stroke:#ff0000;stroke-linejoin:miter;" x="95.550896" xlink:href="#m2f83846e0f" y="265.020588"/>
     <use style="fill:#ff0000;stroke:#ff0000;stroke-linejoin:miter;" x="171.953883" xlink:href="#m2f83846e0f" y="200.524431"/>
     <use style="fill:#ff0000;stroke:#ff0000;stroke-linejoin:miter;" x="248.35687" xlink:href="#m2f83846e0f" y="178.62944"/>
     <use style="fill:#ff0000;stroke:#ff0000;stroke-linejoin:miter;" x="324.759857" xlink:href="#m2f83846e0f" y="152.198768"/>
     <use style="fill:#ff0000;stroke:#ff0000;stroke-linejoin:miter;" x="401.162844" xlink:href="#m2f83846e0f" y="91.026355"/>
     <use style="fill:#ff0000;stroke:#ff0000;stroke-linejoin:miter;" x="477.565831" xlink:href="#m2f83846e0f" y="60.28303"/>
     <use style="fill:#ff0000;stroke:#ff0000;stroke-linejoin:miter;" x="553.968818" xlink:href="#m2f83846e0f" y="19.950156"/>
    </g>
   </g>
   <g id="line2d_124">
    <path clip-path="url(#pca0ef1faa2)" d="M 95.550896 273.197088 
L 171.953883 209.52934 
L 248.35687 194.051504 
L 324.759857 164.237239 
L 401.162844 107.737377 
L 477.565831 87.851487 
L 553.968818 47.2393 
" style="fill:none;stroke:#00bfbf;stroke-linecap:square;stroke-width:1.5;"/>
    <defs>
     <path d="M -3 0 
L 3 0 
M 0 3 
L 0 -3 
" id="mb1aacb3498" style="stroke:#00bfbf;"/>
    </defs>
    <g clip-path="url(#pca0ef1faa2)">
     <use style="fill:#00bfbf;stroke:#00bfbf;" x="95.550896" xlink:href="#mb1aacb3498" y="273.197088"/>
     <use style="fill:#00bfbf;stroke:#00bfbf;" x="171.953883" xlink:href="#mb1aacb3498" y="209.52934"/>
     <use style="fill:#00bfbf;stroke:#00bfbf;" x="248.35687" xlink:href="#mb1aacb3498" y="194.051504"/>
     <use style="fill:#00bfbf;stroke:#00bfbf;" x="324.759857" xlink:href="#mb1aacb3498" y="164.237239"/>
     <use style="fill:#00bfbf;stroke:#00bfbf;" x="401.162844" xlink:href="#mb1aacb3498" y="107.737377"/>
     <use style="fill:#00bfbf;stroke:#00bfbf;" x="477.565831" xlink:href="#mb1aacb3498" y="87.851487"/>
     <use style="fill:#00bfbf;stroke:#00bfbf;" x="553.968818" xlink:href="#mb1aacb3498" y="47.2393"/>
    </g>
   </g>
   <g id="line2d_125">
    <path clip-path="url(#pca0ef1faa2)" d="M 95.550896 265.551171 
L 171.953883 280.29721 
L 248.35687 248.037435 
L 324.759857 214.937337 
L 401.162844 182.050293 
L 477.565831 148.620399 
L 553.968818 111.498121 
" style="fill:none;stroke:#bf00bf;stroke-linecap:square;stroke-width:1.5;"/>
    <defs>
     <path d="M -0 3 
L 3 -3 
L -3 -3 
z
" id="m01a3952fc1" style="stroke:#bf00bf;stroke-linejoin:miter;"/>
    </defs>
    <g clip-path="url(#pca0ef1faa2)">
     <use style="fill:#bf00bf;stroke:#bf00bf;stroke-linejoin:miter;" x="95.550896" xlink:href="#m01a3952fc1" y="265.551171"/>
     <use style="fill:#bf00bf;stroke:#bf00bf;stroke-linejoin:miter;" x="171.953883" xlink:href="#m01a3952fc1" y="280.29721"/>
     <use style="fill:#bf00bf;stroke:#bf00bf;stroke-linejoin:miter;" x="248.35687" xlink:href="#m01a3952fc1" y="248.037435"/>
     <use style="fill:#bf00bf;stroke:#bf00bf;stroke-linejoin:miter;" x="324.759857" xlink:href="#m01a3952fc1" y="214.937337"/>
     <use style="fill:#bf00bf;stroke:#bf00bf;stroke-linejoin:miter;" x="401.162844" xlink:href="#m01a3952fc1" y="182.050293"/>
     <use style="fill:#bf00bf;stroke:#bf00bf;stroke-linejoin:miter;" x="477.565831" xlink:href="#m01a3952fc1" y="148.620399"/>
     <use style="fill:#bf00bf;stroke:#bf00bf;stroke-linejoin:miter;" x="553.968818" xlink:href="#m01a3952fc1" y="111.498121"/>
    </g>
   </g>
   <g id="line2d_126">
    <path clip-path="url(#pca0ef1faa2)" d="M 95.550896 314.244701 
L 171.953883 279.666562 
L 248.35687 247.893857 
L 324.759857 206.653169 
L 401.162844 181.97843 
L 477.565831 146.815191 
L 553.968818 96.877068 
" style="fill:none;stroke:#bfbf00;stroke-linecap:square;stroke-width:1.5;"/>
    <defs>
     <path d="M -3 -0 
L 3 3 
L 3 -3 
z
" id="mfd0bd5c1ea" style="stroke:#bfbf00;stroke-linejoin:miter;"/>
    </defs>
    <g clip-path="url(#pca0ef1faa2)">
     <use style="fill:#bfbf00;stroke:#bfbf00;stroke-linejoin:miter;" x="95.550896" xlink:href="#mfd0bd5c1ea" y="314.244701"/>
     <use style="fill:#bfbf00;stroke:#bfbf00;stroke-linejoin:miter;" x="171.953883" xlink:href="#mfd0bd5c1ea" y="279.666562"/>
     <use style="fill:#bfbf00;stroke:#bfbf00;stroke-linejoin:miter;" x="248.35687" xlink:href="#mfd0bd5c1ea" y="247.893857"/>
     <use style="fill:#bfbf00;stroke:#bfbf00;stroke-linejoin:miter;" x="324.759857" xlink:href="#mfd0bd5c1ea" y="206.653169"/>
     <use style="fill:#bfbf00;stroke:#bfbf00;stroke-linejoin:miter;" x="401.162844" xlink:href="#mfd0bd5c1ea" y="181.97843"/>
     <use style="fill:#bfbf00;stroke:#bfbf00;stroke-linejoin:miter;" x="477.565831" xlink:href="#mfd0bd5c1ea" y="146.815191"/>
     <use style="fill:#bfbf00;stroke:#bfbf00;stroke-linejoin:miter;" x="553.968818" xlink:href="#mfd0bd5c1ea" y="96.877068"/>
    </g>
   </g>
   <g id="patch_3">
    <path d="M 72.63 328.959429 
L 72.63 5.235429 
" style="fill:none;stroke:#000000;stroke-linecap:square;stroke-linejoin:miter;stroke-width:0.8;"/>
   </g>
   <g id="patch_4">
    <path d="M 576.889714 328.959429 
L 576.889714 5.235429 
" style="fill:none;stroke:#000000;stroke-linecap:square;stroke-linejoin:miter;stroke-width:0.8;"/>
   </g>
   <g id="patch_5">
    <path d="M 72.63 328.959429 
L 576.889714 328.959429 
" style="fill:none;stroke:#000000;stroke-linecap:square;stroke-linejoin:miter;stroke-width:0.8;"/>
   </g>
   <g id="patch_6">
    <path d="M 72.63 5.235429 
L 576.889714 5.235429 
" style="fill:none;stroke:#000000;stroke-linecap:square;stroke-linejoin:miter;stroke-width:0.8;"/>
   </g>
   <g id="legend_1">
    <g id="patch_7">
     <path d="M 79.63 101.304179 
L 251.5675 101.304179 
Q 253.5675 101.304179 253.5675 99.304179 
L 253.5675 12.235429 
Q 253.5675 10.235429 251.5675 10.235429 
L 79.63 10.235429 
Q 77.63 10.235429 77.63 12.235429 
L 77.63 99.304179 
Q 77.63 101.304179 79.63 101.304179 
z
" style="fill:#ffffff;opacity:0.8;stroke:#cccccc;stroke-linejoin:miter;"/>
    </g>
    <g id="line2d_127">
     <path d="M 81.63 18.333866 
L 101.63 18.333866 
" style="fill:none;stroke:#0000ff;stroke-linecap:square;stroke-width:1.5;"/>
    </g>
    <g id="line2d_128">
     <g>
      <use style="fill:#0000ff;stroke:#0000ff;" x="91.63" xlink:href="#m993e55ad25" y="18.333866"/>
     </g>
    </g>
    <g id="text_13">
     <!-- Fulcrum Outer(r=1,binary8) -->
     <defs>
      <path d="M 9.8125 72.90625 
L 51.703125 72.90625 
L 51.703125 64.59375 
L 19.671875 64.59375 
L 19.671875 43.109375 
L 48.578125 43.109375 
L 48.578125 34.8125 
L 19.671875 34.8125 
L 19.671875 0 
L 9.8125 0 
z
" id="DejaVuSans-46"/>
      <path d="M 9.421875 75.984375 
L 18.40625 75.984375 
L 18.40625 0 
L 9.421875 0 
z
" id="DejaVuSans-6c"/>
      <path d="M 39.40625 66.21875 
Q 28.65625 66.21875 22.328125 58.203125 
Q 16.015625 50.203125 16.015625 36.375 
Q 16.015625 22.609375 22.328125 14.59375 
Q 28.65625 6.59375 39.40625 6.59375 
Q 50.140625 6.59375 56.421875 14.59375 
Q 62.703125 22.609375 62.703125 36.375 
Q 62.703125 50.203125 56.421875 58.203125 
Q 50.140625 66.21875 39.40625 66.21875 
z
M 39.40625 74.21875 
Q 54.734375 74.21875 63.90625 63.9375 
Q 73.09375 53.65625 73.09375 36.375 
Q 73.09375 19.140625 63.90625 8.859375 
Q 54.734375 -1.421875 39.40625 -1.421875 
Q 24.03125 -1.421875 14.8125 8.828125 
Q 5.609375 19.09375 5.609375 36.375 
Q 5.609375 53.65625 14.8125 63.9375 
Q 24.03125 74.21875 39.40625 74.21875 
z
" id="DejaVuSans-4f"/>
      <path d="M 31 75.875 
Q 24.46875 64.65625 21.28125 53.65625 
Q 18.109375 42.671875 18.109375 31.390625 
Q 18.109375 20.125 21.3125 9.0625 
Q 24.515625 -2 31 -13.1875 
L 23.1875 -13.1875 
Q 15.875 -1.703125 12.234375 9.375 
Q 8.59375 20.453125 8.59375 31.390625 
Q 8.59375 42.28125 12.203125 53.3125 
Q 15.828125 64.359375 23.1875 75.875 
z
" id="DejaVuSans-28"/>
      <path d="M 10.59375 45.40625 
L 73.1875 45.40625 
L 73.1875 37.203125 
L 10.59375 37.203125 
z
M 10.59375 25.484375 
L 73.1875 25.484375 
L 73.1875 17.1875 
L 10.59375 17.1875 
z
" id="DejaVuSans-3d"/>
      <path d="M 11.71875 12.40625 
L 22.015625 12.40625 
L 22.015625 4 
L 14.015625 -11.625 
L 7.71875 -11.625 
L 11.71875 4 
z
" id="DejaVuSans-2c"/>
      <path d="M 54.890625 33.015625 
L 54.890625 0 
L 45.90625 0 
L 45.90625 32.71875 
Q 45.90625 40.484375 42.875 44.328125 
Q 39.84375 48.1875 33.796875 48.1875 
Q 26.515625 48.1875 22.3125 43.546875 
Q 18.109375 38.921875 18.109375 30.90625 
L 18.109375 0 
L 9.078125 0 
L 9.078125 54.6875 
L 18.109375 54.6875 
L 18.109375 46.1875 
Q 21.34375 51.125 25.703125 53.5625 
Q 30.078125 56 35.796875 56 
Q 45.21875 56 50.046875 50.171875 
Q 54.890625 44.34375 54.890625 33.015625 
z
" id="DejaVuSans-6e"/>
      <path d="M 32.171875 -5.078125 
Q 28.375 -14.84375 24.75 -17.8125 
Q 21.140625 -20.796875 15.09375 -20.796875 
L 7.90625 -20.796875 
L 7.90625 -13.28125 
L 13.1875 -13.28125 
Q 16.890625 -13.28125 18.9375 -11.515625 
Q 21 -9.765625 23.484375 -3.21875 
L 25.09375 0.875 
L 2.984375 54.6875 
L 12.5 54.6875 
L 29.59375 11.921875 
L 46.6875 54.6875 
L 56.203125 54.6875 
z
" id="DejaVuSans-79"/>
      <path d="M 8.015625 75.875 
L 15.828125 75.875 
Q 23.140625 64.359375 26.78125 53.3125 
Q 30.421875 42.28125 30.421875 31.390625 
Q 30.421875 20.453125 26.78125 9.375 
Q 23.140625 -1.703125 15.828125 -13.1875 
L 8.015625 -13.1875 
Q 14.5 -2 17.703125 9.0625 
Q 20.90625 20.125 20.90625 31.390625 
Q 20.90625 42.671875 17.703125 53.65625 
Q 14.5 64.65625 8.015625 75.875 
z
" id="DejaVuSans-29"/>
     </defs>
     <g transform="translate(109.63 21.833866)scale(0.1 -0.1)">
      <use xlink:href="#DejaVuSans-46"/>
      <use x="57.441406" xlink:href="#DejaVuSans-75"/>
      <use x="120.820312" xlink:href="#DejaVuSans-6c"/>
      <use x="148.603516" xlink:href="#DejaVuSans-63"/>
      <use x="203.583984" xlink:href="#DejaVuSans-72"/>
      <use x="244.697266" xlink:href="#DejaVuSans-75"/>
      <use x="308.076172" xlink:href="#DejaVuSans-6d"/>
      <use x="405.488281" xlink:href="#DejaVuSans-20"/>
      <use x="437.275391" xlink:href="#DejaVuSans-4f"/>
      <use x="515.986328" xlink:href="#DejaVuSans-75"/>
      <use x="579.365234" xlink:href="#DejaVuSans-74"/>
      <use x="618.574219" xlink:href="#DejaVuSans-65"/>
      <use x="680.097656" xlink:href="#DejaVuSans-72"/>
      <use x="721.210938" xlink:href="#DejaVuSans-28"/>
      <use x="760.224609" xlink:href="#DejaVuSans-72"/>
      <use x="801.337891" xlink:href="#DejaVuSans-3d"/>
      <use x="885.126953" xlink:href="#DejaVuSans-31"/>
      <use x="948.75" xlink:href="#DejaVuSans-2c"/>
      <use x="980.537109" xlink:href="#DejaVuSans-62"/>
      <use x="1044.013672" xlink:href="#DejaVuSans-69"/>
      <use x="1071.796875" xlink:href="#DejaVuSans-6e"/>
      <use x="1135.175781" xlink:href="#DejaVuSans-61"/>
      <use x="1196.455078" xlink:href="#DejaVuSans-72"/>
      <use x="1237.568359" xlink:href="#DejaVuSans-79"/>
      <use x="1296.748047" xlink:href="#DejaVuSans-38"/>
      <use x="1360.371094" xlink:href="#DejaVuSans-29"/>
     </g>
    </g>
    <g id="line2d_129">
     <path d="M 81.63 33.011991 
L 101.63 33.011991 
" style="fill:none;stroke:#008000;stroke-linecap:square;stroke-width:1.5;"/>
    </g>
    <g id="line2d_130">
     <g>
      <use style="fill:#008000;stroke:#008000;" x="91.63" xlink:href="#mf44324eb61" y="33.011991"/>
     </g>
    </g>
    <g id="text_14">
     <!-- Fulcrum Outer(r=4,binary8) -->
     <g transform="translate(109.63 36.511991)scale(0.1 -0.1)">
      <use xlink:href="#DejaVuSans-46"/>
      <use x="57.441406" xlink:href="#DejaVuSans-75"/>
      <use x="120.820312" xlink:href="#DejaVuSans-6c"/>
      <use x="148.603516" xlink:href="#DejaVuSans-63"/>
      <use x="203.583984" xlink:href="#DejaVuSans-72"/>
      <use x="244.697266" xlink:href="#DejaVuSans-75"/>
      <use x="308.076172" xlink:href="#DejaVuSans-6d"/>
      <use x="405.488281" xlink:href="#DejaVuSans-20"/>
      <use x="437.275391" xlink:href="#DejaVuSans-4f"/>
      <use x="515.986328" xlink:href="#DejaVuSans-75"/>
      <use x="579.365234" xlink:href="#DejaVuSans-74"/>
      <use x="618.574219" xlink:href="#DejaVuSans-65"/>
      <use x="680.097656" xlink:href="#DejaVuSans-72"/>
      <use x="721.210938" xlink:href="#DejaVuSans-28"/>
      <use x="760.224609" xlink:href="#DejaVuSans-72"/>
      <use x="801.337891" xlink:href="#DejaVuSans-3d"/>
      <use x="885.126953" xlink:href="#DejaVuSans-34"/>
      <use x="948.75" xlink:href="#DejaVuSans-2c"/>
      <use x="980.537109" xlink:href="#DejaVuSans-62"/>
      <use x="1044.013672" xlink:href="#DejaVuSans-69"/>
      <use x="1071.796875" xlink:href="#DejaVuSans-6e"/>
      <use x="1135.175781" xlink:href="#DejaVuSans-61"/>
      <use x="1196.455078" xlink:href="#DejaVuSans-72"/>
      <use x="1237.568359" xlink:href="#DejaVuSans-79"/>
      <use x="1296.748047" xlink:href="#DejaVuSans-38"/>
      <use x="1360.371094" xlink:href="#DejaVuSans-29"/>
     </g>
    </g>
    <g id="line2d_131">
     <path d="M 81.63 47.690116 
L 101.63 47.690116 
" style="fill:none;stroke:#ff0000;stroke-linecap:square;stroke-width:1.5;"/>
    </g>
    <g id="line2d_132">
     <g>
      <use style="fill:#ff0000;stroke:#ff0000;stroke-linejoin:miter;" x="91.63" xlink:href="#m2f83846e0f" y="47.690116"/>
     </g>
    </g>
    <g id="text_15">
     <!-- BATS ISD -->
     <defs>
      <path d="M 19.671875 34.8125 
L 19.671875 8.109375 
L 35.5 8.109375 
Q 43.453125 8.109375 47.28125 11.40625 
Q 51.125 14.703125 51.125 21.484375 
Q 51.125 28.328125 47.28125 31.5625 
Q 43.453125 34.8125 35.5 34.8125 
z
M 19.671875 64.796875 
L 19.671875 42.828125 
L 34.28125 42.828125 
Q 41.5 42.828125 45.03125 45.53125 
Q 48.578125 48.25 48.578125 53.8125 
Q 48.578125 59.328125 45.03125 62.0625 
Q 41.5 64.796875 34.28125 64.796875 
z
M 9.8125 72.90625 
L 35.015625 72.90625 
Q 46.296875 72.90625 52.390625 68.21875 
Q 58.5 63.53125 58.5 54.890625 
Q 58.5 48.1875 55.375 44.234375 
Q 52.25 40.28125 46.1875 39.3125 
Q 53.46875 37.75 57.5 32.78125 
Q 61.53125 27.828125 61.53125 20.40625 
Q 61.53125 10.640625 54.890625 5.3125 
Q 48.25 0 35.984375 0 
L 9.8125 0 
z
" id="DejaVuSans-42"/>
      <path d="M 34.1875 63.1875 
L 20.796875 26.90625 
L 47.609375 26.90625 
z
M 28.609375 72.90625 
L 39.796875 72.90625 
L 67.578125 0 
L 57.328125 0 
L 50.6875 18.703125 
L 17.828125 18.703125 
L 11.1875 0 
L 0.78125 0 
z
" id="DejaVuSans-41"/>
      <path d="M -0.296875 72.90625 
L 61.375 72.90625 
L 61.375 64.59375 
L 35.5 64.59375 
L 35.5 0 
L 25.59375 0 
L 25.59375 64.59375 
L -0.296875 64.59375 
z
" id="DejaVuSans-54"/>
      <path d="M 9.8125 72.90625 
L 19.671875 72.90625 
L 19.671875 0 
L 9.8125 0 
z
" id="DejaVuSans-49"/>
      <path d="M 19.671875 64.796875 
L 19.671875 8.109375 
L 31.59375 8.109375 
Q 46.6875 8.109375 53.6875 14.9375 
Q 60.6875 21.78125 60.6875 36.53125 
Q 60.6875 51.171875 53.6875 57.984375 
Q 46.6875 64.796875 31.59375 64.796875 
z
M 9.8125 72.90625 
L 30.078125 72.90625 
Q 51.265625 72.90625 61.171875 64.09375 
Q 71.09375 55.28125 71.09375 36.53125 
Q 71.09375 17.671875 61.125 8.828125 
Q 51.171875 0 30.078125 0 
L 9.8125 0 
z
" id="DejaVuSans-44"/>
     </defs>
     <g transform="translate(109.63 51.190116)scale(0.1 -0.1)">
      <use xlink:href="#DejaVuSans-42"/>
      <use x="68.603516" xlink:href="#DejaVuSans-41"/>
      <use x="136.902344" xlink:href="#DejaVuSans-54"/>
      <use x="197.986328" xlink:href="#DejaVuSans-53"/>
      <use x="261.462891" xlink:href="#DejaVuSans-20"/>
      <use x="293.25" xlink:href="#DejaVuSans-49"/>
      <use x="322.742188" xlink:href="#DejaVuSans-53"/>
      <use x="386.21875" xlink:href="#DejaVuSans-44"/>
     </g>
    </g>
    <g id="line2d_133">
     <path d="M 81.63 62.368241 
L 101.63 62.368241 
" style="fill:none;stroke:#00bfbf;stroke-linecap:square;stroke-width:1.5;"/>
    </g>
    <g id="line2d_134">
     <g>
      <use style="fill:#00bfbf;stroke:#00bfbf;" x="91.63" xlink:href="#mb1aacb3498" y="62.368241"/>
     </g>
    </g>
    <g id="text_16">
     <!-- BATS RSD -->
     <g transform="translate(109.63 65.868241)scale(0.1 -0.1)">
      <use xlink:href="#DejaVuSans-42"/>
      <use x="68.603516" xlink:href="#DejaVuSans-41"/>
      <use x="136.902344" xlink:href="#DejaVuSans-54"/>
      <use x="197.986328" xlink:href="#DejaVuSans-53"/>
      <use x="261.462891" xlink:href="#DejaVuSans-20"/>
      <use x="293.25" xlink:href="#DejaVuSans-52"/>
      <use x="362.732422" xlink:href="#DejaVuSans-53"/>
      <use x="426.208984" xlink:href="#DejaVuSans-44"/>
     </g>
    </g>
    <g id="line2d_135">
     <path d="M 81.63 77.046366 
L 101.63 77.046366 
" style="fill:none;stroke:#bf00bf;stroke-linecap:square;stroke-width:1.5;"/>
    </g>
    <g id="line2d_136">
     <g>
      <use style="fill:#bf00bf;stroke:#bf00bf;stroke-linejoin:miter;" x="91.63" xlink:href="#m01a3952fc1" y="77.046366"/>
     </g>
    </g>
    <g id="text_17">
     <!-- BATS Asy -->
     <g transform="translate(109.63 80.546366)scale(0.1 -0.1)">
      <use xlink:href="#DejaVuSans-42"/>
      <use x="68.603516" xlink:href="#DejaVuSans-41"/>
      <use x="136.902344" xlink:href="#DejaVuSans-54"/>
      <use x="197.986328" xlink:href="#DejaVuSans-53"/>
      <use x="261.462891" xlink:href="#DejaVuSans-20"/>
      <use x="293.25" xlink:href="#DejaVuSans-41"/>
      <use x="361.658203" xlink:href="#DejaVuSans-73"/>
      <use x="413.757812" xlink:href="#DejaVuSans-79"/>
     </g>
    </g>
    <g id="line2d_137">
     <path d="M 81.63 91.724491 
L 101.63 91.724491 
" style="fill:none;stroke:#bfbf00;stroke-linecap:square;stroke-width:1.5;"/>
    </g>
    <g id="line2d_138">
     <g>
      <use style="fill:#bfbf00;stroke:#bfbf00;stroke-linejoin:miter;" x="91.63" xlink:href="#mfd0bd5c1ea" y="91.724491"/>
     </g>
    </g>
    <g id="text_18">
     <!-- BATS INAC -->
     <g transform="translate(109.63 95.224491)scale(0.1 -0.1)">
      <use xlink:href="#DejaVuSans-42"/>
      <use x="68.603516" xlink:href="#DejaVuSans-41"/>
      <use x="136.902344" xlink:href="#DejaVuSans-54"/>
      <use x="197.986328" xlink:href="#DejaVuSans-53"/>
      <use x="261.462891" xlink:href="#DejaVuSans-20"/>
      <use x="293.25" xlink:href="#DejaVuSans-49"/>
      <use x="322.742188" xlink:href="#DejaVuSans-4e"/>
      <use x="397.546875" xlink:href="#DejaVuSans-41"/>
      <use x="465.939453" xlink:href="#DejaVuSans-43"/>
     </g>
    </g>
   </g>
  </g>
 </g>
 <defs>
  <clipPath id="pca0ef1faa2">
   <rect height="323.724" width="504.259714" x="72.63" y="5.235429"/>
  </clipPath>
 </defs>
</svg>
