1597.48
1611.91
1624.15
1634.64
1602.8
1609.54
1643.61
1605.93
1590.11
1625.76
1607.81
1610.02
1628.17
1590.72
1605.78
1624.63
1618.88
1612.38
1613.96
1600.78
1605.15
1614.91
1601.87
1624.31
1607.81
1607.34
1615.7
1600.16
1624.31
1618.25
1600.78
1624.63
1596.43
1614.28
1623.99
1595.04
1615.7
1629.62
1587.5
1632.85
1575.95
1599.07
1617.29
1600
1620.48
1630.59
1602.8
1589.49
1603.74
1613.33
1160.71
1211.94
1241.38
1204.56
1160.5
1211.7
1186.67
1214.91
1224.53
1239.45
1415.53
1469.71
1416.76
1467.22
1435.09
1441.97
1461.99
1453.2
1446.21
1444.37
1428.84
1427.32
1455.49
1426.76
1468.98
1416.08
1254.73
1249.31
1412.01
1450.2
1431.89
1433.14
1441.27
1408.1
1410.52
1247.3
1217.64
1245.3
1233.73
1208.56
1216.13
1258.69
1219.65
1225.63
1198.15
1151.55
1138.22
1170.56
1099.43
1200.29
1026.6
891.283
877.824
856.389
877.019
992.229
979.847
1002.25
870.849
966.348
927.831
880.837
948.234
947.721
1014.33
1023
1286.74
1292.39
1279.49
1263.52
1259.5
1286.31
1160.53
1275.37
1277.12
1251.17
1269.42
1283.4
1272.39
1288.85
1274.75
1272.89
1262.55
1237.3
1275.5
1249.02
1295.37
1280.88
1271.65
1246.87
1269.17
1264.63
1238
1226.15
1274.88
1256.11
1269.54
1260.6
1283.14
1272.14
1052.55
1187.11
1158.25
1173.19
843.501
779.383
797.926
638.095
746.064
821.344
786.428
743.384
765.812
752.422
741.09
738.628
757.932
756.213
892.536
786.48
750.025
773.21
789.531
732.098
712.546
792.083
693.891
809.384
784.783
748.622
742.695
807.153
812.836
771.669
781.768
858.397
760.091
763.523
865.014
755.642
751.386
959.207
1079.23
1122.72
1100.9
969.979
965.61
982.52
964.602
948.897
1670.33
1745.45
1616.96
1520.88
1656.19
1586.02
1737.59
1620.2
1582.19
1691.97
1792.7
1746.28
1842.57
1820.52
1395.49
1429.6
1510.37
1334.82
1432.75
1586.23
1643.29
1802.74
1813.68
1777.64
1876.71
1803.67
1843.37
1943
1680.51
1594.73
1874.4
1685.22
1821.16
1682.28
1813.82
1815.73
1952.54
1790.85
1702.47
1813.5
1786.68
1382.58
1493.13
1551.74
1690.54
1647.55
1466.94
1437.79
1316.39
1434.07
1339.8
1473.84
1331.05
1243.17
1563.04
1333.08
1350.41
1317.56
1423.18
1335.08
1384.72
1339.34
1392.9
1407.1
1259.85
1507.77
1436.22
1330.66
1452.63
1248.7
1424.9
1284.76
1456.67
1718.48
1875.63
1712.32
1590.71
1767.74
1700.68
1659.27
1414.38
1343.63
1383.13
1307.65
1427.75
1715.99
1686.13
1720.4
1692.31
1667.73
1685.23
1693.28
1542.63
1537.55
1746.38
1683.7
1617.52
1742.04
1545.38
1417.77
1320.92
1314.47
1328.51
1297.5
1254.71
1448.93
1246.23
1202.18
1371.84
1666.28
1328.1
1371.84
1211.68
1239.72
1456.21
1525.32
1754.36
1494.81
1571.53
1771.03
1776.57
1595.26
1602.1
1616.99
1584.23
1691.7
1335.85
1370.54
1289.82
1285.73
1532.64
1723.61
1584.36
1649.81
1661.22
1739.36
1662.36
1399.65
1397.55
1491.65
1613.18
1722.3
1573.54
1166.72
1144.3
983.813
1066.04
1015.43
1143.29
1300.87
1101.74
1042.98
914.906
988.926
1021.92
1046.06
1175.74
1148.11
1045.77
1206.65
1357.5
1372.82
1390.77
1238.74
1210.84
1403.36
1223.13
1250.68
1328.91
1404.63
1357.82
1405.28
1481.36
1449.79
1196.18
1189.65
1195.09
1232.93
1440.6
1533.79
1316.53
1384.7
1267.72
1178.35
1121.3
1246.95
1252.66
1201.45
1450.68
1555.95
1442.92
1466.28
1389
1445.06
1435.31
1419.34
1426.54
1135.03
1206.73
1116.52
842.718
806.742
815.785
741.602
846.917
730.776
877.002
842.011
715.231
755.593
828.769
833.059
786.661
810.36
797.31
811.966
823.618
801.851
822.64
788.726
821.815
812.405
839.784
791.709
801.332
828.08
948.615
973.248
964.418
963.373
957.244
838.481
819.372
794.153
818.138
830.223
798.172
824.484
815.341
810.879
826.225
784.785
828.254
957.705
960.433
946.792
883.78
822.388
791.143
807.479
892.728
894.192
883.615
753.439
749.535
729.088
743.482
767.267
758.834
779.94
889.392
896.39
882.844
886.968
868.707
736.81
881.222
890.783
904.576
890.174
891.131
894.016
897.892
895.597
902.247
907.097
904.217
870.351
915.016
891.431
904.629
879.286
912.647
899.833
897.982
891.257
887.189
929.247
898.504
911.617
891.409
915.626
903.007
893.875
906.765
888.788
906.852
894.473
920.574
892.088
828.15
847.961
836.537
850.185
828.62
844.689
835.659
831.69
850.019
833.352
813.378
836.617
831.69
826.352
835.101
828.934
820.774
836.457
818.626
830.428
835.898
821.467
832.718
827.993
824.329
831.374
831.769
826.352
829.484
835.021
824.484
731.429
713.313
686.79
692.549
710.822
734.373
826.976
823.012
820.774
808.197
831.216
817.861
817.708
842.089
858.69
685.661
711.053
856.757
864.882
642.806
658.279
653.532
669.782
643.438
619.014
658.778
640.667
672.678
658.072
651.915
767.631
770.891
781.869
784.77
758.411
788.31
742.852
794.387
741.892
653.422
645.551
669.811
658.238
664.385
653.369
643.793
646.122
668.307
651.041
640.051
645.395
668.919
656.035
640.255
642.096
668.196
658.993
655.607
645.914
659.264
665.596
650.672
643.535
654.646
668.585
655.607
642.815
651.146
664.66
970.711
918.544
935.753
909.566
953.695
945.023
905.537
868.225
961.895
938.488
912.513
932.175
976.829
957.951
899.727
958.794
803.856
756.792
771.66
833.563
711.252
722.392
806.277
745.234
753.595
762.987
792.151
744.769
752.148
778.184
926.822
909.269
932.17
923.541
953.879
949.659
976.933
958.423
982.879
912.522
958.085
940.965
911.744
978.052
911.786
958.695
937.768
977.294
925.014
956.81
876.834
893.802
921.46
926.844
899.876
936.63
929.21
963.019
928.025
812.152
916.286
915.143
865.169
943.294
909.28
890.203
883.625
934.289
934.652
887.742
916.994
918.823
945.371
894.879
930.469
922.904
737.576
689.928
762.669
727.882
692.252
745.407
942.496
906.942
911.266
899.33
936.69
901.288
969.231
890.262
968.858
713.973
772.993
751.937
729.334
785.23
725.023
715.746
895.602
888.811
710.698
711.764
751.815
889.315
881.322
864.935
897.138
873.652
896.931
833.155
747.683
693.412
749.784
721.304
738.584
748.929
743.707
708.856
730.646
716.265
740.037
711.78
683.369
701.614
715.529
681.902
707.302
719.372
715.664
734.145
728.217
783.452
898.072
913.13
869.705
876.201
874.434
887.662
860.077
906.832
884.392
883.127
910.473
847.518
898.364
832.467
899.914
868.004
899.396
884.582
877.37
852.876
866.426
848.364
902.935
843.174
848.214
819.264
826.761
845.318
849.307
810.735
827.432
852.944
775.982
680.047
685.463
712.049
853.293
869.335
854.565
953.352
844.188
914.028
831.094
851.992
870.188
844.536
898.246
835.165
889.567
845.692
833.528
877.213
895.714
828.696
696.441
781.931
706.286
824.477
915.208
850.341
872.727
890.926
852.719
871.229
856.884
874.881
871.71
902.869
483.062
516.63
533.596
445.729
439.77
445.035
449.569
436.375
444.707
518.704
525.433
533.176
528.04
531.974
530.881
520.495
465.574
525.993
539.162
420.876
475.987
457.876
423.239
357.029
408.582
423.702
450.876
446.683
434.698
443.943
443.834
415.019
380.189
405.287
508.403
535.544
527.835
527.732
526.504
531.818
529.276
529.793
531.297
479.562
453.59
507.31
523.204
515.34
452.393
428.718
418.529
431.196
422.123
418.564
416.613
432.372
433.707
432.79
445.54
446.633
429.688
417.569
434.243
438.74
414.121
422.995
439.406
425.485
418.885
421.797
436.17
429.989
419.529
423.87
435.32
433.401
418.814
425.595
436.829
424.86
420.714
453.683
457.739
423.396
417.285
425.117
436.209
423.323
418.85
432.905
429.463
413.972
421.573
416.226
420.223
436.004
433.384
431.922
412.471
498.782
456.283
433.776
488.331
494.588
481.351
495.272
480.659
419.111
480.12
437.944
482.564
504.433
490.515
491.08
487.898
486.23
497.522
487.248
503.244
490.656
498.054
480.435
497.087
481.52
493.875
483.292
477.3
493.78
473.679
484.39
416.429
436.972
442.142
424.896
355.062
414.239
439.108
493.922
481.384
494.829
477.612
501.175
483.11
440.847
403.626
363.611
324.092
365.297
415.922
477.122
359.158
391.87
408.402
401.324
368.286
330.252
326.878
354.734
404.317
460.156
394.723
475.197
363.23
469.725
377.652
339.073
340.247
330.277
394.718
388.129
389.291
399.436
436.456
347.419
351.222
321.926
387.754
438.724
438.844
402.778
475.197
397.063
378.901
347.244
392.241
322.617
306.138
393.943
450.721
405.835
405.254
396.605
397.456
391.221
338.429
349.564
358.575
342.134
397.555
472.91
336.507
463.296
445.309
440.724
466.981
479.189
454.016
474.71
404.054
494.166
468.741
483.717
460.915
488.985
461.435
473.178
454.486
471.429
456.722
456.088
493.235
482.975
480.866
483.319
479.939
457.691
481.683
479.827
469.108
488.075
439.649
432.036
380.16
384.416
380.497
370.803
385.851
410.411
420.568
373.358
379.34
364.314
379.403
380.005
398.651
463.201
468.994
463.547
475.255
459.444
472.619
481.618
462.613
475.676
463.481
368.155
328.066
398.27
377.818
348.646
380.478
389.52
317.681
289.134
355.952
307.831
304.781
358.929
337.258
349.367
306.087
310.052
338.583
343.226
324.198
313.138
317.544
305.03
321.461
353.717
324.923
346.06
313.586
330.494
375.183
375.254
311.916
289.356
305.354
345.74
312.392
383.335
338.183
347.079
344.997
329.205
353.1
402.286
379.422
386.234
332.7
323.089
298.843
304.947
293.081
300.421
304.999
352.815
370.739
361.732
398.495
438.217
455.367
411.424
426.223
451.922
450.27
451.214
449.76
436.499
450.635
456.271
453.557
462.658
446.924
455.215
462.364
454.11
459.91
458.342
449.123
452.459
459.336
447.514
446.741
446.344
445.888
452.45
440.839
446.417
460.873
454.613
438.669
470.05
452.972
429.942
455.428
459.866
445.979
453.634
430.122
437.763
454.756
385.712
361.444
413.627
407.03
435.727
460.881
374.782
317.432
330.7
337.791
346.164
316.447
299.261
285.112
284.921
371.037
293.762
337.278
362.465
297.574
336.963
350.92
405.415
364.945
345.402
346.283
366.369
352.741
354.295
368.224
373.772
370.462
359.582
356.041
364.691
357.13
363.225
359.609
351.812
346.724
364.22
371.376
362.024
363.126
354.505
351.998
359.33
193.257
212.709
201.233
216.511
281.844
274.978
276.458
278.867
252.632
277.156
287.856
264.554
275.738
284.155
234.665
233.648
259.153
278.892
237.458
231.29
279.146
272.172
275.664
274.457
272.099
274.703
276.184
279.552
272.003
275.442
276.881
279.197
273.431
273.846
278.665
277.557
275.392
276.358
278.994
275.096
274.654
276.16
280.779
270.47
229.699
232.094
237.33
231.814
231.622
275.837
270.261
274.216
269.372
269.905
236.92
221.354
230.928
227.556
219.81
230.853
227.141
220.962
242.531
285.948
277.937
270.134
278.18
271.258
271.721
276.997
270.236
276.41
269.55
277.587
270.44
267.687
273.588
243.664
224.526
223.424
228.28
227.772
219.759
228.535
230.612
218.32
225.888
228.317
225.515
220.266
229.762
226.692
221.937
231.002
229.725
216.392
228.571
276.437
274.085
271.387
264.101
266.84
261.582
268.968
264.38
265.138
268.716
277.614
273.823
235.886
270.516
270.108
263.893
273.849
264.356
274.505
262.973
245.543
271.927
264.282
272.444
268.666
265.925
270.312
261.869
272.625
265.285
270.287
266.741
261.654
274.452
262.612
273.093
267.762
265.432
271.67
265.531
274.531
266.221
267.737
271.002
264.136
272.911
263.578
270.083
268.213
264.991
273.067
267.837
274.163
203.634
218.803
217.179
205.679
220.301
216.075
213.354
216.907
209.738
219.979
221.558
220.993
219.379
213.576
217.767
201.047
222.932
220.511
207.13
224.336
218.784
212.798
220.393
216.815
210.645
214.638
213.389
214.002
217.198
214.638
212.65
218.959
210.808
214.432
225.903
208.66
216.243
221.625
206.348
222.912
219.116
262.073
262.901
261.918
257.564
264.673
261.797
260.04
267.687
259.077
235.325
242.657
236.028
237.579
248.358
241.192
239.707
242.254
233.263
237.956
247.006
236.565
233.887
237.669
237.172
249.227
238.544
244.598
235.925
238.563
246.758
238.875
234.213
246.616
237.889
244.466
244.012
241.625
235.937
239.543
249.377
239.614
236.221
245.684
237.745
241.143
248.324
241.756
241.711
249.341
239.229
242.075
244.26
236.241
241.1
246.588
240.365
241.338
245.467
239.207
234.846
240.436
240.39
235.517
195.489
229.813
238.464
234.428
236.029
239.91
234.447
237.929
235.175
234.58
235.538
231.452
236.423
236.751
238.595
238.362
234.366
236.297
236.324
240.091
235.528
234.873
236.793
235.65
199.89
234.32
232.717
237.805
239.452
234.081
234.714
234.298
236.617
236.707
234.564
239.383
235.66
237.305
235.425
234.125
237.805
235.243
238.084
230.28
232.294
238.838
234.406
236.554
239.11
235.238
232.727
238.872
233.657
239.626
236.861
235.55
244.598
236.925
237.799
236.95
235.102
244.325
236.707
234.386
244.702
234.916
237.147
242.017
234.125
242.828
237.754
233.611
234.168
238.024
229.64
237.235
240.547
233.628
238.577
243.678
232.652
239.159
231.515
230.484
240.989
235.507
240.735
237.348
236.884
240.87
240.845
233.542
240.41
234.274
236.374
243.521
230.212
227.66
229.854
231.407
230.187
240.786
235.495
237.61
234.684
229.244
232.77
185.143
190.352
189.488
193.415
170.133
164.061
167.445
159.537
183.333
225.444
234.103
230.526
230.463
238.32
216.541
216.205
204.701
232.578
235.246
237.104
231.304
215.568
193.611
177.765
183.378
207.836
232.821
225.689
198.788
168.83
161.88
153.499
183.903
192.686
178.511
159.267
184.995
198.031
201.356
115.946
105.214
103.53
106.908
112.199
111.325
127.492
122.141
111.033
119.001
125.031
126.605
128.643
114.509
110.845
119.148
110.71
69.731
867.981
895.301
986.433
100.647
101.036
107.413
107.676
105.368
109.538
111.527
116.485
136.068
137.762
117.659
142.656
140.406
142.05
142.408
141.01
136.363
142.954
142.074
134.229
122.032
114.477
118.015
111.267
114.413
121.318
119.985
120.612
115.935
118.433
115.267
137.924
131.272
140.563
138.859
133.138
136.249
139.783
137.036
121.996
138.718
136.511
141.546
141.546
140.322
136.956
139.415
141.363
137.427
139.64
141.035
136.023
139.628
142.569
138.46
138.753
140.913
136.068
123.29
134.549
134.053
138.075
139.249
125.078
130.769
132.439
132.868
132.214
117.566
131.156
133.431
136.898
134.075
123.962
137.542
137.369
141.988
141.059
138.636
135.629
138.718
139.927
111.943
126.801
134.903
138.122
135.933
135.148
136.967
139.119
135.753
135.371
136.602
135.764
136.876
138.367
136.295
134.383
132.033
137.588
134.538
135.081
139.593
134.108
135.45
139.939
137.105
135.461
136.921
137.762
135.495
135.495
138.507
134.948
137.047
139.51
137.901
134.914
121.345
131.98
137.912
135.014
138.613
136.511
135.495
136.295
135.742
136.148
136.841
138.052
134.075
136.148
136.465
136.204
135.472
139.166
137.831
132.6
134.571
136.352
133.758
134.604
136.727
134.737
134.306
138.297
134.67
111.798
113.408
129.028
133.9
133.322
134.748
134.826
134.207
135.517
133.42
134.174
133.431
133.933
134.35
134.781
134.328
133.944
133.944
135.629
133.366
134.626
132.804
133.54
133.073
133.366
134.218
135.877
135.551
133.301
131.778
133.834
135.237
116.579
117.508
117.393
115.951
118.773
117.616
969.925
119.494
108.75
110.864
811.045
925.215
934.359
927.398
929.869
92.98
96.556
954.451
92.771
942.876
802.033
876.185
94.018
968.181
962.295
95.941
119.141
119.965
105.651
117.043
105.802
117.644
117.642
118.434
116.618
117.293
116.752
118.451
118.808
912.971
824.544
114.024
120.17
119.986
108.475
997.593
892.142
922.252
915.558
96
965.217
113.214
945.112
974.619
910.369
922.733
923.417
971.795
944.118
910.636
937.062
970.451
901.704
921.237
117.293
118.166
116.765
120.023
119.412
123.543
887.944
119.694
118.868
118.805
111.779
116.201
104.225
123.017
118.49
123.187
956.367
101.102
115.49
120.564
119.573
123.81
117.373
119.326
114.803
119.004
118.62
118.36
114.954
118.552
109.93
117.562
114.087
115.451
121.963
119.605
121.685
118.925
113.31
956.897
118.76
118.367
119.977
115.571
118.721
116.385
118.014
114.421
116.339
115.625
115.929
116.017
114.432
114.025
119.897
116.035
117.634
114.845
115.862
113.684
119.622
113.283
116.634
115.264
117.45
117.106
118.258
115.79
117.369
116.169
117.844
113.607
116.855
115.819
118.636
116.505
118.955
117.084
118.873
115.748
118.33
117.018
117.388
115.214
120.139
120.22
119.668
120.138
119.863
114.181
119.816
114.928
120.92
119.943
119.428
116.418
116.654
115.968
118.003
120.545
121.144
116.125
118.014
116.461
117.669
117.426
122.251
118.699
115.057
115.317
116.533
115.172
118.574
117.216
120.243
114.82
116.679
114.883
117.925
113.602
117.547
114.713
116.766
901.474
118.059
116.115
117.643
116.211
117.816
115.028
115.588
115.557
115.953
115.353
116.572
115.769
69.318
691.366
692.652
685.179
696.243
698.916
70.041
688.866
71.142
698.976
702.995
695.298
703.841
697.607
70.487
703.055
704.506
693.063
692.887
696.539
70.137
692.887
688.866
697.191
695.416
698.142
69.838
693.708
690.085
698.083
686.672
691.775
693.473
692.652
687.075
699.155
66.645
695.121
694.002
691.483
693.767
696.539
69.731
69.648
702.573
697.251
702.452
696.184
702.031
687.248
694.473
467.607
695.239
58.46
58.124
588.463
592.635
595.435
580.252
565.824
581.199
578.817
58.435
596.519
590.244
576.333
569.918
57.849
589.607
592.635
594.485
580.129
571.708
679.834
685.064
683.749
689.098
684.778
687.594
683.521
690.783
696.303
697.845
684.435
683.863
688.403
694.237
676.969
57.849
571.907
572.027
58.306
588.083
590.117
588.886
577.186
570.315
581.158
700.231
68.673
681.361
684.092
691.016
687.133
687.133
68.432
690.201
684.664
684.835
683.179
687.364
684.378
688.635
684.149
681.417
687.248
68.558
691.541
688.461
688.288
688.866
688.346
692.301
687.537
691.892
695.534
69.277
596.302
587.114
592.421
573.991
578.858
564.187
578.286
583.476
590.457
592.164
586.651
587.999
636.766
705.234
706.999
699.454
687.075
693.356
713.402
709.141
728.178
69.026
688.982
701.971
70.095
696.362
679.158
687.883
686.442
710.741
692.887
723.931
728.631
70.167
715.146
691.658
682.098
684.606
702.392
666.667
678.258
679.608
672.965
681.304
681.587
672.026
681.701
671.916
693.239
678.539
683.407
676.913
689.736
710.494
686.212
68.261
679.608
68.673
711.049
704.749
689.678
685.064
678.427
691.775
700.291
685.007
687.018
689.156
683.008
683.863
672.468
581.364
676.354
591.232
583.635
590.084
586.925
592.891
609.038
470.939
588.101
598.294
596.438
588.587
598.576
604.507
583.345
605.323
601.785
592.465
59.837
596.244
581.839
600.277
58.256
590.929
602.383
589.528
587.648
592.678
600.683
576.526
594.692
604.285
586.286
600.218
603.286
510.702
47.04
476.627
482.001
468.032
479.181
595.166
58.704
593.793
607.282
596.602
593.962
607.804
583.286
60.415
603.663
604.658
590.042
596.446
605.793
591.529
593.489
612.047
581.674
589.745
614.144
590.822
591.825
604.948
592.126
593.317
59.837
585.944
574.382
602.056
589.076
582.395
604.148
58.983
584.661
603.242
591.399
585.394
602.584
593.876
584.215
606.513
594.296
584.993
585.922
608.606
588.985
592.593
594.989
597.448
598.806
593.576
589.957
602.447
606.534
582.969
594.259
603.398
587.051
596.764
602.207
598.142
58.301
586.519
605.348
586.978
593.788
474.838
475.202
595.156
59.537
596.137
593.812
594.856
590.183
580.613
602.163
586.866
579.393
587.355
586.405
510.743
584.604
583.174
584.604
598.271
501.026
474.829
599.638
595.763
537.038
59.717
607.744
60.353
585.976
603.073
599.884
586.614
582.453
58.321
588.957
586.814
583.611
586.844
584.853
580.877
583.257
583.958
516.679
586.978
584.646
577.762
58.751
571.704
584.774
581.165
584.032
57.068
581.839
589.426
583.028
584.371
536.696
582.248
595.886
576.697
585.338
588.244
599.091
583.942
586.969
601.932
590.355
589.426
608.932
591.319
602.408
605.323
58.348
584.598
60.384
596.395
580.305
602.188
595.605
588.128
59.421
60.139
584.305
598.185
599.638
597.352
588.085
604.214
58.574
585.989
606.747
590.685
592.338
604.237
587.843
354.233
357.035
355.024
350.805
355.664
338.848
352.253
351.807
291.214
290.321
356.895
356.693
348.937
353.545
353.889
34.966
354.855
350.978
351.573
354.978
352.087
349.242
35.239
355.432
352.708
354.295
351.467
351.377
35.487
355.378
351.309
351.392
352.967
35.497
354.609
350.475
348.863
355.301
355.024
352.261
351.068
352.701
355.332
355.085
352.997
35.242
353.981
353.484
353.935
344.513
362.422
361.406
368.089
365.649
360.159
352.807
352.268
353.446
353.996
347.989
350.041
354.463
353.058
352.746
351.226
349.012
329.791
294.523
291.458
344.491
347.686
34.81
289.347
294.026
291.676
290.992
292.467
352.481
354.325
358.968
349.682
349.451
351.754
355.109
352.405
354.279
351.648
353.119
35.517
350.115
346.546
351.196
352.579
336.835
292.217
351.588
350.123
304.258
311.039
352.777
350.258
351.641
348.811
355.386
351.143
349.921
356.368
354.149
352.549
348.233
351.845
352.306
354.663
35.217
350.318
354.073
352.754
351.679
349.503
352.026
351.626
354.325
35.043
34.922
352.473
353.043
35.061
354.909
352.072
352.079
356.515
352.913
34.896
352.359
351.249
350.452
35.091
351.701
352.701
354.678
352.352
348.203
352.443
353.706
350.655
35.013
352.526
330.563
355.633
365.641
348.588
353.568
35.421
349.831
351.377
352.193
350.332
352.526
351.174
342.769
354.264
349.339
328.897
35.031
352.382
349.899
352.989
349.205
349.891
353.744
349.622
346.722
351.837
352.268
349.279
35.183
349.958
350.003
345.953
342.232
341.989
345.851
345.939
344.014
347.428
343.862
343.128
351.641
348.285
346.795
352.246
353.805
352.185
293.027
351.482
344.303
346.619
35.076
34.426
327.333
271.474
290.472
289.063
291.245
284.066
287.313
286.382
290.868
287.523
290.081
287.155
288.438
287.526
284.828
283.727
284.101
253.886
227.819
284.642
28.324
283.551
28.558
252.663
285.824
28.492
284.485
287.496
289.958
288.628
28.564
284.351
284.548
284.426
28.502
266.814
266.649
284.879
287.988
285.119
25.638
287.797
272.031
288.948
287.397
287.435
289.497
287.496
286.733
289.655
289.328
28.786
284.296
283.018
285.369
282.966
285.541
252.924
284.582
286.176
284.007
283.772
284.981
257.189
281.625
283.372
282.961
282.996
28.3
26.862
282.967
282.606
26.395
28.974
282.343
285.267
275.544
287.845
287.078
287.382
288.301
287.547
284.027
288.676
288.629
287.437
286.112
288.399
287.228
285.759
236.285
286.701
278.591
284.712
283.381
284.368
285.729
284.237
290.042
287.685
284.355
284.904
28.43
284.307
287.713
28.528
282.034
227.797
228.388
288.374
288.073
28.182
229.274
287.872
287.811
283.403
283.298
282.252
283.802
282.915
283.971
287.701
288.749
286.735
288.859
287.811
287.368
28.76
287.832
286.421
287.945
266.753
277.446
287.192
227.651
285.903
282.524
281.568
284.361
284.356
242.718
283.679
284.398
288.243
242.556
289.077
285.987
28.77
289.619
273.923
284.582
285.394
283.391
28.446
285.605
287.522
28.656
286.299
285.724
286.485
27.582
287.187
28.666
256.247
249.814
285.117
228.356
227.897
229.508
287.537
288.117
25.295
256.713
284.137
287.472
287.888
286.643
287.444
288.616
227.578
227.275
284.662
280.047
255.649
286.969
285.888
287.408
255.785
276.775
287.653
288.104
286.461
284.413
284.312
278.381
288.016
288.735
287.262
261.069
287.078
282.945
1575.54
1594.98
1609.17
1609.65
1602.82
1590.36
1605.34
1608.97
1608.34
1599.53
1606.92
1594.23
1605.65
1626.57
1570.21
1616.44
1604.39
1600.63
1611.03
1589.43
1605.97
1611.67
1615.64
1588.5
1630.46
1540.34
1521
1621.27
1590.72
1624.04
1604.97
1638.03
1600.62
1644.57
1637.75
1603.25
1581.09
1598.02
1621.94
1672.67
1586.4
1697.69
1619.85
1601.05
1677.54
1595.82
1604.05
1681.49
1611.46
1607.22
1438.65
1445.87
1456.19
1444.88
1419.06
1445.3
1448.44
1377.43
1451.44
1457.49
1402.54
1442.47
1427.3
1441.9
1421.41
1429.89
1482.87
1434.73
1423.59
1478
1441.69
1409
1484.21
1427.97
1422.09
1469.95
1420.18
1430.86
1467.77
1435.56
1435.14
1346.02
1167.48
1192.32
1228.63
1437.78
1418.16
1432.62
1413.5
1433.11
1478.67
1444.44
1416.57
1484.24
1426.69
1432.29
1475.47
1453.7
1417.38
1476.05
1287.46
1287.9
1291.63
1302.08
1313.98
1279.63
1310.76
1321.78
1251.35
1274.02
1329.54
1297.78
1288.64
1259.14
1266.65
1289.88
1281.6
1295.13
1279.02
1266.65
1281.96
1089.1
1080.2
1177.69
1305.89
1246.22
1106.32
1320.74
1271.96
1284.92
1279.39
1295.02
1280.61
1276.85
1336.82
1269.16
1280.61
1325
1292.01
1277.7
1338.01
1282.31
1278.91
1323.7
1287.57
1279.15
1326.57
1294.12
1280.36
1318.53
1160.23
1175.85
1163.64
1170.96
1189.81
1149.48
1166.72
1155.81
1181.23
1198.76
1164.99
1160.05
1196.26
1157.03
1168.84
949.795
962.252
964.566
963.408
952.351
969.541
966.814
965.495
966.348
961.944
976.703
1167.93
1156.26
1163.52
1192
1162.96
1160.38
1173.05
1136.17
1168.04
1158.93
955.224
977.655
1166.46
1140.26
1158.37
1161.05
1173.62
1157.26
1155.09
1169.25
1201.15
1162.07
1163.3
1154.47
929.522
917.141
879.028
855.185
885.772
872.194
936.937
905.042
905.66
922.906
895.48
830.201
910.45
921.66
917.421
862.771
878.05
942.47
952.866
862.771
865.69
921.926
905.295
892.403
921.054
959.324
906.31
810.79
816.543
934.976
971.595
1006.83
983.019
1036.05
856.818
869.348
887.141
914.442
887.297
865.761
895.879
872.182
934.16
900.991
952.774
1047.84
866.391
901.879
937.544
818.104
791.398
760.08
737.317
821.527
863.577
731.429
814.191
804.224
805.017
763.497
795.538
837.896
749.862
814.577
838.053
852.847
777.772
863.557
788.349
767.475
780.203
817.537
793.43
817.467
804.296
867.533
791.97
818.87
880.251
815.538
844.432
813.766
781.085
763.898
761.685
783.537
815.242
764.342
863.253
799.288
737.673
796.243
883.591
828.242
813.987
801.427
807.374
751.556
780.746
861.416
753.231
763.137
681.242
578.296
556.64
552.44
555.473
539.802
703.575
732.317
752.796
729.593
753.376
743.649
709.308
789.394
766.657
749.571
752.659
744.158
762.223
772.774
744.434
729.57
747.411
777.784
762.295
790.559
740.389
731.362
722.423
778.613
726.506
724.702
787.461
729.967
773.369
739.196
721.899
751.664
761.932
758.16
733.595
747.462
686.87
528.083
573.889
574.281
599.288
575.536
713.66
712.95
706.834
712.004
703.377
698.116
728.71
732.034
740.89
709.211
718.297
720.442
736.163
722.731
701.03
737.595
727.087
733.247
727.02
737.185
714.943
691.591
739.445
727.153
710.16
701.277
732.438
715.778
707.069
741.649
714.493
721.225
709.4
736.98
736.435
708.138
752.585
711.874
722.599
688.958
783.468
724.572
722.993
754.011
714.173
706.505
729.886
762.094
701.834
720.116
974.429
966.412
990.28
971.773
961.572
980.361
962.406
963.986
979.4
978.92
968.005
940.733
992.248
832.833
831.515
827.792
839.627
830.408
800.385
840.263
829.167
816.954
798.72
806.267
819.301
809.929
823.423
803.606
963.893
893.983
813.957
809.47
805.486
811.18
801.735
792.381
796.617
800.963
802.121
798.848
797.699
799.616
956.413
956.505
972.531
957.147
975
981.711
958.341
960.277
889.38
886.154
886.751
896.76
749.268
777.131
774.844
761.087
886.239
895.018
887.178
916.741
902.291
895.279
917.471
889.06
889.404
894.497
893.629
895.801
893.196
903.884
894.497
905.927
892.332
916.559
884.283
867.307
920.128
892.159
893.456
919.944
887.776
914.647
897.115
897.463
914.015
913.925
896.594
903.324
913.385
890.649
899.903
892.088
866.272
931.65
902.92
882.177
930.354
893.108
835.046
824.956
862.442
842.315
842.476
846.525
849.629
831.813
845.469
841.188
833.15
841.108
847.666
843.04
839.825
833.072
854.161
748.844
843.04
862.95
774.598
706.83
802.698
838.385
816.239
840.065
723.14
692.055
745.61
825.11
835.363
837.269
834.888
823.798
825.961
823.105
834.572
835.601
838.944
816.239
828.37
828.214
834.334
838.465
827.28
828.058
829.384
818.667
815.181
834.651
779.798
775.454
772.135
778.574
780.872
749.457
789.259
791.069
775.303
777.429
791.542
782.334
776.669
781.756
769.257
787.537
750.818
776.965
786.064
792.381
789.873
744.172
794.588
775.231
793.641
798.48
774.179
788.081
770.922
781.034
784.958
779.621
802.365
782.393
777.462
807.539
788.837
769.961
802.365
800.708
780.144
800.157
797.492
764.107
762.319
810.594
636.796
664.447
788.226
797.024
517.792
481.72
488.772
485.252
479.187
474.734
526.363
507.414
481.85
460.35
484.848
466.248
447.552
498.101
485.374
475.206
470.918
453.786
512.574
477.352
466.741
484.785
506.931
488.727
472.2
484.319
480.791
491.228
523.466
480.472
458.561
508.946
489.484
480.624
475.268
505.168
491.587
484.368
482.213
523.415
478.249
503.748
490.679
498.038
498.741
497.908
487.213
478.888
470.959
492.488
413.062
410.088
414.713
417.668
433.207
431.66
433.337
415.956
432.293
423.023
432.047
431.188
437.985
448.99
430.13
421.965
439.178
416.946
426.618
421.614
430.862
419.904
436.81
430.293
437.145
417.213
452.962
424.797
425.194
434.768
430.487
432.827
413.578
432.745
440.441
432.006
447.667
425.884
422.356
443.182
435.866
443.225
434.934
423.008
415.425
407.986
443.873
419.122
421.653
436.057
409.161
384.927
419.756
393.625
409.36
403.653
403.034
399.657
408.643
408.453
401.876
391.908
417.878
412.002
410.813
400.447
398.961
397.707
400.484
404.856
417.351
392.982
395.876
398.85
412.903
392.301
413.698
400.186
391.16
391.302
409.912
398.634
404.857
411.048
407.736
401.831
399.628
420.493
400.745
395.731
412.033
399.926
403.945
410.03
409.99
402.395
412.666
413.459
389.283
399.48
391.538
364.329
392.279
392.669
389.912
396.86
377.983
395.541
400.832
379.793
388.288
398.961
384.32
391.615
384.57
396.747
396.747
385.141
385.248
410.411
381.422
371.513
398.424
387.155
388.206
402.25
385.32
388.351
389.226
412.821
397.66
398.654
386.613
389.757
386.325
397.66
397.089
386.902
307.724
389.738
401.394
379.259
392.616
399.846
387.951
388.169
400.232
396.444
383.929
390.398
499.602
524.63
542.969
536.334
523.141
525.727
549.935
524.232
527.634
494.421
534.106
528.996
539.684
548.408
524.929
526.178
551.966
517.268
526.528
522.104
536.75
526.178
524.63
532.204
531.948
524.53
539.842
543.824
528.541
533.694
529.572
527.045
543.315
537.764
532.728
532.074
544.418
527.984
521.192
545.155
533.384
526.848
521.723
543.629
535.616
530.12
546.266
530.22
527.094
543
506.449
499.606
525.335
507.656
505.008
520.712
512.345
507.414
513.283
524.869
507.607
491.626
429.454
424.761
484.029
449.844
512.197
528.411
503.194
506.449
520.967
510.185
504.481
521.069
518.885
503.337
504.433
526.686
509.745
501.346
520.102
507.995
501.583
521.324
517.222
498.343
504.768
526.947
502.577
502.245
521.171
513.432
507.656
514.523
522.757
507.027
507.559
520.661
507.462
512.197
486.276
483.658
505.679
489.063
487.851
506.229
493.637
483.978
496.653
504.682
482.2
476.323
499.123
489.671
491.977
500.049
494.543
477.701
494.925
498.103
487.341
469.466
415.113
397.886
405.834
410.092
407.546
406.672
407.449
408.652
406.575
404.2
405.577
407.254
396.653
403.977
404.136
401.506
405.352
402.991
402.991
401.38
397.763
442.639
484.94
451.738
504.682
486.184
487.248
489.297
465.23
476.468
475.855
471.243
471.012
468.516
467.58
482.545
472.661
467.18
425.853
388.922
445.661
465.058
444.131
392.776
473.983
468.471
475.312
480.188
474.257
468.471
483.542
467.58
468.963
463.217
477.668
467.624
470.399
486.557
466.648
463.305
483.446
467.891
469.904
483.114
474.899
465.896
471.618
485.644
467.669
466.648
483.684
471.663
469.949
478.831
478.412
471.211
472.434
486.798
236.751
244.883
240.76
235.901
236.971
247.152
229.37
238.993
239.499
250.907
234.196
232.242
240.007
239.63
228.858
236.884
239.118
240.24
233.184
231.968
247.195
229.985
231.543
237.565
222.744
231.277
236.621
229.358
232.662
233.747
230.467
241.92
242.515
246.272
241.646
231.444
229.767
233.708
231.695
230.651
238.228
229.338
232.927
242.736
233.491
225.597
229.338
229.803
235.897
236.665
205.132
209.898
211.758
204.744
215.188
208.747
210.956
211.63
203.597
207.938
208.38
192.613
170.035
210.897
204.15
214.063
206.869
207.804
212.248
208.419
217.536
208.631
209.349
211.988
209.875
211.114
206.603
208.67
211.193
217.872
208.207
211.65
206.489
206.584
206.964
206.225
211.709
211.909
204.8
203.631
213.354
211.193
209.174
215.972
210.681
208.709
209.485
207.717
210.719
209.543
197.245
194.936
197.626
199.789
198.047
195.775
198.194
198.67
201.518
204.839
196.934
194.73
202.486
202.276
194.132
200.616
202.067
197.453
192.792
197.067
200.56
201.897
198.56
195.207
195.384
196.043
202.333
201.821
197.702
196.905
197.993
200.754
196.348
200.709
202.086
194.395
202.257
206.333
201.897
197.538
205.465
201.783
197.357
198.077
204.878
198.927
196.186
194.395
204.937
200.429
190.167
191.817
188.686
190.636
196.037
193.884
188.408
196.018
192.174
193.848
191.473
192.03
193.848
194.473
189.893
195.588
197.379
190.317
194.344
199.922
193.756
192.59
199.61
193.025
190.636
197.398
196.658
187.632
193.573
199.338
190.742
200.529
194.197
193.646
192.535
200.463
199.048
189.946
200.352
201.595
189.893
193.025
197.455
195.048
179.978
188.253
201.416
189.647
191.473
191.958
277.426
277.48
278.126
277.453
278.342
276.197
275.269
274.216
277.48
282.316
275.958
276.517
277.829
275.984
276.543
275.56
273.771
281.181
279.264
276.703
279.427
278.911
279.509
280.658
276.517
276.944
278.234
276.303
275.507
275.56
269.829
280.493
284.163
275.798
276.011
275.269
278.558
277.399
275.851
228.918
278.938
276.383
194.466
276.33
277.104
272.558
275.343
279.807
287.291
282.977
253.104
272.056
272.963
268.54
268.113
267.164
269.019
268.842
266.023
271.798
273.797
270.874
269.981
267.587
257.656
268.49
267.338
268.364
269.753
270.134
271.156
270.823
273.588
270.287
268.59
269.17
267.114
268.364
270.618
271.335
272.781
271.079
273.457
243.561
225.126
224.896
260.063
259.593
269.575
268.339
259.428
268.993
267.837
273.431
272.056
226.423
245.018
272.289
269.854
270.772
279.836
278.992
264.282
264.282
261.201
216.72
232.425
261.51
255.68
263.239
263.942
265.138
265.752
263.966
267.888
267.612
266.567
262.853
263.142
263.457
262.132
263.626
262.636
264.477
264.697
265.015
264.722
265.064
266.592
264.551
263.966
252.172
228.918
267.213
270.593
266.791
266.147
263.845
263.626
263.215
262.012
264.331
261.917
263.433
266.493
263.942
266.468
265.604
264.551
265.555
261.045
258.611
247.85
257.96
256.394
262.849
259.949
261.584
263.083
259.721
257.088
257.96
255.288
256.543
259.089
259.949
259.468
257.535
260.28
225.914
217.374
235.527
258.06
258.888
258.611
256.84
256.79
258.711
259.241
260.764
257.96
258.36
258.009
256.691
256.889
255.828
259.014
262.228
260.662
260.178
256.79
256.716
256.617
257.96
258.36
260.636
261.918
257.984
260.025
252.48
114.402
113.484
112.276
111.587
111.405
114.233
116.375
111.267
113.066
115.434
115.836
110.69
114.531
110.543
109.729
109.989
107.988
111.516
110.803
107.263
110.668
110.743
109.343
111.547
112.291
107.922
108.918
115.953
110.444
108.57
109.568
108.179
111.537
111.133
114.734
109.92
111.012
111.254
113.918
110.813
110.325
111.628
111.698
110.813
112.311
110.443
110.335
102.517
880.482
830.495
981.501
97.209
981.407
984.142
988.036
100.108
971.386
980.186
976.447
698.146
970.602
985.468
979.406
980.561
962.417
976.633
97.209
962.587
98.367
987.083
954.957
961.502
952.647
977.286
968.413
961.322
974.032
100.516
977.566
999.805
929.979
99.321
981.877
978.663
98.985
968.871
978.941
968.688
994.851
973.754
959.321
998.343
980.561
991.768
977.006
975.052
971.998
978.967
782.217
759.813
723.803
92.611
911.113
931.671
937.214
96.042
949.819
90.901
943.431
955.402
923.771
934.477
94.109
905.153
934.307
93.371
921.017
926.194
91.921
939.363
904.035
935.331
917.316
927.284
914.041
930.064
918.798
913.226
926.026
904.753
923.438
917.316
901.408
910.384
912.467
921.443
919.296
928.882
915.839
930.994
923.771
920.946
931.332
920.119
928.125
952.647
913.608
932.605
916.331
91.888
904.674
893.933
907.801
884.895
896.202
883.444
885.277
895.575
899.903
891.831
897.616
89.028
90.26
900.933
900.141
89.864
903.078
882.606
880.784
892.064
896.987
893.855
90.125
893.777
899.429
905.554
904.114
894.636
879.347
893.661
878.593
911.437
849.229
74.902
903.636
918.056
938.097
764.464
668.931
671.828
858.926
904.194
932.945
925.273
890.745
894.558
899.113
919.045
943.953
910.222
143.167
142.432
112.706
117.062
140.442
139.391
143.38
143.029
143.669
141.29
141.083
138.777
138.824
140.865
144.518
141.767
138.413
138.871
137.739
141.193
144.302
142.124
139.51
138.789
138.73
141.841
144.85
141.035
138.753
139.879
138.472
143.229
143.593
140.768
140.394
140.708
139.688
142.124
142.532
141.156
139.13
139.296
139.083
142.185
144.454
140.37
139.083
138.052
138.953
140.853
145.623
136.42
137.357
113.126
116.298
117.642
119.679
112.396
137.196
140.274
142.111
139.605
138.636
137.854
135.427
141.132
109.467
144.035
139.178
138.671
138.554
137.415
141.388
142.532
140.298
137.185
137.773
137.577
139.819
142.88
139.178
137.785
132.836
139.379
141.583
116.322
115.845
116.248
115.234
116.075
116.471
115.137
116.703
116.562
116.778
116.604
117.079
137.982
139.986
139.332
121.878
138.355
137.047
136.716
138.542
135.674
135.989
136.227
136.386
136.99
138.847
137.208
136.102
135.708
134.87
135.495
134.659
135.82
138.472
136.75
134.229
136.545
136.59
140.539
139.071
136.99
136.08
136.283
138.402
140.647
137.219
137.461
137.024
136.99
137.208
140.72
141.498
137.519
136.784
135.282
138.238
140.322
142.569
139.107
136.944
135.922
138.262
140.659
141.865
138.425
138.157
138.847
136.215
136.17
133.54
134.13
134.659
138.133
139.581
136.454
130.758
133.736
133.312
136.613
139.795
137.277
133.29
134.726
135.854
138.25
138.332
138.918
137.013
133.366
135.607
134.527
138.332
138.472
136.476
135.472
133.649
134.394
137.105
138.789
111.229
109.938
138.413
137.093
134.009
138.029
135.248
132.471
135.103
136.159
135.416
135.193
134.803
134.626
134.218
135.193
523.788
533.681
542.874
541.298
552.128
528.891
522.083
530.707
543.128
500.948
553.252
530.512
538.185
508.094
530.879
533.333
531.637
538.912
529.672
534.621
546.315
531.885
530.398
528.516
538.558
546.061
544.427
536.243
520.539
535.034
545.116
537.745
541.691
523.216
51.975
544.347
538.699
524.891
543.597
524.924
516.943
528.857
541.047
52.855
527.528
526.952
533.506
516.422
526.749
520.111
462.668
465.085
47.227
464.953
466.292
457.807
467.767
471.998
467.153
46.766
470.778
468.195
466.994
472.243
464.215
472.434
47.376
471.048
461.911
465.343
473.334
466.621
460.509
465.852
463.506
465.534
471.075
471.668
467.847
474.733
457.957
47.257
46.763
470.615
466.409
471.208
474.404
467.379
472.597
47.075
470.561
473.542
472.843
477.974
480.159
501.101
466.409
461.938
492.959
477.222
453.674
452.522
442.524
457.015
452.572
44.969
454.253
455.744
460.121
430.705
453.273
45.006
451.101
441.451
454.404
454.203
45.063
444.469
452.472
454.656
444.084
443.122
450.161
442.237
443.578
442.883
448.484
44.329
444.855
438.122
44.841
439.927
445.823
445.214
449.074
443.626
43.337
438.755
440.762
442.333
447.235
449.369
443.866
448.975
448.452
442.907
447.455
431.908
445.944
440.233
415.268
430.772
433.898
430.886
433.623
429.801
435.143
433.393
435.629
429.058
433.073
426.445
440.075
430.818
43.225
432.341
436.511
432.775
434.497
432.821
427.513
414.827
383.628
333.116
322.825
314.376
439.082
432.707
428.721
447.113
440.857
438.802
411.162
45.453
43.77
438.192
442.883
44.609
439.179
442.835
439.273
443.266
428.981
439.509
438.988
43.965
432.933
444.131
433.967
43.742
699.215
687.652
696.658
693.826
699.274
698.559
715.084
647.999
694.296
719.606
696.836
718.533
715.334
71.272
703.841
702.332
698.559
69.844
701.851
666.938
694.826
693.121
695.829
699.693
707.793
715.084
71.334
709.571
720.113
716.334
724.571
702.935
706.938
690.318
696.421
709.325
562.637
710.186
71.715
710.988
699.095
709.141
706.938
706.938
692.594
697.607
691.133
702.513
700.051
695.416
696.658
703.116
70.908
710.988
714.585
69.459
717.024
721.953
716.522
696.303
70.113
69.055
694.767
697.132
687.075
694.178
693.121
695.829
694.473
692.301
689.795
69.648
696.539
671.365
597.651
689.272
687.883
696.954
696.421
694.296
679.552
691.833
689.969
694.885
69.055
688.114
687.364
575.281
594.528
56.881
602.885
690.201
68.823
683.863
690.085
695.593
684.206
698.738
689.678
680.512
678.202
68.627
683.578
692.301
684.664
679.608
685.007
687.537
667.373
691.366
686.097
677.417
683.692
68.65
446.869
686.385
685.523
681.417
683.749
690.783
645.344
69.844
700.051
692.887
687.018
678.427
683.236
684.549
681.134
691.833
698.559
693.063
70.378
712.968
71.142
706.329
710.433
713.775
70.161
703.841
676.857
699.334
68.604
685.638
684.664
68.962
69.195
684.435
685.523
68.006
683.236
689.678
689.388
587.072
586.148
568.691
690.842
687.364
681.701
680.399
682.326
596.824
571.588
557.052
711.482
70.059
698.083
694.473
695.534
687.999
687.306
682.553
672.192
677.249
682.724
65.641
685.236
682.724
677.417
693.297
697.666
703.116
699.633
708.651
714.772
706.877
708.467
710.186
694.944
693.826
685.695
698.083
69.055
688.577
685.179
681.644
688.809
679.158
682.894
687.191
247.964
244.472
245.762
242.417
243.315
241.995
243.454
24.393
246.465
244.264
247.792
23.857
242.073
243.099
245.543
243.245
246.606
24.645
241.178
246.664
243.337
243.749
245.213
24.461
245.203
244.152
250.696
246.169
244.769
241.403
24.274
241.206
242.942
243.267
246.383
182.253
235.687
24.323
230.219
212.553
244.971
239.224
245.858
238.987
186.711
180.628
197.831
23.666
247.796
182.894
192.916
215.457
216.959
216.239
216.188
217.948
216.376
217.231
215.454
159.108
214.428
217.971
216.211
220.322
215.931
215.675
189.924
217.387
214.506
216.806
183.194
211.877
213.006
214.991
188.556
164.889
170.638
212.935
213.705
216.702
212.344
214.523
21.31
214.641
163.126
214.288
213.946
212.698
213.367
212.393
19.334
186.925
162.501
162.507
161.295
208.967
212.016
212.373
214.855
19.548
201.048
150.617
206.603
205.354
204.718
20.614
205.741
202.998
206.441
206.389
205.979
171.758
151.912
206.647
204.908
203.427
207.198
205.313
20.478
201.461
208.538
204.111
203.852
203.435
203.822
203.462
202.853
203.563
206.504
170.174
205.015
205.628
205.508
204.774
203.931
203.888
20.667
205.236
203.028
205.133
198.594
151.856
172.889
202.727
204.534
20.519
204.093
202.442
207.052
204.493
198.623
196.324
200.352
163.539
19.57
196.862
192.017
199.028
200.039
194.728
196.706
194.718
196.621
196.724
197.664
19.585
146.613
197.579
180.536
202.192
198.258
199.436
201.021
196.866
196.994
199.227
199.513
19.797
195.215
195.953
19.528
197.065
195.817
196.079
196.328
194.165
19.521
198.095
193.641
18.557
193.322
194.206
195.518
196.474
19.339
19.614
196.216
19.298
180.036
197.383
348.774
347.229
347.097
293.294
294.396
29.179
334.675
348.677
349.324
349.772
348.344
348.255
348.744
347.075
348.507
349.876
350.452
293.184
351.106
324.867
292.013
356.903
352.268
356.112
35.66
352.845
355.347
354.893
35.146
354.663
351.543
353.774
354.463
36.031
330.936
354.962
324.725
290.455
29.206
29.371
327.687
353.584
356.453
354.448
353.744
355.001
352.162
354.647
354.939
351.196
353.461
354.847
330.743
300.596
351.121
348.418
348.477
349.302
344.934
346.715
290.857
308.678
348.262
348.314
349.473
350.123
345.683
352.011
355.024
355.401
350.775
355.671
351.603
349.667
356.701
353.759
351.618
354.318
351.528
352.967
352.906
352.094
353.149
353.904
35.289
353.706
349.943
353.706
352.306
351.354
355.656
355.911
351.867
355.047
352.792
35.049
354.141
352.094
352.792
356.368
324.635
316.587
347.339
348.677
349.466
301.226
311.999
348.018
348.077
345.793
346.825
347.915
330.796
345.815
34.196
345.552
344.397
348.366
344.803
345.406
348.692
34.505
347.119
344.839
346.605
347.016
346.597
34.72
34.742
292.243
290.023
291.577
291.504
347.856
315.028
293.589
290.054
292.284
291.271
291.395
349.309
348.225
346.019
346.957
348.522
347.538
348.322
347.605
347.944
346.377
345.822
345.392
345.363
344.231
343.646
343.696
354.295
351.694
349.764
347.524
343.797
34.599
345.384
34.588
345.028
34.731
318.922
345.195
346.524
343.235
346.605
345.727
344.709
345.064
338.898
344.368
347.266
347.937
29.043
348.625
350.003
352.261
349.839
347.767
348.945
334.415
351.445
349.951
34.81
354.141
292.822
291.598
291.401
310.056
329.751
291.059
288.096
293.778
290.605
291.225
106.047
103.422
103.737
102.865
104.592
90.067
10.413
102.962
915.383
105.208
105.233
104.777
848.459
769.808
105.522
10.387
104.558
103.501
786.422
824.547
798.378
789.092
979.654
104.557
105.724
105.421
98.109
886.995
900.525
877.964
103.991
10.379
102.652
102.675
102.255
102.244
103.955
943.839
776.346
780.566
786.337
102.642
777.575
783.242
827.547
105.244
103.892
102.701
805.752
791.452
693.341
690.169
689.989
698.209
689.116
693.641
87.965
934.872
92.633
93.715
887.796
891.661
836.389
936.159
927.846
81.213
931.544
925.854
870.725
925.853
91.319
844.066
826.256
935.918
934.862
9.342
925.524
868.183
922.554
737.559
792.501
869.782
91.902
933.827
933.935
927.316
575.728
83.489
716.303
927.074
816.262
906.656
701.517
690.459
881.829
925.545
757.576
91.142
776.438
714.205
855.611
881.557
871.703
860.211
839.043
863.479
86.764
867.571
702.775
866.672
86.106
685.016
821.039
859.146
679.992
844.562
677.148
884.388
858.493
881.486
868.975
867.503
87.462
875.097
875.321
874.252
862.543
708.139
88.425
878.009
875.288
864.053
691.151
815.607
863.111
861.939
861.282
856.348
807.826
654.512
652.544
856.657
863.297
87.808
80.555
86.502
858.538
86.174
863.243
873.538
856.362
850.406
844.084
859.571
856.407
854.214
858.907
863.971
746.189
843.862
839.985
833.944
854.964
856.022
851.511
852.064
840.145
790.562
704.612
823.801
855.517
706.088
850.317
847.994
838.975
830.406
836.046
830.048
844.747
854.223
855.946
853.173
849.863
854.219
852.374
785.962
856.545
766.797
780.194
851.971
858.651
851.316
85.808
855.526
852.303
8.604
740.055
784.666
857.182
795.066
1631.8
1628.39
1628.08
1670.67
1637.28
1635.05
1669.68
1643.05
1635.85
1650.96
1641.12
1616.63
1646.27
1649.18
1634.73
1639.04
1644.82
1617.88
1626.81
1666.86
1611.67
1622.88
1614.13
1614.44
1670.39
1641.22
1590.77
1658.37
1612.27
1621.44
1675.05
1625.36
1610.57
1677.89
1637.7
1691
1626.9
1665.51
1659.05
1635.76
1609.02
1605.55
1456.57
1623.51
1616.46
1596.27
1621.2
1614.94
1604.2
1610.68
1429.22
1418.75
1418.75
1435.73
1448.04
1437.15
1422.64
1401.62
1426.42
1450.94
1444.87
1430.49
1420.97
1441.72
1433.6
1444.87
1434.02
1415.7
1428.52
1412.81
1435.59
1441.72
1425.01
1420
1427.12
1417.5
1448.62
1433.46
1414.32
1415.98
1434.45
1430.21
1430.35
1428.38
1415.98
1431.06
1445.9
1427.23
1415.19
1388.79
1416.84
1446.04
1444.04
1439.91
1430.59
1431.71
1434.53
1453.53
1437.49
1427.93
1273.83
1269.21
1293.94
1291.87
1279.62
1284.19
1256.66
1284.82
1291.87
1272.83
1263.4
1274.96
1293.03
1281.9
1304.41
1284.13
1300.88
1280.5
1280.12
1297.19
1298.71
1290.11
1286.72
1256.67
1329.67
1286.31
1286.31
1321.13
1307.89
1279.4
1311.17
1282.66
1114.23
1098.71
1346.3
1273.99
1184.15
1073.16
1068.94
1059.09
1072.65
1055.22
1082.75
1082.15
1102.19
1111.04
1127.94
1114.78
1105.7
1112.04
963.113
990.574
976.048
944.024
949.32
969.038
963.428
978.44
1002.83
984.615
996.265
954.276
965.488
968.333
970.824
966.221
997.435
1005.31
1004.02
973.886
955.17
950.714
977.812
973.142
985.663
1012.7
1009.59
986.522
981.013
949.385
961.389
969.531
974.818
977.906
1016.95
1003.43
995.097
984.33
965.672
953.383
966.496
970.917
984.806
991.804
987.957
977.906
1007.69
972.492
959.488
964.118
1117.97
1193.64
1157.04
1147.86
1204.77
1184.56
1186.79
1186.01
1223.42
1190.03
1128.34
1166.75
1256.13
1184.34
1263.07
1217.87
1037.99
1251.33
1147.27
1221.05
1212.82
1238.87
804.478
1016.97
1255.1
1263.33
1120.11
1253.24
1304.16
1068.11
1026.65
996.643
918.202
916.207
970.933
918.504
961.484
959.429
930.635
994.492
887.716
1014.47
978.067
960.183
951.931
959.369
943.761
980.713
1150.3
1206.6
889.168
860.382
1088.45
1026.47
1080.5
1096.41
1064.77
1084.48
1054.1
1058.82
1130.05
1078.1
1086.65
1082.41
1043.27
1117.19
1068.57
1054.49
1064.57
1059.01
1159.39
1029.85
1044.42
1173.64
997.665
1042.6
1083.65
1068.07
1061.09
991.746
1095.9
1027.33
1024.65
980.116
1112.83
1053.13
1052.05
1085.62
1124.27
1104.35
1113.15
1155.78
1034.41
1054.45
1086.05
1084.83
1154.51
1064.02
1065.69
1059.1
956.271
945.999
926.015
986.779
935.403
767.026
776.367
733.492
708.308
904.494
945.246
971.715
943.624
979.357
969.194
949.666
919.034
969.846
952.986
987.997
736.449
803.178
774.566
709.61
751.819
865.266
917.446
937.921
1029.18
960.335
963.178
946.108
976.533
734.724
813.878
951.628
943.9
939.777
969.604
952.345
808.766
788.399
803.432
748.372
781.03
743.311
744.789
779.105
729.845
716.807
677.302
670.559
629.432
642.549
663.834
676.906
726.136
748.598
891.338
663.417
664.024
698.853
658.883
639.307
678.474
701.813
843.278
904.828
915.171
893.53
877.347
817.163
848.352
881.441
896.583
894.291
892.18
834.709
875.072
726.814
686.412
689.518
676.531
703.8
677.113
649.059
712.452
680.282
708.498
699.008
880.947
872.566
878.081
889.787
843.127
876.046
800.61
859.545
925.483
852.409
963.825
945.277
960
966.134
963.633
966.81
961.622
960.858
961.144
965.363
961.049
966.713
954.696
959.144
954.979
958.954
966.906
956.206
833.265
825.458
803.22
822.611
936.257
957.525
961.857
963.563
833.976
819.715
813.442
856.697
949.345
963.088
955.093
961.101
824.206
817.796
821.16
817.796
817.317
811.417
814.526
807.331
791.518
795.963
804.541
802.363
806.532
842.889
812.766
815.137
768.177
753.233
730.125
738.018
736.203
745.084
752.504
925.454
892.653
904.787
868.767
889.5
896.517
752.394
745.472
761.369
748.286
744.936
739.556
735.296
731.486
732.521
742.798
742.62
744.876
744.519
741.793
734.079
740.143
735.006
738.325
744.638
761.369
739.145
740.555
742.029
742.976
845.36
883.512
890.435
888.736
892.567
891.116
885.779
893.166
906.107
889.84
880.423
888.652
891.457
833.582
836.371
821.417
832.031
827.979
838.351
848.478
827.173
835.795
826.931
706.735
713.919
723.336
713.799
724.94
711.707
718.08
723.09
753.208
835.22
835.22
829.271
833.827
717.838
718.445
824.925
843.761
822.291
826.851
829.352
821.973
840.839
833.582
837.855
826.69
828.382
824.525
829.838
841.922
820.703
821.735
822.928
821.337
839.593
829.19
818.569
806.452
828.382
826.368
827.334
684.396
650.577
775.681
770.114
773.612
646.337
642.204
637.293
638.8
646.177
647.994
644.847
644.369
638.956
640
648.799
653.562
653.835
657.016
668.681
673.221
670.054
665.217
675.66
783.282
775.681
771.251
649.498
652.039
652.963
650.091
652.691
654.874
663.19
666.576
674.496
666.746
662.517
668.396
704.081
777.517
776.292
700.56
652.607
658.383
656.738
786.365
771.384
782.257
780.411
721.523
723.639
726.604
731.83
717.002
727.64
679.605
732.491
764.53
789.269
724.363
702.966
733.996
735.79
733.353
715.097
687.845
746.739
733.067
717.471
744.581
750.784
737.795
727.674
709.534
722.101
720.195
718.227
741.814
696.754
715.55
717.846
750.073
729.414
723.573
728.008
698.944
570.834
612.008
735.854
725.142
575.874
597.34
609.185
727.34
756.817
732.89
693.579
736.479
733.469
678.213
658.3
678.864
697.452
672.983
694.38
746.677
668.432
667.805
680.059
670.763
670.195
686.934
692.228
683.979
671.967
710.401
652.319
654.78
699.242
673.748
692.97
676.309
694.277
666.69
680.968
678.113
657.867
686.099
698.174
557.918
689.012
667.018
707.325
608.638
665.993
695.747
670.553
679.927
682.732
663.2
683.519
689.278
696.974
671.65
691.019
702.963
663.571
704.541
710.047
616.751
615.477
577.511
467.847
487.184
613.633
537.136
489.184
461.261
471.177
574.474
620.136
643.077
642.447
646.63
606.197
622.847
605.168
637.837
648.929
630.025
620.807
637.335
651.361
622.824
651.602
658.214
599.129
652.584
660.348
616.752
609.831
629.766
619.105
633.302
632.627
621.185
648.543
646.59
628.221
621.649
644.212
615.385
627.865
636.84
624.681
632.695
633.532
627.193
642.945
593.419
578.864
594.71
601.699
577.571
580.654
595.698
590.846
601.936
594.42
585.846
586.975
588.335
593.089
597.509
582.152
577.024
603.546
594.826
584.609
586.792
603.109
582.301
580.05
594.072
613.383
586.041
579.836
609.269
594.123
614.896
594.513
599.396
609.29
458.331
430.924
449.95
465.43
460.291
460.425
588.888
602.296
591.971
580.329
595.572
589.052
591.191
437.486
450.301
452.774
442.094
433.439
438.74
461.175
439.249
441.538
443.41
482.734
524.404
525.491
525.698
522.449
521.528
527.365
530.676
531.523
517.172
527.887
520.916
525.128
532.427
524.507
516.119
527.835
524.921
525.75
528.989
531.789
523.373
525.698
526.426
525.854
528.516
527.051
518.835
524.094
522.039
523.013
531.629
528.621
526.27
526.53
527.469
522.654
528.306
527.989
525.128
528.967
519.697
531.766
509.199
427.129
519.694
499.464
501.431
514.225
477.989
465.658
520.865
509.014
513.778
427.729
416.879
420.501
421.933
418.222
414.93
446.562
516.319
501.961
514.871
524.663
511.41
504.72
526.999
511.263
511.066
523.425
513.878
494.87
512.443
525.284
510.136
501.961
502.624
499.465
504.338
507.704
506.304
507.995
504.864
499.325
504.386
508.723
505.967
514.324
506.304
503.813
504.433
507.752
408.267
420.164
413.414
408.866
395.491
400.128
413.857
414.438
417.299
402.277
392.552
481.582
492.549
485.538
486.923
501.617
491.363
490.14
501.813
386.124
483.566
488.224
500.88
480.706
483.475
501.813
494.161
483.11
488.27
505.429
493.542
482.518
505.13
487.712
485.769
505.031
488.456
482.928
472.15
493.114
488.363
476.235
501.322
479.67
484.665
501.175
396.132
398.103
489.999
495.212
465.23
468.947
475.772
464.443
473.389
475.128
468.561
478.132
481.316
467.802
473.161
484.925
471.166
466.515
483.351
473.754
466.338
478.598
485.021
467.002
471.527
485.5
468.605
465.543
484.113
472.388
463.392
482.877
479.204
469.68
474.166
476.233
471.527
468.07
482.782
461.434
463.261
484.495
472.297
465.984
481.693
479.204
466.249
463.348
480.094
459.536
467.136
479.018
484.399
468.829
387.352
406.467
387.073
387.355
400.15
398.141
392.227
400.343
398.802
384.187
385.28
395.665
393.539
393.366
395.441
416.013
385.917
391.204
403.253
396.15
374.891
403.994
414.207
389.318
390.803
409.69
402.261
389.371
387.7
381.812
386.878
397.724
398.26
388.095
392.044
377.249
404.509
388.619
382.577
389.462
384.546
384.998
399.663
404.12
390.619
388.626
404.899
394.846
389.824
390.731
374.646
366.705
380.409
367.823
375.236
372.257
369.991
384.051
374.334
388.591
366.127
376.13
373.429
369.289
382.39
376.58
377.164
396.766
366.714
366.956
377.493
381.191
379.444
367.649
381.836
379.889
370.873
381.453
378.264
375.598
371.937
369.83
381.799
373.723
371.298
374.911
380.26
379.852
368.764
374.875
365.723
371.262
381.154
378.154
373.292
368.76
375.49
374.101
374.839
380.037
356.333
354.045
357.81
354.427
357.935
364.377
357.002
357.833
352.462
354.378
331.57
353.951
362.72
359.228
351.186
353.612
350.352
352.428
353.544
347.119
359.792
357.695
356.14
350.152
288.903
362.371
367.888
364.557
331.005
290.199
285.235
352.873
356.023
371.014
363.364
361.182
357.434
363.086
358.143
352.578
373.06
360.666
366.705
356.023
360.186
359.022
358.754
367.417
351.4
354.856
336.744
356.333
343.822
349.697
354.01
344.11
344.947
341.659
303.01
343.164
339.587
336.756
333.271
341.496
341.431
339.394
344.208
340.62
344.582
305.802
343.328
338.977
343.855
341.138
349.693
335.423
340.62
339.233
342.868
337.954
335.141
333.675
351.385
342.868
347.657
348.198
348.74
341.952
346.766
351.683
344.218
342.704
335.549
339.973
339.041
334.19
340.879
339.137
343.525
343.492
276.197
278.477
274.741
274.505
275.772
276.25
274.399
277.695
275.242
279.128
270.593
277.641
267.888
274.399
274.426
270.185
278.775
273.197
279.236
273.901
273.457
275.958
275.984
277.104
277.668
280.493
277.104
276.837
273.875
271.618
274.899
272.522
275.772
279.891
278.639
280.575
278.261
273.928
273.249
277.078
266.965
277.964
277.641
279.945
277.829
275.11
277.238
230.149
226.889
229.486
225.906
270.185
275.058
280.878
274.873
272.548
276.73
274.82
271.824
269.981
275.163
274.689
270.516
273.875
283.769
274.399
268.113
279.019
272.833
269.6
269.474
279.918
275.031
270.644
273.041
281.567
269.93
271.798
278.099
274.505
269.905
270.338
279.891
273.275
273.588
272.005
282.121
272.989
271.901
274.794
281.872
270.516
269.322
280.658
275.375
270.823
271.695
279.4
274.032
272.496
224.254
217.57
219.146
217.801
232.504
264.915
266.592
268.892
254.41
268.414
272.522
267.563
263.433
270.21
276.783
262.805
264.648
268.515
271.387
265.604
265.531
274.19
271.644
268.414
263.772
273.954
263.022
264.088
267.513
276.463
267.988
263.36
271.927
274.478
264.942
266.122
270.925
272.989
262.18
266.989
270.185
270.516
265.457
267.662
276.117
264.453
265.113
268.64
274.006
254.41
260.28
259.316
258.913
261.944
261.687
257.885
257.063
257.286
256.592
259.014
258.963
261.199
255.166
260.509
258.963
258.36
255.803
256.939
259.67
257.86
260.585
235.569
261.996
262.125
261.725
254.908
260.915
262.156
260.3
260.678
263.118
260.323
256.046
202.001
256
259.734
256.481
258.004
257.865
261.344
258.004
261.201
261.773
256
262.805
255.612
255.68
257.842
256.757
257.656
205.886
208.474
204.893
205.299
205.331
208.087
205.98
205.503
207.097
209.641
207.002
203.652
199.947
207.65
208.926
207.475
204.986
208.007
209.329
208.038
209.349
208.477
208.689
205.061
208.973
204.781
209.843
209.641
208.512
198.67
171.636
172.214
210.788
205.136
207.765
211.889
209.157
209.077
210.267
211.911
206.641
211.709
212.93
211.692
206.797
207.002
178.171
212.388
210.378
209.465
204.657
204.371
201.773
201.233
204.198
199.646
203.303
201.539
199.469
202.442
202.317
201.719
205.441
205.416
202.117
201.647
203.523
204.28
200.659
193.407
205.002
201.574
213.055
209.795
205.773
204.595
201.431
205.942
210.228
202.973
202.154
202.845
207.191
212.548
208.072
204.614
204.837
208.477
208.034
202.918
202.135
206.093
212.408
208.188
203.376
199.787
207.23
206.546
206.641
200.3
199.669
196.639
199.338
202.933
198.104
197.531
196.432
197.779
197.455
198.142
197.607
190.282
196.583
195.067
195.625
187.959
199.61
200.45
197.702
198.354
196.338
200.333
196.942
198.738
193.995
198.373
194.732
196.093
196.526
192.183
193.408
193.08
195.906
195.383
193.976
195.751
196.47
197.798
197.531
196.753
198.238
195.513
197.303
199.305
196.564
198.99
195.029
196.357
196.753
193.939
193.463
185.406
193.317
186.351
193.427
185.558
185.205
189.192
192.844
192.608
189.209
191.241
192.789
190.707
195.476
190.512
195.925
190.073
192.174
189.367
193.299
191.814
192.12
191.671
189.035
191.384
189.911
191.33
190.282
193.793
190.282
193.976
191.466
190.991
194.515
193.536
192.953
194.843
192.807
188.149
192.862
191.098
193.536
194.566
193.701
184.704
191.94
190.017
192.662
191.545
140.889
139.545
138.836
138.918
138.942
139.178
138.695
139.048
138.168
138.495
137.542
138.215
138.977
137.577
139.332
138.648
138.542
113.455
117.238
118.664
119.626
115.535
114.294
138.93
118.185
117.634
141.51
140.938
140.118
119.933
118.621
115.968
131.757
133.182
140.298
139.438
137.878
137.947
140.298
139.024
139.32
139.759
139.024
139.867
139.095
140.13
138.519
139.498
138.753
139.569
137.036
136.249
137.866
136.397
137.036
136.522
136.624
135.798
115.04
115.259
116.828
139.284
137.866
138.285
139.807
137.001
135.764
115.008
113.722
114.967
117.6
118.407
115.944
112.97
120.462
116.38
118.125
135.304
138.308
137.128
137.254
137.311
138.075
136.465
137.554
137.415
138.507
136.853
137.773
136.499
137.357
136.125
137.646
136.796
138.789
115.714
138.402
138.262
137.994
138.601
135.989
136.397
136.499
141.779
140.082
136.602
137.196
136.182
142.942
141.01
138.297
114.334
112.814
114.766
116.504
116.273
114.798
113.032
111.63
115.641
116.92
115.348
113.494
117.981
114.71
114.549
114.278
112.822
114.087
114.686
115.747
114.055
112.181
115.259
115.584
116.571
113.048
112.158
114.758
116.223
114.533
112.768
113.118
114.421
118.279
137.715
137.427
137.936
134.449
136.431
133.911
134.383
135.933
135.944
136.636
135.405
135.663
136.352
135.115
135.91
135.483
136.363
134.24
134.914
134.681
134.405
133.638
134.009
134.814
124.376
128.724
140.865
137.128
136.193
135.26
134.903
137.265
135.832
133.562
132.793
135.059
134.053
134.837
135.282
114.967
111.501
114.039
127.611
135.539
135.956
136.624
136.283
135.092
134.837
134.615
134.626
134.527
134.196
134.637
134.693
105.807
104.934
106.316
106.492
105.112
105.676
105.513
105.979
105.418
104.963
106.125
103.661
104.88
105.342
105.658
104.022
104.242
106.041
105.995
104.954
105.776
105.315
106.694
105.758
104.717
106.704
106.584
104.764
104.153
105.907
106.537
106.371
105.409
105.386
104.721
104.8
105.767
104.525
105.504
105.631
104.357
106.025
107.076
105.716
104.873
106.519
105.364
105.822
103.943
106.38
103.053
103.234
102.734
980.686
836.943
104.049
812.483
852.032
840.041
824.103
838.314
820.403
841.125
808.262
860.926
103.347
105.332
104.215
103.678
102.897
102.906
103.182
103.836
104.012
104.579
104.127
104.321
103.07
103.679
104.632
103.819
102.915
992.358
103.438
102.691
101.303
104.304
847.624
876.837
102.751
103.6
103.213
103.959
102.391
103.408
102.306
844.884
829.478
103.443
104.543
786.558
816.045
816.478
804.821
834.046
796.939
102.026
100.253
106.077
104.419
101.422
103.07
104.242
102.897
101.119
101.815
102.854
828.088
102.434
102.714
103.478
102.958
101.882
102.785
103.204
101.311
101.554
102.221
103.079
102.614
102.111
101.918
102.605
101.336
101.883
101.219
102.221
102.247
102.416
102.984
102.34
102.051
102.52
101.789
101.044
101.303
102.554
102.528
800.365
830.158
101.857
101.369
100.688
102.102
100.474
100.556
101.244
100.796
100.763
995.705
101.673
101.495
101.177
102.545
103.208
103.722
103.452
105.187
105.16
104.891
102.374
975.238
100.697
98.985
972.383
101.011
100.302
100.433
100.796
100.09
100.587
998.537
101.098
100.407
100.016
100.482
100.986
100.854
100.065
995.625
971.691
100.286
989.691
101.211
100.829
997.322
101.202
994.819
100.098
998.862
70.125
692.009
698.023
691.425
662.247
581.405
597.128
694.767
69.236
688.982
702.272
699.215
698.916
693.943
691.833
690.609
694.767
697.904
70.071
697.429
695.889
689.736
69.026
704.688
68.823
70.113
68.696
691.191
692.828
702.332
697.964
698.797
699.215
688.635
694.885
710.864
712.534
56.598
70.077
578.572
697.845
692.652
687.768
690.376
681.701
698.261
594.701
650.107
696.303
71.646
700.291
706.085
692.594
685.294
691.833
701.851
694.414
692.535
691.016
600.278
588.971
580.211
58.124
597.782
573.669
579.349
590.117
568.612
695.062
695.121
692.301
691.541
704.022
690.842
688.751
63.435
694.649
695.062
687.652
567.706
692.009
693.708
68.558
68.823
692.652
690.434
695.062
695.003
691.541
690.376
685.753
691.541
684.378
586.022
695.003
688.866
689.853
688.172
696.303
70.125
703.417
688.519
686.903
696.184
687.883
686.787
685.867
677.305
694.473
688.461
685.925
567.549
582.853
581.612
57.678
586.735
569.284
583.808
586.946
567.352
584.475
57.379
573.388
589.692
570.156
584.475
591.096
565.785
581.736
576.536
576.658
588.379
573.027
581.612
587.366
564.187
58.598
580.499
562.251
58.598
574.998
694.237
699.334
703.599
703.538
709.879
711.976
713.278
709.633
711.976
702.212
694.473
695.948
684.778
684.778
687.825
681.531
555.993
683.863
681.758
688.751
685.408
687.191
693.884
697.014
698.142
710.618
712.906
709.817
705.173
70.816
694.414
699.573
686.097
684.664
687.364
681.134
686.557
69.055
687.421
675.295
687.364
687.941
70.047
704.022
710.186
706.877
713.278
71.031
697.785
693.943
704.446
697.191
684.893
674.128
680.003
681.758
686.557
682.553
684.263
527.733
498.904
431.342
428.766
421.898
530.987
526.546
529.233
529.815
528.662
530.472
530.089
529.986
520.557
527.156
525.802
532.988
527.574
527.642
528.346
524.422
523.584
527.733
530.438
524.758
52.614
433.921
424.999
422.029
427.535
544.361
532.779
524.557
532.225
532.121
52.345
526.174
529.952
537.278
537.736
545.733
545.551
542.301
530.914
411.945
412.981
417.519
420.363
429.575
426.877
414.386
428.407
429.035
423.267
419.586
522.304
536.161
537.603
540.498
536.899
534.691
530.261
523.685
527.801
536.652
541.944
541.047
529.815
524.456
526.039
533.438
485.537
45.263
465.587
534.377
529.131
54.119
533.299
53.219
526.039
525.398
530.404
531.914
535.002
538.628
533.056
530.164
530.398
529.747
453.624
527.134
416.345
519.764
521.684
525.532
520.755
526.053
524.154
437.513
425.109
416.662
422.508
420.146
419.952
50.723
52.195
516.942
519.962
520.292
515.285
520.855
504.154
519.731
520.755
523.718
53.504
52.102
519.099
515.966
528.687
534.517
528.321
529.507
532.501
525.836
508.015
522.749
520.614
529.541
533.924
527.529
528.789
521.275
525.769
515.837
518.186
528.151
528.141
534.866
532.813
52.937
520.094
519.566
407.846
431.705
532.882
524.456
522.782
522.382
529.199
509.516
514.702
515.026
511.968
511.552
52.56
506.429
523.953
51.248
528.584
510.182
519.599
490.745
514.735
507.622
527.665
516.911
483.675
402.714
517.368
527.835
513.122
527.393
510.882
529.815
504.092
517.793
515.382
527.088
515.674
520.987
478.812
529.747
514.314
477.891
411.472
415.669
522.983
514.541
52.641
517.139
517.695
509.801
407.076
418.835
510.151
510.246
512.865
511.265
517.398
346.202
343.985
352.397
346.707
348.373
348.848
344.963
347.155
349.346
348.744
345.596
348.596
348.351
329.327
348.885
348.573
349.757
291.188
34.81
347.177
350.445
348.092
348.455
348.818
345.501
347.671
348.373
347.893
348.107
34.681
337.745
333.272
349.041
347.752
348.107
348.366
348.225
348.908
347.126
350.145
347.273
348.514
347.163
332.522
346.928
346.744
323.654
350.115
346.693
34.922
347.989
346.129
328.778
349.339
345.982
347.398
347.797
347.841
341.561
352.989
350.347
319.438
346.715
346.906
349.869
347.745
343.682
346.942
349.279
346.165
345.661
347.258
327.333
345.435
347.251
347.531
345.654
348.551
347.782
348.447
346.304
345.778
349.138
349.884
346.326
34.72
307.964
343.243
347.398
348.173
347.406
347.376
347.863
347.207
34.827
347.597
29.18
292.024
296.548
290.414
318.563
34.87
346.972
346.151
347.767
346.238
348.522
35.186
327.949
35.217
355.132
350.497
354.886
298.776
291.344
289.588
350.467
352.443
352.754
351.724
351.709
348.559
35.097
352.306
350.948
352.837
351.061
34.963
34.966
349.436
351.558
351.852
348.937
351.573
353.035
350.775
352.382
352.632
350.303
354.617
351.784
348.685
352.913
349.361
34.957
352.412
352.276
351.754
352.572
347.686
352.647
352.314
351.799
351.898
349.734
354.586
328.271
353.408
34.72
351.475
347.016
346.421
346.605
345.013
345.574
343.869
344.977
34.513
344.108
345.159
346.737
342.203
346.913
349.399
352.458
35.013
35.073
351.023
346.202
351.121
352.087
350.273
351.784
35.183
349.287
35.028
349.079
351.475
35.022
344.491
346.041
349.049
34.717
351.701
350.843
247.082
346.194
304.734
28.556
291.546
26.367
255.159
265.165
264.796
257.377
266.199
266.368
210.329
210.138
211.904
211.382
260.764
261.512
262.048
261.116
261.362
260.552
261.587
263.582
264.412
262.643
260.801
259.269
262.973
260.272
258.459
259.736
260.447
261.337
261.405
259.487
261.814
209.321
257.445
261.363
23.692
261.638
260.788
261.175
231.115
228.785
262.094
265.444
264.232
262.986
261.025
245.196
264.886
264.181
259.559
259.335
259.175
232.473
260.167
258.643
247.004
261.813
258.647
209.858
208.228
207.658
209.568
257.983
260.305
259.245
263.892
263.625
205.915
213.539
264.441
263.926
208.082
209.364
259.335
258.744
25.989
258.647
229.397
257.659
259.857
258.199
259.475
258.782
255.996
260.206
259.097
258.589
262.813
245.777
249.947
260.004
253.693
262.896
261.366
263.657
262.152
255.577
235.433
257.687
258.737
205.169
208.838
205.146
206.165
206.483
262.964
261.362
260.105
262.106
258.549
260.552
258.516
225.163
258.231
256.887
226.909
239.518
261.566
260.863
259.429
259.551
259.068
256.778
257.347
255.792
257.149
251.698
261.562
26.193
232.071
257.545
254.988
237.411
259.973
203.806
203.946
261.951
255.912
262.048
261.116
261.429
206.937
229.542
256.706
256.851
256.915
257.457
204.376
206.569
257.214
206.122
251.601
261.479
260.134
260.668
261.437
261.637
255.358
205.863
205.922
206.626
255.613
254.718
205.018
204.634
26.063
258.134
260.002
259.388
261.087
255.091
249.224
260.456
201.654
259.261
257.327
25.968
258.415
25.479
207.795
205.715
255.916
255.888
255.314
205.336
20.613
259.573
258.831
20.654
204.787
255.557
259.224
257.282
259.031
258.317
257.081
257.809
257.323
246.435
203.647